<?xml version="1.0" encoding="UTF-8"?>
<svg width="100px" height="100px" viewBox="0 0 100 100" version="1.1" xmlns="http://www.w3.org/2000/svg" xmlns:xlink="http://www.w3.org/1999/xlink">
    <!-- Generator: Sketch 55.2 (78181) - https://sketchapp.com -->
    <title>Oval 2</title>
    <desc>Created with Sketch.</desc>
    <defs>
        <circle id="path-1" cx="50" cy="50" r="50"></circle>
    </defs>
    <g id="Page-1" stroke="none" stroke-width="1" fill="none" fill-rule="evenodd">
        <g id="02_detail" transform="translate(-196.000000, -1092.000000)">
            <g id="6-care" transform="translate(0.000000, 830.000000)">
                <g id="info" transform="translate(60.000000, 63.000000)">
                    <g id="06">
                        <g transform="translate(0.000000, 199.000000)">
                            <g id="Oval-2" transform="translate(136.000000, 0.000000)">
                                <g id="Group">
                                    <mask id="mask-2" fill="white">
                                        <use xlink:href="#path-1"></use>
                                    </mask>
                                    <use id="Oval" fill="#36B7DE" fill-rule="nonzero" xlink:href="#path-1"></use>
                                    <path d="M65.8991935,28.0008065 C65.6282258,27.7016129 65.1096774,27.7112903 64.4370968,28.1008065 L63.4306452,28.6814516 C63.3427419,28.7314516 63.2491935,28.7653226 63.1580645,28.8040323 C60.9330645,26.5645161 56.6540323,22.2580645 56.4483871,22.0653226 C55.6016129,21.2685484 54.3677419,20.7072581 53.3064516,20.7064516 L47.0056452,20.700806 C45.5975806,20.7 45.0266129,21.6879032 45.7314516,22.9072581 C46.6580645,24.5104839 47.958871,26.7612903 49.183871,28.8814516 C46.9153226,26.6056452 44.4806452,24.1629032 44.4137097,24.0935484 C43.7217742,23.3798387 42.8137097,23.5387097 42.2177419,24.5709677 L34.5991935,37.7701613 C34.0217742,38.7693548 34.1983871,39.9967742 34.9516129,40.7943548 C35.0887097,40.9403226 51.0072581,56.908871 56.6080645,62.5274194 L54.0870968,64.9766129 C47.2959677,58.1733871 35.9491935,46.8072581 35.7137097,46.5879032 C35.1032258,46.0185484 34.2201613,45.7766129 33.3467742,46.0241935 L22.7862903,49.0177419 C21.4306452,49.4032258 21.3209677,50.2846774 22.5403226,50.9919355 L23.5443548,51.575 C24.7645161,52.2830645 25.1846774,53.8459677 24.4830645,55.0685484 C23.641129,56.5330645 22.5403226,58.4483871 21.6975806,59.9137097 C20.9959677,61.1362903 20.9967742,63.1145161 21.7,64.3346774 L24.8467742,69.7967742 C24.933871,69.9491935 25.0290323,70.0822581 25.1290323,70.1967742 C25.5395161,70.666129 41.8701613,87.0153226 55.2927419,100.443548 C76.9733871,98.15 94.4959677,81.9266129 98.741129,60.8895161 C84.8524194,46.9887097 66.0370968,28.1524194 65.8991935,28.0008065 Z" id="Path" fill="#000000" fill-rule="nonzero" opacity="0.2" mask="url(#mask-2)"></path>
                                    <g mask="url(#mask-2)" fill-rule="nonzero" id="Path">
                                        <g transform="translate(20.967742, 20.354839)">
                                            <path d="M21.25,4.21693548 L13.6314516,17.416129 C12.9266129,18.6362903 13.3451613,20.1959677 14.5653226,20.9 L18.5951613,23.2258065 C19.8145161,23.9298387 21.375,23.5112903 22.0790323,22.2919355 L26.8814516,13.9741935 C27.5854839,12.7540323 27.5854839,10.7766129 26.8814516,9.55564516 L23.7991935,4.21693548 C23.0959677,2.99677419 21.9540323,2.99677419 21.25,4.21693548 Z" fill="#EFF79E"></path>
                                            <path d="M29.483871,15.8201613 L28.4798387,16.4008065 C27.258871,17.1048387 27.3693548,17.9870968 28.725,18.3709677 L39.2862903,21.3645161 C40.6419355,21.7491935 42.0201613,20.9524194 42.3645161,19.5870968 L45.0532258,8.94354839 C45.3983871,7.57822581 44.6887097,7.04193548 43.4693548,7.74677419 L42.4629032,8.32741935 C41.2435484,9.03145161 39.6806452,8.61451613 38.9741935,7.39596774 C38.125,5.93467742 37.0169355,4.02258065 36.1685484,2.56129032 C35.4620968,1.34274194 33.7475806,0.35483871 32.3387097,0.353225806 L26.0379032,0.347580152 C24.6298387,0.346774194 24.058871,1.33467742 24.7637097,2.55403226 C26.3032258,5.21854839 28.8774194,9.67177419 30.4177419,12.3379032 C31.1217742,13.5564516 30.7032258,15.116129 29.483871,15.8201613 Z" fill="#D4E157"></path>
                                            <path d="M29.483871,15.8201613 L28.4798387,16.4008065 C27.258871,17.1048387 27.3693548,17.9870968 28.725,18.3709677 L39.2862903,21.3645161 C40.6419355,21.7491935 42.0201613,20.9524194 42.3645161,19.5870968 L45.0532258,8.94354839 C45.3983871,7.57822581 44.6887097,7.04193548 43.4693548,7.74677419 L42.4629032,8.32741935 C41.2435484,9.03145161 39.6806452,8.61451613 38.9741935,7.39596774 C38.125,5.93467742 37.0169355,4.02258065 36.1685484,2.56129032 C35.4620968,1.34274194 33.7475806,0.35483871 32.3387097,0.353225806 L26.0379032,0.347580152 C24.6298387,0.346774194 24.058871,1.33467742 24.7637097,2.55403226 C26.3032258,5.21854839 28.8774194,9.67177419 30.4177419,12.3379032 C31.1217742,13.5564516 30.7032258,15.116129 29.483871,15.8201613 Z" fill="#EFF79E"></path>
                                            <path d="M9.6266129,51.6524213 L24.8653226,51.6491935 C26.2741935,51.6491935 27.416129,50.5072581 27.416129,49.0991935 L27.416129,44.4435484 C27.416129,43.0354839 26.2741935,41.8935484 24.8653226,41.8935484 L15.258871,41.8935484 C13.85,41.8935484 12.1379032,42.8830645 11.4330645,44.1016129 L8.35,49.4443548 C7.64516129,50.6645161 8.21693548,51.6540323 9.6266129,51.6524213 Z" fill="#EFF79E"></path>
                                            <path d="M11.0782258,51.6524194 L16.7096774,41.8927419 L15.258871,41.8927419 C13.85,41.8927419 12.1379032,42.8822581 11.4330645,44.1008065 L8.35,49.4435484 C7.64596774,50.6645161 8.21774194,51.6532258 9.6266129,51.6516129 L11.0782258,51.6516129 L11.0782258,51.6524194 Z" fill="#000000" opacity="0.2"></path>
                                            <path d="M15.5572581,38.7193548 L16.5596774,39.2991935 C17.7790323,40.0032258 18.4895161,39.4677419 18.1443548,38.1024194 L15.4564516,27.4483871 C15.1112903,26.0822581 13.7330645,25.2862903 12.3782258,25.6709677 L1.81774194,28.6645161 C0.462096774,29.05 0.352419355,29.9314516 1.57177419,30.6387097 L2.57580645,31.2217742 C3.79596774,31.9298387 4.21612903,33.4927419 3.51451613,34.7153226 C2.67258065,36.1798387 1.57177419,38.0951613 0.729032258,39.5604839 C0.0274193548,40.7830645 0.0282258065,42.7612903 0.731451613,43.9814516 L3.87822581,49.4435484 C4.58064516,50.6629032 5.72096774,50.6629032 6.425,49.4435484 C7.96209677,46.7766129 10.5330645,42.3225806 12.0725806,39.6540323 C12.7774194,38.433871 14.3370968,38.0153226 15.5572581,38.7193548 Z" fill="#EFF79E"></path>
                                            <path d="M56.6008065,37.9532258 L48.9782258,24.7451613 C48.2733871,23.525 46.7137097,23.1080645 45.4943548,23.8120968 L41.4645161,26.1387097 C40.2451613,26.8427419 39.8266129,28.4032258 40.5306452,29.6225806 L45.333871,37.9540323 C46.0379032,39.1733871 47.7508065,40.1620968 49.1596774,40.1620968 L55.3258065,40.1620968 C56.7346774,40.1620968 57.3048387,39.1725806 56.6008065,37.9532258 Z" fill="#EFF79E"></path>
                                            <path d="M55.9298387,36.791129 L44.6629032,36.791129 L45.3330645,37.9532258 C46.0370968,39.1725806 47.75,40.1612903 49.158871,40.1612903 L55.325,40.1612903 C56.733871,40.1612903 57.3040323,39.1717742 56.6,37.9532258 L55.9298387,36.791129 Z" fill="#000000" opacity="0.2"></path>
                                            <path d="M42.4322581,39.2814516 L42.4322581,38.1217742 C42.4322581,36.7120968 41.6129032,36.3669355 40.6032258,37.3483871 L32.7290323,44.9983871 C31.7185484,45.9798387 31.7185484,47.5701613 32.7290323,48.5532258 L40.6024194,56.2016129 C41.6129032,57.1830645 42.4322581,56.8362903 42.4322581,55.4282258 L42.4322581,54.2677419 C42.4322581,52.8596774 43.575,51.7145161 44.9830645,51.7129032 C46.6741935,51.7080645 48.8830645,51.7048387 50.5741935,51.7016129 C51.9830645,51.6983871 53.6967742,50.7096774 54.4016129,49.4887097 L57.558871,44.033871 C58.2637097,42.8145161 57.6935484,41.8258065 56.2846774,41.8274194 C53.2072581,41.8274194 48.0629032,41.8290323 44.9822581,41.8306452 C43.5741935,41.8314516 42.4322581,40.6895161 42.4322581,39.2814516 Z" fill="#EFF79E"></path>
                                        </g>
                                    </g>
                                </g>
                            </g>
                        </g>
                    </g>
                </g>
            </g>
        </g>
    </g>
</svg>