<?xml version="1.0" encoding="UTF-8"?>
<svg width="100px" height="100px" viewBox="0 0 100 100" version="1.1" xmlns="http://www.w3.org/2000/svg" xmlns:xlink="http://www.w3.org/1999/xlink">
    <!-- Generator: Sketch 55.2 (78181) - https://sketchapp.com -->
    <title>Group</title>
    <desc>Created with Sketch.</desc>
    <defs>
        <circle id="path-1" cx="50" cy="50" r="50"></circle>
    </defs>
    <g id="Page-1" stroke="none" stroke-width="1" fill="none" fill-rule="evenodd">
        <g id="02_detail" transform="translate(-301.000000, -916.000000)">
            <g id="6-care" transform="translate(0.000000, 830.000000)">
                <g id="info" transform="translate(60.000000, 63.000000)">
                    <g id="Group">
                        <g transform="translate(241.000000, 23.000000)">
                            <mask id="mask-2" fill="white">
                                <use xlink:href="#path-1"></use>
                            </mask>
                            <use id="Oval" fill="#36B7DE" fill-rule="nonzero" xlink:href="#path-1"></use>
                            <path d="M72.6435484,27.6758065 C72.0274194,27.0459677 71.2064516,26.6217742 70.2903226,26.4741935 C67.4459677,23.6548387 61.7137097,17.9717742 61.6362903,17.8693548 C61.5943548,17.816129 61.541129,17.7701613 61.4758065,17.7370968 C61.2475806,17.6217742 60.9701613,17.7169355 60.8548387,17.9451613 C60.6532258,18.3532258 60.1959677,18.6653226 59.6620968,18.8395161 C59.6362903,18.8491935 59.6080645,18.8508065 59.5822581,18.8596774 C59.0185484,18.2991935 56.3612903,15.6540323 55.8903226,15.1830645 C48.7862903,8.07177419 35.3935484,19.1572581 35.2846774,19.2467742 C35.2830645,19.25 35.2782258,19.2516129 35.2782258,19.2516129 L35.2790323,19.266129 L43.1903226,27.175 C42.7241935,27.333871 42.3967742,27.7814516 42.4209677,28.2983871 C42.4862903,29.6637097 42.3475806,31.0387097 41.958871,32.3508065 C41.7645161,33.0056452 41.508871,33.6451613 41.1927419,34.2516129 C40.9927419,34.6362903 40.7524194,35.0233871 40.5,35.3717742 C34.5322581,35.1830645 30.8056452,33.6782258 25.8854839,36.308871 C24.5935484,37 23.1177419,37.6854839 22.4056452,38.8008065 C22.1596774,39.183871 21.9701613,39.3887097 21.9701613,40.1209677 C21.9741935,40.1209677 21.9798387,40.116129 21.9846774,40.116129 C21.9669355,40.2879032 22.0451613,40.4645161 22.2169355,40.6314516 C22.2919355,40.7056452 28.5379032,46.9935484 31.8919355,50.3717742 C32.7669355,52.7379032 33.2104839,55.3758065 33.2153226,58.1637097 C33.2008065,65.9112903 31.15,70.166129 24.3,72.8596774 C23.5879032,73.1387097 23.2379032,73.5008065 23.2741935,73.8443548 C23.2693548,73.8443548 23.2637097,73.8395161 23.2596774,73.8395161 C23.2596774,74.5717742 23.45,74.775 23.6951613,75.1580645 C24.0516129,75.7169355 36.6193548,88.3040323 49.0733871,100.725 C49.4483871,100.733065 49.8193548,100.753226 50.1959677,100.753226 C76.3782258,100.753226 97.8193548,80.5129032 99.7637097,54.8282258 C86.8508065,41.9056452 73.0274194,28.0677419 72.6435484,27.6758065 Z" id="Path" fill="#000000" fill-rule="nonzero" opacity="0.1" mask="url(#mask-2)"></path>
                            <g mask="url(#mask-2)">
                                <g transform="translate(21.774194, 12.290323)">
                                    <g transform="translate(30.645161, 13.709677)">
                                        <path d="M8.78951613,9.80806452 C9.23225806,10.0806452 9.47822581,11.2048387 9.57903226,11.708871 C9.88064516,13.2209677 9.86612903,16.05 9.78629032,18.4185484 L10.041129,19.1701613 C10.6169355,19.9387097 12.041129,20.2298387 12.991129,20.2298387 C14.008871,20.2298387 15.5741935,19.7096774 16.05,18.9048387 L16.1951613,18.4177419 C16.1120968,16.0483871 16.1008065,13.2201613 16.4016129,11.7080645 C16.5024194,11.2040323 16.75,10.0790323 17.1919355,9.80725806 C19.1580645,8.59596774 21.3919355,6.80645161 21.3919355,4.52903226 C21.3919355,2.2516129 19.5104839,0.404032258 17.1919355,0.404032258 C15.6185484,0.404032258 14.2491935,0.896774194 13.5298387,1.92096774 C13.4032258,2.0766129 13.2104839,2.17741935 12.991129,2.17741935 C12.7733871,2.17741935 12.5798387,2.0766129 12.4540323,1.92258065 C11.7330645,0.897580645 10.3612903,0.404032258 8.78870968,0.404032258 C6.46854839,0.404032258 4.58790323,2.2516129 4.58790323,4.52903226 C4.58790323,6.80645161 6.82580645,8.59677419 8.78951613,9.80806452 Z" id="Path" fill="#FFF7EB" fill-rule="nonzero"></path>
                                        <path d="M19.6266129,28.0129032 C19.033871,23.65 17.8669355,20.2693548 16.1975806,18.4193548 C16.1975806,19.4967742 14.2032258,20.2306452 12.9919355,20.2306452 C11.7790323,20.2306452 9.78467742,19.7596774 9.78467742,18.4177419 C8.05806452,20.3346774 6.86774194,23.8862903 6.29677419,28.475 C5.34758065,36.0798387 0.608064516,39.5322581 0.608064516,46.3346774 C0.608064516,52.2258065 6.1483871,56.9967742 12.991129,56.9967742 C17.0120968,56.9967742 20.5830645,55.3475806 22.8451613,52.791129 C21.2887097,52.2701613 19.5580645,50.4540323 19.5580645,48.8629032 C19.5580645,47.3362903 16.2379032,47.5395161 15.7580645,45.7580645 C15.333871,44.1862903 18.1653226,42.116129 18.1951613,40.3145161 C18.2217742,38.7379032 15.3854839,36.8354839 15.7580645,35.441129 C16.1717742,33.8879032 17.5758065,34.4201613 18.3314516,33.2120968 C19.2112903,31.8104839 17.0733871,28.0943548 19.6032258,28.0129032 L19.6266129,28.0129032 Z" id="Path" fill="#FECC81" fill-rule="nonzero"></path>
                                        <path d="M8.37822581,8.49274194 C9.15,8.34274194 9.8233871,7.99354839 10.3967742,7.58225806 C10.9346774,7.18225806 11.3895161,6.7016129 11.7064516,6.16935484 C12.0193548,5.65725806 12.1991935,5.08870968 12.2330645,4.51209677 C12.266129,3.94032258 12.1540323,3.35564516 11.966129,2.7766129 C12.3112903,3.25403226 12.566129,3.84274194 12.5959677,4.49193548 C12.641129,5.14435484 12.4540323,5.84193548 12.1072581,6.44032258 C11.7387097,7.06209677 11.2032258,7.60564516 10.5693548,7.98064516 C9.90564516,8.38387097 9.10322581,8.60322581 8.37822581,8.49274194 Z" id="Path" fill="#DEDFE0" fill-rule="nonzero"></path>
                                        <g transform="translate(4.032258, 22.580645)" fill="#A1887F" fill-rule="nonzero" id="Shape">
                                            <g transform="translate(0.000000, 7.258065)">
                                                <path d="M1.25,17.0629032 C1.44193548,17.0629032 1.5983871,17.2112903 1.5983871,17.3903226 C1.5983871,17.575 1.44274194,17.7209677 1.25,17.7209677 C1.05725806,17.7209677 0.901612903,17.5741935 0.901612903,17.3903226 C0.901612903,17.2112903 1.05806452,17.0629032 1.25,17.0629032 L1.25,17.0629032 Z M1.25,16.6596774 C0.835483871,16.6596774 0.498387097,16.9870968 0.498387097,17.3903226 C0.498387097,17.7951613 0.835483871,18.1241935 1.25,18.1241935 C1.66451613,18.1241935 2.0016129,17.7951613 2.0016129,17.3903226 C2.00080645,16.9870968 1.66370968,16.6596774 1.25,16.6596774 L1.25,16.6596774 Z"></path>
                                                <path d="M6.71693548,11.0370968 C6.90806452,11.0370968 7.06451613,11.183871 7.06451613,11.366129 C7.06451613,11.5475806 6.90887097,11.6935484 6.71693548,11.6935484 C6.525,11.6935484 6.36854839,11.5467742 6.36854839,11.366129 C6.36854839,11.1830645 6.525,11.0370968 6.71693548,11.0370968 L6.71693548,11.0370968 Z M6.71693548,10.633871 C6.30241935,10.633871 5.96532258,10.9620968 5.96532258,11.366129 C5.96532258,11.7693548 6.30241935,12.0967742 6.71693548,12.0967742 C7.13064516,12.0967742 7.46774194,11.7693548 7.46774194,11.366129 C7.46774194,10.9620968 7.13064516,10.633871 6.71693548,10.633871 L6.71693548,10.633871 Z"></path>
                                                <path d="M1.25,11.0370968 C1.44193548,11.0370968 1.5983871,11.183871 1.5983871,11.366129 C1.5983871,11.5475806 1.44274194,11.6935484 1.25,11.6935484 C1.05725806,11.6935484 0.901612903,11.5467742 0.901612903,11.366129 C0.901612903,11.1830645 1.05806452,11.0370968 1.25,11.0370968 L1.25,11.0370968 Z M1.25,10.633871 C0.835483871,10.633871 0.498387097,10.9620968 0.498387097,11.366129 C0.498387097,11.7693548 0.835483871,12.0967742 1.25,12.0967742 C1.66451613,12.0967742 2.0016129,11.7693548 2.0016129,11.366129 C2.00080645,10.9620968 1.66370968,10.633871 1.25,10.633871 L1.25,10.633871 Z"></path>
                                                <path d="M4.07419355,22.7330645 C4.26451613,22.7330645 4.42177419,22.8798387 4.42177419,23.0604839 C4.42177419,23.2435484 4.26532258,23.391129 4.07419355,23.391129 C3.88145161,23.391129 3.72580645,23.2427419 3.72580645,23.0604839 C3.72580645,22.8798387 3.88064516,22.7330645 4.07419355,22.7330645 L4.07419355,22.7330645 Z M4.07419355,22.3298387 C3.65967742,22.3298387 3.32258065,22.6572581 3.32258065,23.0604839 C3.32258065,23.4653226 3.65967742,23.7943548 4.07419355,23.7943548 C4.48790323,23.7943548 4.825,23.4653226 4.825,23.0604839 C4.82419355,22.6580645 4.48790323,22.3298387 4.07419355,22.3298387 L4.07419355,22.3298387 Z"></path>
                                                <path d="M11.5870968,23.0612903 C11.7790323,23.0612903 11.9370968,23.2112903 11.9370968,23.3919355 C11.9370968,23.5717742 11.7798387,23.7209677 11.5870968,23.7209677 C11.3943548,23.7209677 11.2403226,23.5709677 11.2403226,23.3919355 C11.2403226,23.2104839 11.3951613,23.0612903 11.5870968,23.0612903 L11.5870968,23.0612903 Z M11.5870968,22.6580645 C11.1733871,22.6580645 10.8370968,22.9870968 10.8370968,23.3919355 C10.8370968,23.7959677 11.1733871,24.1241935 11.5870968,24.1241935 C12.0024194,24.1241935 12.3403226,23.7959677 12.3403226,23.3919355 C12.3403226,22.9870968 12.0024194,22.6580645 11.5870968,22.6580645 L11.5870968,22.6580645 Z"></path>
                                                <path d="M10.6032258,0.806451613 C10.7951613,0.806451613 10.9532258,0.953225806 10.9532258,1.13387097 C10.9532258,1.31693548 10.7959677,1.46129032 10.6032258,1.46129032 C10.4120968,1.46129032 10.2548387,1.31612903 10.2548387,1.13387097 C10.2556452,0.953225806 10.4120968,0.806451613 10.6032258,0.806451613 L10.6032258,0.806451613 Z M10.6032258,0.403225806 C10.1887097,0.403225806 9.8516129,0.730645161 9.8516129,1.13387097 C9.8516129,1.53709677 10.1887097,1.86451613 10.6032258,1.86451613 C11.0185484,1.86451613 11.3564516,1.53709677 11.3564516,1.13387097 C11.3564516,0.730645161 11.0185484,0.403225806 10.6032258,0.403225806 L10.6032258,0.403225806 Z"></path>
                                                <path d="M4.42016129,2.27258065 C4.61370968,2.27258065 4.77016129,2.42096774 4.77016129,2.6016129 C4.77016129,2.78467742 4.61451613,2.93064516 4.42016129,2.93064516 C4.22903226,2.93064516 4.0733871,2.78387097 4.0733871,2.6016129 C4.07419355,2.42096774 4.22903226,2.27258065 4.42016129,2.27258065 L4.42016129,2.27258065 Z M4.42016129,1.86935484 C4.00645161,1.86935484 3.67016129,2.19758065 3.67016129,2.6016129 C3.67016129,3.00564516 4.00645161,3.33387097 4.42016129,3.33387097 C4.83548387,3.33387097 5.1733871,3.00564516 5.1733871,2.6016129 C5.1733871,2.19758065 4.83548387,1.86935484 4.42016129,1.86935484 L4.42016129,1.86935484 Z"></path>
                                            </g>
                                            <path d="M6.54516129,2.97258065 C6.73790323,2.97258065 6.89435484,3.11935484 6.89435484,3.3 C6.89435484,3.48064516 6.73870968,3.62741935 6.54516129,3.62741935 C6.35322581,3.62741935 6.19758065,3.48064516 6.19758065,3.3 C6.19758065,3.11935484 6.35322581,2.97258065 6.54516129,2.97258065 L6.54516129,2.97258065 Z M6.54516129,2.56935484 C6.13145161,2.56935484 5.79435484,2.89677419 5.79435484,3.3 C5.79435484,3.70322581 6.13064516,4.03064516 6.54516129,4.03064516 C6.95967742,4.03064516 7.29758065,3.70322581 7.29758065,3.3 C7.29758065,2.89677419 6.95967742,2.56935484 6.54516129,2.56935484 L6.54516129,2.56935484 Z"></path>
                                            <path d="M11.6467742,0.814516129 C11.8395161,0.814516129 11.9967742,0.959677419 11.9967742,1.14032258 C11.9967742,1.325 11.8403226,1.46935484 11.6467742,1.46935484 C11.4564516,1.46935484 11.3008065,1.32419355 11.3008065,1.14032258 C11.3016129,0.958870968 11.4564516,0.814516129 11.6467742,0.814516129 L11.6467742,0.814516129 Z M11.6467742,0.411290323 C11.233871,0.411290323 10.8975806,0.737903226 10.8975806,1.14032258 C10.8975806,1.54435484 11.233871,1.87258065 11.6467742,1.87258065 C12.0620968,1.87258065 12.4,1.54435484 12.4,1.14032258 C12.4,0.737903226 12.0620968,0.411290323 11.6467742,0.411290323 L11.6467742,0.411290323 Z"></path>
                                        </g>
                                        <path d="M19.558871,48.8629032 C19.558871,47.3362903 16.2387097,47.5395161 15.758871,45.7580645 C15.3346774,44.1862903 18.166129,42.116129 18.1959677,40.3145161 C18.2225806,38.7379032 15.3862903,36.8354839 15.758871,35.441129 C16.1725806,33.8879032 17.5766129,34.4201613 18.3322581,33.2120968 C19.2120968,31.8104839 17.0741935,28.0943548 19.6040323,28.0129032 L19.6258065,28.0129032 C19.0330645,23.65 17.866129,20.2693548 16.1967742,18.4193548 C16.1967742,18.591129 16.1951613,18.4193548 16.1951613,18.4193548 C16.1120968,16.05 16.1008065,13.2217742 16.4016129,11.7096774 C16.5024194,11.2056452 16.75,10.0806452 17.1919355,9.80887097 C19.1580645,8.59758065 21.3919355,6.80806452 21.3919355,4.53064516 C21.3919355,2.25322581 19.5104839,0.405645161 17.1919355,0.405645161 C15.6185484,0.405645161 14.2491935,0.898387097 13.5298387,1.92258065 C13.4032258,2.07822581 13.2104839,2.17903226 12.991129,2.17903226 L12.991129,2.17903226 L12.991129,33.4854839 L12.991129,56.9967742 L12.991129,56.9967742 C17.0120968,56.9967742 20.5830645,55.3475806 22.8451613,52.791129 C21.2895161,52.2693548 19.558871,50.4532258 19.558871,48.8629032 Z" id="Path" fill="#000000" fill-rule="nonzero" opacity="0.2"></path>
                                    </g>
                                    <g transform="translate(0.000000, 14.516129)">
                                        <path d="M18.3024194,9.09758065 C18.7064516,8.65241935 19.108871,8.03951613 19.4185484,7.44516129 C19.7346774,6.83870968 19.9895161,6.19919355 20.1846774,5.54435484 C20.5733871,4.23225806 20.7129032,2.85725806 20.6475806,1.49193548 C20.6177419,0.866935484 21.1008065,0.334677419 21.7258065,0.30483871 C22.3508065,0.275 22.8830645,0.758064516 22.9129032,1.38306452 C22.9145161,1.41774194 22.9145161,1.4516129 22.9129032,1.48467742 L22.9129032,1.49193548 C22.8435484,3.08548387 22.5314516,4.67741935 21.9387097,6.16048387 C21.6427419,6.9016129 21.2790323,7.61451613 20.8467742,8.28467742 C20.4016129,8.96048387 19.941129,9.56774194 19.2903226,10.1629032 C18.9951613,10.4330645 18.5362903,10.4129032 18.266129,10.1169355 C18.0120968,9.83870968 18.0145161,9.41693548 18.2620968,9.14274194 L18.3024194,9.09758065 Z" id="Path" fill="#6D6E70" fill-rule="nonzero"></path>
                                        <path d="M18.3467742,9.22822581 C18.7854839,8.75564516 19.1967742,8.13225806 19.5193548,7.52258065 C19.8475806,6.9016129 20.1072581,6.2516129 20.308871,5.58870968 C20.7072581,4.25806452 20.8548387,2.87016129 20.7975806,1.49193548 C20.7774194,0.995967742 21.2008065,0.581451613 21.7427419,0.562903226 C22.2862903,0.544354839 22.741129,0.92983871 22.7620968,1.42419355 C22.7637097,1.44596774 22.7637097,1.47177419 22.7620968,1.49193548 C22.7016129,3.03225806 22.4120968,4.57419355 21.8451613,6.03306452 C21.5596774,6.76048387 21.2120968,7.46612903 20.7870968,8.13709677 C20.3524194,8.81290323 19.8943548,9.43145161 19.2451613,10.033871 C19.0024194,10.2604839 18.6040323,10.2637097 18.3564516,10.0419355 C18.1201613,9.83064516 18.1048387,9.49032258 18.3153226,9.26370968 L18.3467742,9.22822581 Z" id="Path" fill="#AFB436" fill-rule="nonzero"></path>
                                        <path d="M21.7798387,0.565322581 L21.7798387,1.49112903 C21.7798387,6.90645161 18.7959677,9.62983871 18.7959677,9.62983871 L18.2798387,9.94193548 C18.3040323,9.975 18.3233871,10.0129032 18.3564516,10.041129 C18.6040323,10.2629032 19.0024194,10.2596774 19.2451613,10.0330645 C19.8943548,9.43145161 20.3524194,8.81209677 20.7870968,8.13629032 C21.2120968,7.46532258 21.5596774,6.75967742 21.8451613,6.03225806 C22.4120968,4.5733871 22.7016129,3.03145161 22.7620968,1.49112903 C22.7637097,1.47096774 22.7637097,1.44516129 22.7620968,1.4233871 C22.7419355,0.941935484 22.3056452,0.565322581 21.7798387,0.565322581 Z" id="Path" fill="#D0D2D3" fill-rule="nonzero"></path>
                                        <path d="M36.9120968,47.7854839 C35.6467742,48.208871 33.9629032,48.608871 32.1233871,48.608871 C29.7879032,48.608871 29.0120968,47.6177419 27.7427419,46.5798387 C26.7177419,45.7451613 26.1314516,45.7451613 25.1064516,46.5798387 C23.8790323,47.5830645 21.8991935,48.5379032 19.6564516,48.5975806 C17.4129032,48.5379032 15.433871,47.5830645 14.2056452,46.5798387 C13.1806452,45.7451613 12.5943548,45.7451613 11.5693548,46.5798387 C10.3008065,47.6177419 9.5233871,48.608871 7.18870968,48.608871 C5.34919355,48.608871 3.66532258,48.208871 2.40080645,47.7854839 C1.96532258,47.6387097 1.66935484,47.0403226 1.48145161,47.0322581 C1.48145161,47.7645161 1.67177419,47.9677419 1.91693548,48.3508065 C2.62983871,49.4677419 4.10564516,50.1524194 5.39677419,50.8443548 C10.5701613,53.6104839 13.1274194,51.8024194 19.6548387,51.7596774 C26.1814516,51.8024194 28.7387097,53.6104839 33.9129032,50.8443548 C35.2040323,50.1532258 36.6806452,49.4677419 37.3919355,48.3508065 C37.6387097,47.9677419 37.8282258,47.7645161 37.8282258,47.0322581 C37.6435484,47.0403226 37.3483871,47.6387097 36.9120968,47.7854839 Z" id="Path" fill="#EF5350" fill-rule="nonzero"></path>
                                        <path d="M38.6854839,11.9943548 C37.9717742,10.8790323 36.4959677,10.1943548 35.2056452,9.50241935 C30.0322581,6.73629032 26.1846774,8.54435484 19.658871,8.58709677 C13.1314516,8.54435484 9.28548387,6.73629032 4.11209677,9.50241935 C2.82016129,10.1935484 1.34435484,10.8790323 0.632258065,11.9943548 C0.386290323,12.3774194 0.196774194,12.5822581 0.196774194,13.3145161 C0.383870968,13.3064516 0.680645161,12.7096774 1.11612903,12.5612903 C2.37983871,12.1379032 4.06290323,11.7379032 5.90403226,11.7379032 C8.23870968,11.7379032 10.3048387,12.7290323 11.5733871,13.7653226 C12.5983871,14.6016129 13.1846774,14.6016129 14.2096774,13.7653226 C15.4370968,12.7637097 17.4169355,11.808871 19.6604839,11.7491935 C21.9032258,11.808871 23.8822581,12.7637097 25.1104839,13.7653226 C26.1354839,14.6016129 26.7217742,14.6016129 27.7467742,13.7653226 C29.0153226,12.7290323 31.0822581,11.7379032 33.416129,11.7379032 C35.2564516,11.7379032 36.9403226,12.1379032 38.2048387,12.5612903 C38.6403226,12.7096774 38.9354839,13.3064516 39.125,13.3145161 C39.1217742,12.5822581 38.9306452,12.3774194 38.6854839,11.9943548 Z" id="Path" fill="#EF5350" fill-rule="nonzero"></path>
                                        <path d="M36.7895161,46.0524194 C29.9403226,43.358871 27.8895161,39.1048387 27.875,31.3564516 C27.8895161,23.6072581 31.2298387,16.9854839 38.0782258,14.2935484 C39.3709677,13.7862903 39.5241935,13.0048387 38.2008065,12.5612903 C36.9370968,12.1379032 35.2532258,11.7379032 33.4120968,11.7379032 C31.0774194,11.7379032 29.0112903,12.7290323 27.7427419,13.7653226 C26.7177419,14.6016129 26.1314516,14.6016129 25.1064516,13.7653226 C23.8790323,12.7637097 21.8991935,11.808871 19.6564516,11.7491935 C17.4129032,11.808871 15.433871,12.7637097 14.2056452,13.7653226 C13.1806452,14.6016129 12.5943548,14.6016129 11.5693548,13.7653226 C10.3008065,12.7290323 8.23387097,11.7379032 5.9,11.7379032 C4.05967742,11.7379032 2.3766129,12.1379032 1.11209677,12.5612903 C-0.212096774,13.0056452 -0.0580645161,13.7870968 1.23306452,14.2935484 C8.08306452,16.9854839 11.4233871,23.6072581 11.4370968,31.3564516 C11.4225806,39.1040323 9.37177419,43.358871 2.52177419,46.0524194 C1.22983871,46.5596774 1.07741935,47.3395161 2.40080645,47.7846774 C3.66451613,48.2080645 5.3483871,48.6080645 7.18870968,48.6080645 C9.5233871,48.6080645 10.3,47.6169355 11.5693548,46.5790323 C12.5943548,45.7443548 13.1806452,45.7443548 14.2056452,46.5790323 C15.4330645,47.5822581 17.4129032,48.5370968 19.6564516,48.5967742 C21.8991935,48.5370968 23.8782258,47.5822581 25.1064516,46.5790323 C26.1314516,45.7443548 26.7177419,45.7443548 27.7427419,46.5790323 C29.0112903,47.6169355 29.7879032,48.6080645 32.1233871,48.6080645 C33.9620968,48.6080645 35.6459677,48.2080645 36.9120968,47.7846774 C38.2346774,47.3395161 38.0822581,46.5596774 36.7895161,46.0524194 Z" id="Path" fill="#FFF3E1" fill-rule="nonzero"></path>
                                        <g transform="translate(13.709677, 18.548387)" fill="#A1887F" fill-rule="nonzero" id="Path">
                                            <path d="M0.299193548,24.4443548 C1.43387097,22.6548387 2.35725806,20.7475806 2.97903226,18.7475806 C3.6,16.75 3.95564516,14.6709677 3.95564516,12.5830645 C4.00080645,10.491129 3.70403226,8.41048387 3.13064516,6.39596774 C2.56048387,4.38145161 1.68467742,2.45080645 0.593548387,0.634677419 C1.89354839,2.31129032 2.8983871,4.2266129 3.575,6.25887097 C4.25483871,8.28870968 4.55967742,10.4483871 4.55967742,12.5903226 C4.50967742,14.7354839 4.14919355,16.8806452 3.41693548,18.8951613 C2.69032258,20.908871 1.63870968,22.7983871 0.299193548,24.4443548 Z"></path>
                                            <path d="M12.0314516,24.4443548 C10.6927419,22.7983871 9.64112903,20.9080645 8.91370968,18.8943548 C8.18225806,16.8806452 7.82177419,14.7354839 7.77096774,12.5903226 C7.77096774,10.4491935 8.07580645,8.28870968 8.75564516,6.25887097 C9.43225806,4.22741935 10.4370968,2.31209677 11.7370968,0.634677419 C10.6467742,2.45080645 9.77096774,4.38145161 9.2,6.39596774 C8.62741935,8.41048387 8.32903226,10.491129 8.375,12.5830645 C8.375,14.6709677 8.73145161,16.7491935 9.35241935,18.7475806 C9.97419355,20.7467742 10.8975806,22.6548387 12.0314516,24.4443548 Z"></path>
                                        </g>
                                        <g transform="translate(12.903226, 29.838710)" fill="#6D6E70" fill-rule="nonzero" id="Path">
                                            <path d="M1.58548387,0.157258065 C0.964516129,0.157258065 0.461290323,1.68548387 0.461290323,2.21935484 C0.461290323,2.75322581 0.964516129,3.18790323 1.58548387,3.18790323 C2.20564516,3.18790323 2.70967742,2.75322581 2.70967742,2.21935484 C2.70967742,1.68548387 2.20483871,0.157258065 1.58548387,0.157258065 L1.58548387,0.157258065 Z"></path>
                                            <path d="M12.3596774,0.157258065 C11.7395161,0.157258065 11.2354839,1.68548387 11.2354839,2.21935484 C11.2354839,2.75322581 11.7395161,3.18790323 12.3596774,3.18790323 C12.9798387,3.18790323 13.483871,2.75322581 13.483871,2.21935484 C13.483871,1.68548387 12.9798387,0.157258065 12.3596774,0.157258065 L12.3596774,0.157258065 Z"></path>
                                        </g>
                                        <path d="M38.6854839,11.9943548 C37.9717742,10.8790323 36.4959677,10.1943548 35.2056452,9.50241935 C30.0322581,6.73629032 26.1846774,8.54435484 19.658871,8.58709677 L19.658871,51.758871 C26.1854839,51.8016129 28.7427419,53.6096774 33.9169355,50.8435484 C35.2080645,50.1524194 36.6846774,49.4669355 37.3959677,48.35 C37.6427419,47.9669355 37.8322581,47.7637097 37.8322581,47.0314516 C37.8274194,47.0314516 37.8225806,47.0362903 37.8177419,47.0379032 C37.8556452,46.6927419 37.5024194,46.3322581 36.7903226,46.0516129 C29.941129,43.3580645 27.8903226,39.1040323 27.8758065,31.3556452 C27.8903226,23.6064516 31.2306452,16.9846774 38.0790323,14.2927419 C38.7919355,14.0120968 39.1435484,13.65 39.1064516,13.3064516 C39.1104839,13.3080645 39.1169355,13.3129032 39.1217742,13.3129032 C39.1217742,12.5822581 38.9306452,12.3774194 38.6854839,11.9943548 Z" id="Path" fill="#000000" fill-rule="nonzero" opacity="0.2"></path>
                                    </g>
                                    <g transform="translate(12.903226, 0.000000)">
                                        <path d="M23.7467742,6.97580645 C18.0467742,21.483871 0.602419355,6.97580645 0.602419355,6.97580645 L0.601612903,6.96129032 C0.601612903,6.96129032 18.0467742,-7.54677419 23.7467742,6.96129032 L23.7467742,6.97580645 Z" id="Path" fill="#DBE578" fill-rule="nonzero"></path>
                                        <path d="M23.7467742,6.99516129 C22.1782258,7.10403226 20.6072581,7.13225806 19.0387097,7.16693548 C17.4685484,7.19193548 15.8983871,7.1483871 14.3282258,7.12903226 L4.91209677,6.99516129 C4.9016129,6.99516129 4.89354839,6.98548387 4.89354839,6.9766129 C4.89435484,6.96532258 4.90241935,6.95806452 4.91209677,6.95806452 L14.3282258,6.82419355 C15.8983871,6.80403226 17.4685484,6.76129032 19.0387097,6.78629032 C20.6072581,6.82096774 22.1782258,6.84919355 23.7467742,6.95806452 C23.7580645,6.95806452 23.7645161,6.96774194 23.7637773,6.97822581 C23.7645161,6.98709677 23.7564516,6.99516129 23.7467742,6.99516129 Z" id="Path" fill="#7CB342" fill-rule="nonzero"></path>
                                        <path d="M20.7669355,6.97177419 C20.3306452,6.68548387 19.9419355,6.35241935 19.5596774,6.00967742 C19.1822581,5.66612903 18.85,5.27419355 18.5032258,4.89758065 C17.8040323,4.15080645 17.1120968,3.39677419 16.4290323,2.63548387 C16.4209677,2.62580645 16.4225806,2.61532258 16.4306452,2.60725806 C16.4370968,2.60080645 16.4475806,2.60080645 16.4540323,2.60725806 C17.2169355,3.29112903 17.9725806,3.98387097 18.7177419,4.68145161 C19.0951613,5.02983871 19.4862903,5.36048387 19.8306452,5.73951613 C20.1733871,6.11935484 20.5056452,6.50967742 20.7927419,6.94435484 C20.7991935,6.95403226 20.7967742,6.96451613 20.7870968,6.97096774 C20.7814516,6.97580645 20.7725806,6.97580645 20.7669355,6.97177419 Z" id="Path" fill="#7CB342" fill-rule="nonzero"></path>
                                        <path d="M13.1596774,6.97177419 C12.8258065,6.78629032 12.5379032,6.55564516 12.2580645,6.31370968 C11.9806452,6.07096774 11.7508065,5.78306452 11.5056452,5.50725806 C11.0096774,4.96370968 10.5209677,4.41129032 10.0403226,3.85322581 C10.0330645,3.84516129 10.0346774,3.83306452 10.0427419,3.825 C10.05,3.81854839 10.0604839,3.81854839 10.0669355,3.825 C10.6258065,4.30725806 11.1774194,4.79516129 11.7217742,5.29112903 C11.9959677,5.53709677 12.2854839,5.76693548 12.5282258,6.04435484 C12.7701613,6.3233871 13.0008065,6.61129032 13.1870968,6.94516129 C13.1919355,6.95483871 13.1894871,6.96693548 13.1790323,6.97177419 C13.1725806,6.97580645 13.1653226,6.97419355 13.1596774,6.97177419 Z" id="Path" fill="#7CB342" fill-rule="nonzero"></path>
                                        <path d="M9.71290323,6.97177419 C9.49112903,6.89758065 9.31290323,6.77822581 9.14596774,6.64758065 C8.97983871,6.51854839 8.86129032,6.33870968 8.72741935,6.175 C8.45483871,5.85564516 8.18870968,5.52419355 7.93064516,5.19032258 C7.92419355,5.18064516 7.92580645,5.16854839 7.93467742,5.16209677 C7.94193548,5.15725806 7.9516129,5.15725806 7.95806452,5.16209677 C8.29354839,5.42016129 8.62258065,5.68629032 8.94354839,5.95887097 C9.10645161,6.09435484 9.28548387,6.21048387 9.41612903,6.37822581 C9.54596774,6.54677419 9.66532258,6.7233871 9.73951613,6.94516129 C9.74354839,6.95645161 9.73709677,6.96854839 9.72580645,6.97177419 C9.72258065,6.97419355 9.71774194,6.97258065 9.71290323,6.97177419 Z" id="Path" fill="#7CB342" fill-rule="nonzero"></path>
                                        <path d="M16.7846774,6.97177419 C16.3419355,6.67741935 15.9451613,6.33709677 15.5572581,5.98709677 C15.1709677,5.63387097 14.8314516,5.23709677 14.4766129,4.85322581 C13.7637097,4.09112903 13.0564516,3.32258065 12.3580645,2.54596774 C12.35,2.53951613 12.3516129,2.52580645 12.3596774,2.51935484 C12.366129,2.51290323 12.3774194,2.51290323 12.3846774,2.51935484 C13.1620968,3.21693548 13.9314516,3.92419355 14.6919355,4.63790323 C15.0758065,4.99193548 15.4758065,5.33064516 15.8266129,5.71693548 C16.1766129,6.10403226 16.516129,6.50322581 16.8129032,6.94516129 C16.8177419,6.95483871 16.816129,6.96532258 16.8064516,6.97177419 C16.8008065,6.97580645 16.7919355,6.97423025 16.7846774,6.97177419 Z" id="Path" fill="#7CB342" fill-rule="nonzero"></path>
                                        <path d="M20.7935484,7.0016129 C20.5056452,7.43629032 20.1725806,7.82822581 19.8306452,8.20806452 C19.4862903,8.58629032 19.0951613,8.91854839 18.7185484,9.26532258 C17.9725806,9.96290323 17.2177419,10.6564516 16.4540323,11.3395161 C16.4475806,11.3459677 16.4354839,11.3459677 16.4290323,11.3379032 C16.4225806,11.3314516 16.4225806,11.3209677 16.4290323,11.3129032 C17.1129032,10.5508065 17.8040323,9.79596774 18.5032258,9.04919355 C18.85,8.67258065 19.1822581,8.28225806 19.5596774,7.93870968 C19.9419355,7.59516129 20.3306452,7.26129032 20.766129,6.975 C20.775,6.96854839 20.7870968,6.97177419 20.7927419,6.98145161 C20.7975806,6.98548387 20.7967742,6.99516129 20.7935484,7.0016129 Z" id="Path" fill="#7CB342" fill-rule="nonzero"></path>
                                        <path d="M13.1870968,7.0016129 C13.0016129,7.33548387 12.7701613,7.6233871 12.5298387,7.90241935 C12.2870968,8.18145161 11.9967742,8.40967742 11.7225806,8.65564516 C11.1782258,9.1516129 10.6274194,9.64032258 10.0677419,10.1201613 C10.0596774,10.1282258 10.0483871,10.1282258 10.041129,10.1185484 C10.0346774,10.1104839 10.0354839,10.1016129 10.041129,10.0951613 C10.5225806,9.53629032 11.0104839,8.98467742 11.5064516,8.44112903 C11.7516129,8.16532258 11.9814516,7.87580645 12.258871,7.63306452 C12.5387097,7.39193548 12.8274194,7.16048387 13.1604839,6.975 C13.1701613,6.97016129 13.1814516,6.9733871 13.1870968,6.98145161 C13.1903226,6.98870968 13.1895161,6.99516129 13.1870968,7.0016129 Z" id="Path" fill="#7CB342" fill-rule="nonzero"></path>
                                        <path d="M9.73951613,7.0016129 C9.66451613,7.2233871 9.54516129,7.4016129 9.41612903,7.56854839 C9.28548387,7.73548387 9.10725806,7.85403226 8.94354839,7.98790323 C8.6233871,8.26048387 8.29354839,8.5266129 7.95806452,8.78467742 C7.94919355,8.79274194 7.93790323,8.78951613 7.93064516,8.78145161 C7.925,8.775 7.92580645,8.76451613 7.93064516,8.75806452 C8.18870968,8.42096774 8.45483871,8.09354839 8.72741935,7.77177419 C8.86129032,7.60806452 8.97903226,7.42983871 9.14596774,7.29919355 C9.31290323,7.17016129 9.49112903,7.05 9.71290323,6.975 C9.725,6.97177419 9.73629032,6.9766129 9.73951613,6.98951613 C9.74112903,6.99193548 9.74112903,6.9983871 9.73951613,7.0016129 Z" id="Path" fill="#7CB342" fill-rule="nonzero"></path>
                                        <path d="M16.8137097,7.0016129 C16.5185484,7.44435484 16.1774194,7.84274194 15.8282258,8.22983871 C15.4766129,8.61612903 15.0758065,8.95403226 14.6935484,9.31048387 C13.9322581,10.0241935 13.1629032,10.7298387 12.3854839,11.4290323 C12.3782258,11.4354839 12.366129,11.4354839 12.3596774,11.4274194 C12.3524194,11.4193548 12.3524194,11.4104839 12.3596774,11.4024194 C13.0580645,10.6258065 13.7637097,9.85564516 14.4774194,9.09516129 C14.8322581,8.71048387 15.1709677,8.31048387 15.5580645,7.95967742 C15.9459677,7.60967742 16.3435484,7.27016129 16.7854839,6.975 C16.7951613,6.96854839 16.8056452,6.97177419 16.8137097,6.97983871 C16.8177419,6.98548387 16.8169355,6.99516129 16.8137097,7.0016129 Z" id="Path" fill="#7CB342" fill-rule="nonzero"></path>
                                        <path d="M26.7975806,5.44677419 C26.5693548,5.33145161 26.2919355,5.4266129 26.1766129,5.65483871 C25.975,6.06290323 25.5177419,6.375 24.983871,6.54919355 C24.5725806,6.68629032 24.1209677,6.75403226 23.6669355,6.77580645 C23.6927419,6.83870968 23.7201613,6.8983871 23.7459677,6.96129032 L23.7459677,6.97580645 C23.7282258,7.02016129 23.7096774,7.05967742 23.6927419,7.10322581 C24.1572581,7.16451613 24.6298387,7.18064516 25.1145161,7.11612903 C25.4354839,7.07177419 25.7629032,6.98709677 26.0790323,6.83870968 C26.3943548,6.69032258 26.6967742,6.46693548 26.9346774,6.17096774 L26.9532258,6.14758065 C26.9717742,6.12258065 26.9895161,6.09435484 27.0048387,6.06693548 C27.1193548,5.83709677 27.0266129,5.56048387 26.7975806,5.44677419 Z" id="Path" fill="#DBE578" fill-rule="nonzero"></path>
                                        <path d="M26.7975806,5.44677419 C26.7927419,5.64032258 26.7330645,6.34919355 25.2919355,6.75887097 C24.8758065,6.87822581 24.7201613,6.96209677 23.7467742,6.96209677 L23.7467742,6.9766129 C23.7290323,7.02096774 23.7104839,7.06048387 23.6935484,7.10403226 C24.1580645,7.16532258 24.6306452,7.18145161 25.1153226,7.11693548 C25.4362903,7.07258065 25.7637097,6.98790323 26.0798387,6.83951613 C26.3951613,6.69112903 26.6975806,6.46774194 26.9354839,6.17177419 L26.9540323,6.1483871 C26.9725806,6.1233871 26.9903226,6.09516129 27.0056452,6.06774194 C27.1193548,5.83709677 27.0266129,5.56048387 26.7975806,5.44677419 Z" id="Path" fill="#E6E7E8" fill-rule="nonzero"></path>
                                        <path d="M0.607258065,6.95725806 C0.606451613,6.96048387 0.601612903,6.96209677 0.601612903,6.96209677 L0.602419355,6.9766129 C0.602419355,6.9766129 18.0467742,21.4846774 23.7467742,6.9766129 L23.7467742,6.96209677 C23.7451613,6.96209677 23.7451613,6.96048387 23.7451613,6.95725806 L0.607258065,6.95725806 Z" id="Path" fill="#E6E7E8" fill-rule="nonzero"></path>
                                    </g>
                                </g>
                            </g>
                            <path d="M62.2024194,73.8701613 L62.2016129,73.8685484 C62.2112903,73.7806452 62.1967742,73.6903226 62.1564516,73.6008065 C62.1548387,73.5975806 62.1540323,73.5927419 62.1524194,73.5895161 C62.1120968,73.5056452 62.0524194,73.4241935 61.9709677,73.3419355 C61.9604839,73.3322581 61.9540323,73.3217742 61.9435484,73.3120968 C61.8629032,73.2362903 61.7637097,73.1637097 61.6508065,73.0943548 C61.6290323,73.0798387 61.6129032,73.066129 61.5895161,73.0516129 C61.4491935,72.9693548 61.2895161,72.8927419 61.1032258,72.8185484 C57.6637097,71.4717742 55.3669355,69.7516129 53.8846774,67.4596774 C53.6419355,68.158871 53.4419355,68.883871 53.2935484,69.6395161 C54.6040323,70.9233871 56.3233871,71.975 58.5637097,72.8572581 C58.7370968,72.925 58.8862903,72.9991935 59.0177419,73.075 C59.0395161,73.0895161 59.0548387,73.1016129 59.075,73.116129 C59.1814516,73.1822581 59.2741935,73.25 59.3491935,73.3193548 C59.358871,73.3290323 59.3653226,73.3379032 59.3741935,73.3475806 C59.45,73.425 59.5064516,73.5016129 59.5435484,73.5806452 C59.5451613,73.583871 59.5459677,73.5870968 59.5475806,73.5903226 C59.5854839,73.675 59.5983871,73.758871 59.5903226,73.8419355 L59.591129,73.8419355 C59.5959677,73.8419355 59.6008065,73.8370968 59.6056452,73.8370968 C59.6056452,74.5693548 59.416129,74.7725806 59.1693548,75.1556452 C58.4572581,76.2725806 56.9806452,76.9572581 55.6903226,77.6491935 C55.4362903,77.7846774 55.1935484,77.9008065 54.9508065,78.0145161 C55.183871,78.3314516 55.4282258,78.6395161 55.6967742,78.9330645 C56.4290323,78.6870968 57.1951613,78.366129 58.0314516,77.9201613 C59.4112903,77.1846774 60.9903226,76.4556452 61.7524194,75.2677419 C62.0153226,74.8580645 62.2185484,74.6427419 62.2185484,73.8612903 C62.2129032,73.8629032 62.2080645,73.8685484 62.2024194,73.8701613 Z" id="Path" fill="#E0E0E0" fill-rule="nonzero" mask="url(#mask-2)"></path>
                        </g>
                    </g>
                </g>
            </g>
        </g>
    </g>
</svg>