<svg xmlns="http://www.w3.org/2000/svg" xmlns:xlink="http://www.w3.org/1999/xlink" width="114.877" height="30.734" viewBox="0 0 114.877 30.734">
  <defs>
    <clipPath id="clip-path">
      <path id="Path_397" data-name="Path 397" d="M1974.763,126.114a1.565,1.565,0,0,0-1.566,1.564v3.856h-.2l.215,1.039a1.6,1.6,0,0,0,.074.357l.008.04h0a1.562,1.562,0,0,0,1.466,1.029h4.756a1.565,1.565,0,0,0,1.466-1.029h0l.008-.04a1.626,1.626,0,0,0,.074-.358l.216-1.038-.2-.092v-3.764a1.565,1.565,0,0,0-1.565-1.564Z" fill="none"/>
    </clipPath>
    <linearGradient id="linear-gradient" x1="-192.607" y1="52.411" x2="-192.542" y2="52.411" gradientUnits="objectBoundingBox">
      <stop offset="0" stop-color="#233468"/>
      <stop offset="0.015" stop-color="#233468"/>
      <stop offset="0.244" stop-color="#3858a1"/>
      <stop offset="0.306" stop-color="#385aa2"/>
      <stop offset="0.337" stop-color="#3a61a6"/>
      <stop offset="0.361" stop-color="#3d6eac"/>
      <stop offset="0.381" stop-color="#4181b6"/>
      <stop offset="0.399" stop-color="#4699c2"/>
      <stop offset="0.415" stop-color="#4cb7d1"/>
      <stop offset="0.417" stop-color="#4ebcd4"/>
      <stop offset="0.503" stop-color="#4db9d2"/>
      <stop offset="0.562" stop-color="#4cb0cd"/>
      <stop offset="0.614" stop-color="#49a0c5"/>
      <stop offset="0.662" stop-color="#468ab9"/>
      <stop offset="0.706" stop-color="#416eaa"/>
      <stop offset="0.748" stop-color="#3c4c98"/>
      <stop offset="0.751" stop-color="#3c4997"/>
      <stop offset="0.967" stop-color="#2d1d52"/>
      <stop offset="1" stop-color="#2d1d52"/>
    </linearGradient>
    <clipPath id="clip-path-2">
      <rect id="Rectangle_134" data-name="Rectangle 134" width="8.368" height="8.368" rx="1.661" transform="translate(1972.957 124.466)" fill="none"/>
    </clipPath>
    <linearGradient id="linear-gradient-2" x1="-195.888" y1="48.321" x2="-195.824" y2="48.321" gradientUnits="objectBoundingBox">
      <stop offset="0" stop-color="#3858a1"/>
      <stop offset="0.022" stop-color="#3858a1"/>
      <stop offset="0.1" stop-color="#375ca3"/>
      <stop offset="0.182" stop-color="#3569a9"/>
      <stop offset="0.266" stop-color="#327eb4"/>
      <stop offset="0.351" stop-color="#2e9bc2"/>
      <stop offset="0.417" stop-color="#2ab8d1"/>
      <stop offset="0.751" stop-color="#3c4997"/>
      <stop offset="1" stop-color="#3c4997"/>
    </linearGradient>
    <clipPath id="clip-path-3">
      <path id="Rectangle_136" data-name="Rectangle 136" d="M1.659,0H6.707A1.661,1.661,0,0,1,8.368,1.661V6.707a1.66,1.66,0,0,1-1.66,1.66H1.66A1.66,1.66,0,0,1,0,6.708V1.659A1.659,1.659,0,0,1,1.659,0Z" transform="translate(1972.957 124.311)" fill="none"/>
    </clipPath>
    <radialGradient id="radial-gradient" cx="0.465" cy="0.094" r="0.929" gradientTransform="matrix(0, 1, 1, 0, -179.287, 179.292)" gradientUnits="objectBoundingBox">
      <stop offset="0" stop-color="#2ab8d1"/>
      <stop offset="0.164" stop-color="#2e9bc2"/>
      <stop offset="0.375" stop-color="#327eb4"/>
      <stop offset="0.583" stop-color="#3569a9"/>
      <stop offset="0.786" stop-color="#375ca3"/>
      <stop offset="0.978" stop-color="#3858a1"/>
      <stop offset="1" stop-color="#3858a1"/>
    </radialGradient>
    <clipPath id="clip-path-4">
      <path id="Path_398" data-name="Path 398" d="M1974.763,145.358a1.565,1.565,0,0,0-1.467,1.029h0l-.008.04a1.513,1.513,0,0,0-.073.358l-.215,1.038.2.094v3.762a1.566,1.566,0,0,0,1.566,1.565h4.756a1.567,1.567,0,0,0,1.565-1.565v-3.856h.2l-.216-1.039a1.617,1.617,0,0,0-.074-.357l-.008-.04,0,0a1.563,1.563,0,0,0-1.465-1.031Z" fill="none"/>
    </clipPath>
    <linearGradient id="linear-gradient-3" x1="-211.435" y1="44.898" x2="-211.37" y2="44.898" xlink:href="#linear-gradient"/>
    <clipPath id="clip-path-5">
      <path id="Rectangle_139" data-name="Rectangle 139" d="M1.659,0H6.709A1.659,1.659,0,0,1,8.368,1.659V6.706a1.66,1.66,0,0,1-1.66,1.66H1.66A1.66,1.66,0,0,1,0,6.706V1.659A1.659,1.659,0,0,1,1.659,0Z" transform="translate(1972.957 146.524)" fill="none"/>
    </clipPath>
    <linearGradient id="linear-gradient-4" x1="-204.396" y1="43.516" x2="-204.332" y2="43.516" xlink:href="#linear-gradient-2"/>
    <clipPath id="clip-path-6">
      <path id="Rectangle_141" data-name="Rectangle 141" d="M1.659,0h5.05A1.659,1.659,0,0,1,8.368,1.659V6.707a1.66,1.66,0,0,1-1.66,1.66H1.662A1.662,1.662,0,0,1,0,6.7V1.659A1.659,1.659,0,0,1,1.659,0Z" transform="translate(1972.957 146.678)" fill="none"/>
    </clipPath>
    <radialGradient id="radial-gradient-2" cx="0.483" cy="0.032" r="0.894" gradientTransform="matrix(0, 1, 1, 0, -174.783, 174.803)" xlink:href="#radial-gradient"/>
    <clipPath id="clip-path-7">
      <path id="Path_399" data-name="Path 399" d="M1969.252,135.735h-3.762a1.565,1.565,0,0,0-1.564,1.566v4.756a1.564,1.564,0,0,0,1.564,1.565h3.856v.2l1.038-.216a1.53,1.53,0,0,0,.356-.073l.041-.009v-.005a1.555,1.555,0,0,0,1.03-1.464V137.3a1.561,1.561,0,0,0-1.029-1.466v0l-.041-.008a1.432,1.432,0,0,0-.357-.073l-1.037-.216Z" fill="none"/>
    </clipPath>
    <linearGradient id="linear-gradient-5" x1="-208.728" y1="36.895" x2="-208.66" y2="36.895" xlink:href="#linear-gradient"/>
    <clipPath id="clip-path-8">
      <rect id="Rectangle_144" data-name="Rectangle 144" width="8.368" height="8.368" rx="1.66" transform="translate(1962.276 135.495)" fill="none"/>
    </clipPath>
    <linearGradient id="linear-gradient-6" x1="-197.776" y1="41.66" x2="-197.712" y2="41.66" xlink:href="#linear-gradient-2"/>
    <clipPath id="clip-path-9">
      <path id="Rectangle_146" data-name="Rectangle 146" d="M1.66,0H6.706a1.66,1.66,0,0,1,1.66,1.66V6.709A1.659,1.659,0,0,1,6.707,8.368H1.659A1.659,1.659,0,0,1,0,6.709V1.66A1.66,1.66,0,0,1,1.66,0Z" transform="translate(1962.123 135.495)" fill="none"/>
    </clipPath>
    <radialGradient id="radial-gradient-3" cx="0.518" cy="0.064" r="0.831" gradientTransform="matrix(0, 1, 1, 0, -174.869, 174.862)" xlink:href="#radial-gradient"/>
    <clipPath id="clip-path-10">
      <path id="Path_400" data-name="Path 400" d="M1983.9,135.75a1.55,1.55,0,0,0-.356.073l-.04.008v.005a1.561,1.561,0,0,0-1.03,1.465v4.756a1.56,1.56,0,0,0,1.03,1.465v0l.04.009a1.449,1.449,0,0,0,.357.073l1.039.216.093-.2h3.762a1.565,1.565,0,0,0,1.565-1.565V137.3a1.566,1.566,0,0,0-1.565-1.566h-3.855v-.2Z" fill="none"/>
    </clipPath>
    <linearGradient id="linear-gradient-7" x1="-216.119" y1="55.721" x2="-216.051" y2="55.721" xlink:href="#linear-gradient"/>
    <clipPath id="clip-path-11">
      <path id="Rectangle_149" data-name="Rectangle 149" d="M1.659,0H6.707a1.66,1.66,0,0,1,1.66,1.66V6.708a1.66,1.66,0,0,1-1.66,1.66H1.66A1.66,1.66,0,0,1,0,6.708V1.659A1.659,1.659,0,0,1,1.659,0Z" transform="translate(1983.637 135.495)" fill="none"/>
    </clipPath>
    <linearGradient id="linear-gradient-8" x1="-202.532" y1="50.168" x2="-202.468" y2="50.168" xlink:href="#linear-gradient-2"/>
    <clipPath id="clip-path-12">
      <rect id="Rectangle_151" data-name="Rectangle 151" width="8.367" height="8.368" rx="1.66" transform="translate(1983.791 135.495)" fill="none"/>
    </clipPath>
    <radialGradient id="radial-gradient-4" cx="0.507" cy="0.014" r="0.946" gradientTransform="matrix(0, 1, 1, 0, -177.06, 177.049)" xlink:href="#radial-gradient"/>
    <clipPath id="clip-path-13">
      <rect id="Rectangle_153" data-name="Rectangle 153" width="3.614" height="3.614" transform="translate(1968.683 136.064)" fill="none"/>
    </clipPath>
    <clipPath id="clip-path-14">
      <path id="Path_401" data-name="Path 401" d="M1972.3,137.871a1.807,1.807,0,1,1-1.808-1.807,1.808,1.808,0,0,1,1.808,1.807" fill="none"/>
    </clipPath>
    <clipPath id="clip-path-15">
      <rect id="Rectangle_155" data-name="Rectangle 155" width="3.615" height="3.614" transform="translate(1982.47 136.064)" fill="none"/>
    </clipPath>
    <clipPath id="clip-path-16">
      <path id="Path_402" data-name="Path 402" d="M1986.086,137.871a1.808,1.808,0,1,1-1.808-1.807,1.809,1.809,0,0,1,1.808,1.807" fill="none"/>
    </clipPath>
    <clipPath id="clip-path-17">
      <rect id="Rectangle_157" data-name="Rectangle 157" width="3.615" height="3.614" transform="translate(1982.47 140.745)" fill="none"/>
    </clipPath>
    <clipPath id="clip-path-18">
      <path id="Path_403" data-name="Path 403" d="M1986.086,142.552a1.808,1.808,0,1,1-1.808-1.807,1.808,1.808,0,0,1,1.808,1.807" fill="none"/>
    </clipPath>
    <clipPath id="clip-path-19">
      <rect id="Rectangle_159" data-name="Rectangle 159" width="3.614" height="3.614" transform="translate(1972.997 130.638)" fill="none"/>
    </clipPath>
    <clipPath id="clip-path-20">
      <path id="Path_404" data-name="Path 404" d="M1976.61,132.445a1.807,1.807,0,1,1-1.807-1.807,1.807,1.807,0,0,1,1.807,1.807" fill="none"/>
    </clipPath>
    <clipPath id="clip-path-21">
      <rect id="Rectangle_161" data-name="Rectangle 161" width="3.616" height="3.614" transform="translate(1977.67 130.385)" fill="none"/>
    </clipPath>
    <clipPath id="clip-path-22">
      <path id="Path_405" data-name="Path 405" d="M1981.286,132.192a1.808,1.808,0,1,1-1.808-1.807,1.808,1.808,0,0,1,1.808,1.807" fill="none"/>
    </clipPath>
    <clipPath id="clip-path-23">
      <rect id="Rectangle_163" data-name="Rectangle 163" width="3.614" height="3.614" transform="translate(1972.997 145.145)" fill="none"/>
    </clipPath>
    <clipPath id="clip-path-24">
      <path id="Path_406" data-name="Path 406" d="M1976.61,146.953a1.807,1.807,0,1,1-1.807-1.808,1.806,1.806,0,0,1,1.807,1.808" fill="none"/>
    </clipPath>
    <clipPath id="clip-path-25">
      <rect id="Rectangle_165" data-name="Rectangle 165" width="3.615" height="3.614" transform="translate(1977.917 145.145)" fill="none"/>
    </clipPath>
    <clipPath id="clip-path-26">
      <path id="Path_407" data-name="Path 407" d="M1981.533,146.953a1.808,1.808,0,1,1-1.808-1.808,1.807,1.807,0,0,1,1.808,1.808" fill="none"/>
    </clipPath>
    <clipPath id="clip-path-27">
      <path id="Path_408" data-name="Path 408" d="M1978.917,131.92l0,.007a1.948,1.948,0,0,0-.3.822v3.967a1.306,1.306,0,0,0,1.307,1.3h3.964a1.3,1.3,0,0,0,.817-.294l0,0,2.307-1.515-.979-.523-.554-.168-.288.1v-2.875a1.305,1.305,0,0,0-1.307-1.3h-2.907c-.362-.738-.975-1.744-.975-1.744Z" fill="none"/>
    </clipPath>
    <linearGradient id="linear-gradient-9" x1="-139.74" y1="38.42" x2="-139.694" y2="38.42" gradientUnits="objectBoundingBox">
      <stop offset="0" stop-color="#233468"/>
      <stop offset="0.015" stop-color="#233468"/>
      <stop offset="0.132" stop-color="#3858a1"/>
      <stop offset="0.235" stop-color="#385aa2"/>
      <stop offset="0.285" stop-color="#3a61a6"/>
      <stop offset="0.324" stop-color="#3d6eac"/>
      <stop offset="0.357" stop-color="#4181b6"/>
      <stop offset="0.387" stop-color="#4699c2"/>
      <stop offset="0.413" stop-color="#4cb7d1"/>
      <stop offset="0.417" stop-color="#4ebcd4"/>
      <stop offset="0.422" stop-color="#47aac6"/>
      <stop offset="0.432" stop-color="#3b8aae"/>
      <stop offset="0.443" stop-color="#32719a"/>
      <stop offset="0.454" stop-color="#2b5f8c"/>
      <stop offset="0.466" stop-color="#275484"/>
      <stop offset="0.48" stop-color="#265182"/>
      <stop offset="0.483" stop-color="#275083"/>
      <stop offset="0.527" stop-color="#334c8e"/>
      <stop offset="0.589" stop-color="#3a4995"/>
      <stop offset="0.751" stop-color="#3c4997"/>
      <stop offset="0.967" stop-color="#2d1d52"/>
      <stop offset="1" stop-color="#2d1d52"/>
    </linearGradient>
    <clipPath id="clip-path-28">
      <path id="Rectangle_168" data-name="Rectangle 168" d="M1.526,0H6.163A1.524,1.524,0,0,1,7.687,1.524V6.157A1.527,1.527,0,0,1,6.16,7.683H1.525A1.525,1.525,0,0,1,0,6.158V1.526A1.526,1.526,0,0,1,1.526,0Z" transform="translate(1979.775 128.981)" fill="none"/>
    </clipPath>
    <linearGradient id="linear-gradient-10" x1="-152.53" y1="39.592" x2="-152.481" y2="39.592" xlink:href="#linear-gradient-2"/>
    <clipPath id="clip-path-29">
      <path id="Rectangle_170" data-name="Rectangle 170" d="M1.507,0H6.085A1.507,1.507,0,0,1,7.591,1.507V6.082A1.508,1.508,0,0,1,6.083,7.59H1.508A1.508,1.508,0,0,1,0,6.082V1.507A1.507,1.507,0,0,1,1.507,0Z" transform="translate(1979.87 128.981)" fill="none"/>
    </clipPath>
    <linearGradient id="linear-gradient-11" x1="-155.455" y1="38.35" x2="-155.405" y2="38.35" xlink:href="#linear-gradient-2"/>
    <clipPath id="clip-path-30">
      <path id="Path_409" data-name="Path 409" d="M1973.3,131.446h-2.909a1.3,1.3,0,0,0-1.3,1.3v2.875l-.288-.1-.555.168-.98.523,2.308,1.515,0,0a1.29,1.29,0,0,0,.815.294h3.966a1.305,1.305,0,0,0,1.305-1.3v-3.967a1.918,1.918,0,0,0-.3-.822l0-.007-1.09-2.218s-.613,1.006-.974,1.744" fill="none"/>
    </clipPath>
    <linearGradient id="linear-gradient-12" x1="-148.517" y1="31.163" x2="-148.471" y2="31.163" xlink:href="#linear-gradient-9"/>
    <clipPath id="clip-path-31">
      <path id="Rectangle_173" data-name="Rectangle 173" d="M1.526,0H6.161A1.524,1.524,0,0,1,7.686,1.524V6.157A1.526,1.526,0,0,1,6.16,7.683H1.525A1.525,1.525,0,0,1,0,6.158V1.526A1.526,1.526,0,0,1,1.526,0Z" transform="translate(1966.819 128.981)" fill="none"/>
    </clipPath>
    <linearGradient id="linear-gradient-13" x1="-156.906" y1="34.03" x2="-156.857" y2="34.03" xlink:href="#linear-gradient-2"/>
    <clipPath id="clip-path-32">
      <path id="Rectangle_175" data-name="Rectangle 175" d="M1.507,0H6.084A1.506,1.506,0,0,1,7.591,1.506V6.084A1.506,1.506,0,0,1,6.085,7.59H1.506A1.506,1.506,0,0,1,0,6.084V1.507A1.507,1.507,0,0,1,1.507,0Z" transform="translate(1966.819 128.981)" fill="none"/>
    </clipPath>
    <linearGradient id="linear-gradient-14" x1="-157.094" y1="35.5" x2="-157.044" y2="35.5" xlink:href="#linear-gradient-2"/>
    <clipPath id="clip-path-33">
      <path id="Path_410" data-name="Path 410" d="M1979.925,141.152a1.305,1.305,0,0,0-1.307,1.3v3.966a1.965,1.965,0,0,0,.3.824l0,.006,1.09,2.218s.613-1.005.975-1.744h2.907a1.306,1.306,0,0,0,1.307-1.3v-2.874l.288.1.554-.168.979-.523-2.307-1.516,0,0a1.294,1.294,0,0,0-.817-.293Z" fill="none"/>
    </clipPath>
    <linearGradient id="linear-gradient-15" x1="-137.665" y1="34.943" x2="-137.619" y2="34.943" xlink:href="#linear-gradient-9"/>
    <clipPath id="clip-path-34">
      <path id="Rectangle_178" data-name="Rectangle 178" d="M1.526,0H6.163A1.524,1.524,0,0,1,7.687,1.524V6.157A1.527,1.527,0,0,1,6.16,7.684H1.525A1.525,1.525,0,0,1,0,6.159V1.526A1.526,1.526,0,0,1,1.526,0Z" transform="translate(1979.775 142.507)" fill="none"/>
    </clipPath>
    <linearGradient id="linear-gradient-16" x1="-151.104" y1="36.923" x2="-151.055" y2="36.923" xlink:href="#linear-gradient-2"/>
    <clipPath id="clip-path-35">
      <path id="Rectangle_180" data-name="Rectangle 180" d="M1.505,0h4.58A1.506,1.506,0,0,1,7.591,1.506V6.081A1.508,1.508,0,0,1,6.083,7.589H1.505A1.505,1.505,0,0,1,0,6.083V1.505A1.505,1.505,0,0,1,1.505,0Z" transform="translate(1979.87 142.602)" fill="none"/>
    </clipPath>
    <linearGradient id="linear-gradient-17" x1="-154.731" y1="36.352" x2="-154.681" y2="36.352" xlink:href="#linear-gradient-2"/>
    <clipPath id="clip-path-36">
      <path id="Path_411" data-name="Path 411" d="M1970.39,141.152a1.289,1.289,0,0,0-.815.293l0,0-2.308,1.516.98.523.555.168.288-.1v2.874a1.3,1.3,0,0,0,1.3,1.3h2.909c.361.739.974,1.744.974,1.744l1.09-2.218,0-.006a1.935,1.935,0,0,0,.3-.824v-3.966a1.3,1.3,0,0,0-1.305-1.3Z" fill="none"/>
    </clipPath>
    <linearGradient id="linear-gradient-18" x1="-146.855" y1="27.591" x2="-146.809" y2="27.591" xlink:href="#linear-gradient-9"/>
    <clipPath id="clip-path-37">
      <path id="Rectangle_183" data-name="Rectangle 183" d="M1.526,0H6.162A1.524,1.524,0,0,1,7.686,1.524V6.158A1.526,1.526,0,0,1,6.16,7.684H1.526A1.526,1.526,0,0,1,0,6.158V1.526A1.526,1.526,0,0,1,1.526,0Z" transform="translate(1966.819 142.507)" fill="none"/>
    </clipPath>
    <linearGradient id="linear-gradient-19" x1="-155.475" y1="31.36" x2="-155.425" y2="31.36" xlink:href="#linear-gradient-2"/>
    <clipPath id="clip-path-38">
      <path id="Rectangle_185" data-name="Rectangle 185" d="M1.507,0H6.085A1.506,1.506,0,0,1,7.591,1.506V6.083A1.506,1.506,0,0,1,6.085,7.589H1.505A1.505,1.505,0,0,1,0,6.083V1.507A1.507,1.507,0,0,1,1.507,0Z" transform="translate(1966.819 142.602)" fill="none"/>
    </clipPath>
    <linearGradient id="linear-gradient-20" x1="-156.38" y1="33.504" x2="-156.33" y2="33.504" xlink:href="#linear-gradient-2"/>
  </defs>
  <g id="Group_373" data-name="Group 373" transform="translate(-1962.123 -124.311)">
    <g id="Group_370" data-name="Group 370">
      <g id="Group_355" data-name="Group 355">
        <g id="Group_273" data-name="Group 273">
          <g id="Group_272" data-name="Group 272" clip-path="url(#clip-path)">
            <rect id="Rectangle_132" data-name="Rectangle 132" width="8.29" height="7.886" transform="translate(1972.996 126.114)" fill="url(#linear-gradient)"/>
          </g>
        </g>
        <g id="Group_275" data-name="Group 275">
          <g id="Group_274" data-name="Group 274" clip-path="url(#clip-path-2)">
            <rect id="Rectangle_133" data-name="Rectangle 133" width="8.368" height="8.368" transform="translate(1972.957 124.466)" fill="url(#linear-gradient-2)"/>
          </g>
        </g>
        <g id="Group_277" data-name="Group 277">
          <g id="Group_276" data-name="Group 276" clip-path="url(#clip-path-3)">
            <rect id="Rectangle_135" data-name="Rectangle 135" width="11.713" height="11.713" transform="translate(1968.943 127.313) rotate(-36.794)" fill="url(#radial-gradient)"/>
          </g>
        </g>
        <g id="Group_279" data-name="Group 279">
          <g id="Group_278" data-name="Group 278" clip-path="url(#clip-path-4)">
            <rect id="Rectangle_137" data-name="Rectangle 137" width="8.29" height="7.886" transform="translate(1972.996 145.358)" fill="url(#linear-gradient-3)"/>
          </g>
        </g>
        <g id="Group_281" data-name="Group 281">
          <g id="Group_280" data-name="Group 280" clip-path="url(#clip-path-5)">
            <rect id="Rectangle_138" data-name="Rectangle 138" width="8.368" height="8.366" transform="translate(1972.957 146.524)" fill="url(#linear-gradient-4)"/>
          </g>
        </g>
        <g id="Group_283" data-name="Group 283">
          <g id="Group_282" data-name="Group 282" clip-path="url(#clip-path-6)">
            <rect id="Rectangle_140" data-name="Rectangle 140" width="11.834" height="11.834" transform="translate(1968.773 150.901) rotate(-45.266)" fill="url(#radial-gradient-2)"/>
          </g>
        </g>
        <g id="Group_285" data-name="Group 285">
          <g id="Group_284" data-name="Group 284" clip-path="url(#clip-path-7)">
            <rect id="Rectangle_142" data-name="Rectangle 142" width="7.884" height="8.29" transform="translate(1963.926 135.534)" fill="url(#linear-gradient-5)"/>
          </g>
        </g>
        <g id="Group_287" data-name="Group 287">
          <g id="Group_286" data-name="Group 286" clip-path="url(#clip-path-8)">
            <rect id="Rectangle_143" data-name="Rectangle 143" width="8.368" height="8.368" transform="translate(1962.276 135.495)" fill="url(#linear-gradient-6)"/>
          </g>
        </g>
        <g id="Group_289" data-name="Group 289">
          <g id="Group_288" data-name="Group 288" clip-path="url(#clip-path-9)">
            <rect id="Rectangle_145" data-name="Rectangle 145" width="11.833" height="11.834" transform="translate(1957.938 139.764) rotate(-45.586)" fill="url(#radial-gradient-3)"/>
          </g>
        </g>
        <g id="Group_291" data-name="Group 291">
          <g id="Group_290" data-name="Group 290" clip-path="url(#clip-path-10)">
            <rect id="Rectangle_147" data-name="Rectangle 147" width="7.886" height="8.29" transform="translate(1982.47 135.534)" fill="url(#linear-gradient-7)"/>
          </g>
        </g>
        <g id="Group_293" data-name="Group 293">
          <g id="Group_292" data-name="Group 292" clip-path="url(#clip-path-11)">
            <rect id="Rectangle_148" data-name="Rectangle 148" width="8.367" height="8.368" transform="translate(1983.637 135.495)" fill="url(#linear-gradient-8)"/>
          </g>
        </g>
        <g id="Group_295" data-name="Group 295">
          <g id="Group_294" data-name="Group 294" clip-path="url(#clip-path-12)">
            <rect id="Rectangle_150" data-name="Rectangle 150" width="11.82" height="11.82" transform="translate(1979.626 139.268) rotate(-42.18)" fill="url(#radial-gradient-4)"/>
          </g>
        </g>
        <g id="Group_300" data-name="Group 300" style="mix-blend-mode: overlay;isolation: isolate">
          <g id="Group_299" data-name="Group 299">
            <g id="Group_298" data-name="Group 298" clip-path="url(#clip-path-13)">
              <g id="Group_297" data-name="Group 297">
                <g id="Group_296" data-name="Group 296" clip-path="url(#clip-path-14)">
                  <image id="Rectangle_152" data-name="Rectangle 152" width="5" height="4" transform="translate(1968 136)" xlink:href="data:image/png;base64,iVBORw0KGgoAAAANSUhEUgAAAAUAAAAECAYAAABGM/VAAAAAAXNSR0IArs4c6QAAADhlWElmTU0AKgAAAAgAAYdpAAQAAAABAAAAGgAAAAAAAqACAAQAAAABAAAABaADAAQAAAABAAAABAAAAABhAhd7AAAAM0lEQVQIHWP8//8/AzpgggkoSIkvAOJFID4jSCWQIwxkHwPxgdiaASQIwvKSYo4gDGIDAG32E17Qb+5jAAAAAElFTkSuQmCC"/>
                </g>
              </g>
            </g>
          </g>
        </g>
        <g id="Group_305" data-name="Group 305" style="mix-blend-mode: overlay;isolation: isolate">
          <g id="Group_304" data-name="Group 304">
            <g id="Group_303" data-name="Group 303" clip-path="url(#clip-path-15)">
              <g id="Group_302" data-name="Group 302">
                <g id="Group_301" data-name="Group 301" clip-path="url(#clip-path-16)">
                  <image id="Rectangle_154" data-name="Rectangle 154" width="5" height="4" transform="translate(1982 136)" xlink:href="data:image/png;base64,iVBORw0KGgoAAAANSUhEUgAAAAUAAAAECAYAAABGM/VAAAAAAXNSR0IArs4c6QAAADhlWElmTU0AKgAAAAgAAYdpAAQAAAABAAAAGgAAAAAAAqACAAQAAAABAAAABaADAAQAAAABAAAABAAAAABhAhd7AAAAOElEQVQIHWP8//8/AzpgAQkoSImLAKnFQHziwbOXjUwgQSDQBWJDIHYFcRhA2kFYXlIsAIh1QGwAa5kSt3VVUh8AAAAASUVORK5CYII="/>
                </g>
              </g>
            </g>
          </g>
        </g>
        <g id="Group_310" data-name="Group 310" style="mix-blend-mode: overlay;isolation: isolate">
          <g id="Group_309" data-name="Group 309">
            <g id="Group_308" data-name="Group 308" clip-path="url(#clip-path-17)">
              <g id="Group_307" data-name="Group 307">
                <g id="Group_306" data-name="Group 306" clip-path="url(#clip-path-18)">
                  <image id="Rectangle_156" data-name="Rectangle 156" width="5" height="5" transform="translate(1982 140)" xlink:href="data:image/png;base64,iVBORw0KGgoAAAANSUhEUgAAAAUAAAAFCAYAAACNbyblAAAAAXNSR0IArs4c6QAAADhlWElmTU0AKgAAAAgAAYdpAAQAAAABAAAAGgAAAAAAAqACAAQAAAABAAAABaADAAQAAAABAAAABQAAAABcYj7LAAAAOElEQVQIHWP8//8/AzpgggkoSImLAzEjiA8WBHIMgeyDQLwNLghk/IbiHyBBBpCZICwvKcYLYwMArk0U9d2Qnh0AAAAASUVORK5CYII="/>
                </g>
              </g>
            </g>
          </g>
        </g>
        <g id="Group_315" data-name="Group 315" style="mix-blend-mode: overlay;isolation: isolate">
          <g id="Group_314" data-name="Group 314">
            <g id="Group_313" data-name="Group 313" clip-path="url(#clip-path-19)">
              <g id="Group_312" data-name="Group 312">
                <g id="Group_311" data-name="Group 311" clip-path="url(#clip-path-20)">
                  <image id="Rectangle_158" data-name="Rectangle 158" width="5" height="5" transform="translate(1972 130)" xlink:href="data:image/png;base64,iVBORw0KGgoAAAANSUhEUgAAAAUAAAAFCAYAAACNbyblAAAAAXNSR0IArs4c6QAAADhlWElmTU0AKgAAAAgAAYdpAAQAAAABAAAAGgAAAAAAAqACAAQAAAABAAAABaADAAQAAAABAAAABQAAAABcYj7LAAAAMElEQVQIHWP8//8/AzpgggkoSImzA7EhiA8XBLKXAPFmoEQQsuBtoOBLIH7BiM1MAE6IC4Oz6LLFAAAAAElFTkSuQmCC"/>
                </g>
              </g>
            </g>
          </g>
        </g>
        <g id="Group_320" data-name="Group 320" style="mix-blend-mode: overlay;isolation: isolate">
          <g id="Group_319" data-name="Group 319">
            <g id="Group_318" data-name="Group 318" clip-path="url(#clip-path-21)">
              <g id="Group_317" data-name="Group 317">
                <g id="Group_316" data-name="Group 316" clip-path="url(#clip-path-22)">
                  <image id="Rectangle_160" data-name="Rectangle 160" width="5" height="4" transform="translate(1977 130)" xlink:href="data:image/png;base64,iVBORw0KGgoAAAANSUhEUgAAAAUAAAAECAYAAABGM/VAAAAAAXNSR0IArs4c6QAAADhlWElmTU0AKgAAAAgAAYdpAAQAAAABAAAAGgAAAAAAAqACAAQAAAABAAAABaADAAQAAAABAAAABAAAAABhAhd7AAAANUlEQVQIHWP8//8/AzpgggkoSImHA3EYiM8IUgnkiAPZR4EYpM0KrPLBs5cvgZx1IAxkvwYAOpQSRP8EaG8AAAAASUVORK5CYII="/>
                </g>
              </g>
            </g>
          </g>
        </g>
        <g id="Group_325" data-name="Group 325" style="mix-blend-mode: overlay;isolation: isolate">
          <g id="Group_324" data-name="Group 324">
            <g id="Group_323" data-name="Group 323" clip-path="url(#clip-path-23)">
              <g id="Group_322" data-name="Group 322">
                <g id="Group_321" data-name="Group 321" clip-path="url(#clip-path-24)">
                  <image id="Rectangle_162" data-name="Rectangle 162" width="5" height="4" transform="translate(1972 145)" xlink:href="data:image/png;base64,iVBORw0KGgoAAAANSUhEUgAAAAUAAAAECAYAAABGM/VAAAAAAXNSR0IArs4c6QAAADhlWElmTU0AKgAAAAgAAYdpAAQAAAABAAAAGgAAAAAAAqACAAQAAAABAAAABaADAAQAAAABAAAABAAAAABhAhd7AAAALUlEQVQIHWP8//8/AzpggQkoSInHANkBQFwIFwRyYoHYDIgdkQVLgQI2QLwYAFhqBqEY6i0lAAAAAElFTkSuQmCC"/>
                </g>
              </g>
            </g>
          </g>
        </g>
        <g id="Group_330" data-name="Group 330" style="mix-blend-mode: overlay;isolation: isolate">
          <g id="Group_329" data-name="Group 329">
            <g id="Group_328" data-name="Group 328" clip-path="url(#clip-path-25)">
              <g id="Group_327" data-name="Group 327">
                <g id="Group_326" data-name="Group 326" clip-path="url(#clip-path-26)">
                  <image id="Rectangle_164" data-name="Rectangle 164" width="5" height="4" transform="translate(1977 145)" xlink:href="data:image/png;base64,iVBORw0KGgoAAAANSUhEUgAAAAUAAAAECAYAAABGM/VAAAAAAXNSR0IArs4c6QAAADhlWElmTU0AKgAAAAgAAYdpAAQAAAABAAAAGgAAAAAAAqACAAQAAAABAAAABaADAAQAAAABAAAABAAAAABhAhd7AAAAL0lEQVQIHWP8//8/AzpggQkoSIlnAdl2QJwJFwRyIoFYE4itkQVLgAJ6D5693AIAXAYJL3+/03MAAAAASUVORK5CYII="/>
                </g>
              </g>
            </g>
          </g>
        </g>
        <g id="Group_332" data-name="Group 332">
          <g id="Group_331" data-name="Group 331" clip-path="url(#clip-path-27)">
            <rect id="Rectangle_166" data-name="Rectangle 166" width="11.676" height="11.693" transform="translate(1974.65 135.107) rotate(-53.713)" fill="url(#linear-gradient-9)"/>
          </g>
        </g>
        <g id="Group_334" data-name="Group 334">
          <g id="Group_333" data-name="Group 333" clip-path="url(#clip-path-28)">
            <rect id="Rectangle_167" data-name="Rectangle 167" width="10.867" height="10.867" transform="matrix(0.707, -0.707, 0.707, 0.707, 1975.934, 132.822)" fill="url(#linear-gradient-10)"/>
          </g>
        </g>
        <g id="Group_336" data-name="Group 336">
          <g id="Group_335" data-name="Group 335" clip-path="url(#clip-path-29)">
            <rect id="Rectangle_169" data-name="Rectangle 169" width="10.734" height="10.734" transform="translate(1976.076 132.776) rotate(-45)" fill="url(#linear-gradient-11)"/>
          </g>
        </g>
        <g id="Group_338" data-name="Group 338">
          <g id="Group_337" data-name="Group 337" clip-path="url(#clip-path-30)">
            <rect id="Rectangle_171" data-name="Rectangle 171" width="11.693" height="11.676" transform="matrix(0.806, -0.592, 0.592, 0.806, 1963.294, 132.616)" fill="url(#linear-gradient-12)"/>
          </g>
        </g>
        <g id="Group_340" data-name="Group 340">
          <g id="Group_339" data-name="Group 339" clip-path="url(#clip-path-31)">
            <rect id="Rectangle_172" data-name="Rectangle 172" width="10.867" height="10.867" transform="translate(1962.978 132.823) rotate(-45.003)" fill="url(#linear-gradient-13)"/>
          </g>
        </g>
        <g id="Group_342" data-name="Group 342">
          <g id="Group_341" data-name="Group 341" clip-path="url(#clip-path-32)">
            <rect id="Rectangle_174" data-name="Rectangle 174" width="10.734" height="10.734" transform="matrix(0.707, -0.707, 0.707, 0.707, 1963.025, 132.776)" fill="url(#linear-gradient-14)"/>
          </g>
        </g>
        <g id="Group_344" data-name="Group 344">
          <g id="Group_343" data-name="Group 343" clip-path="url(#clip-path-33)">
            <rect id="Rectangle_176" data-name="Rectangle 176" width="11.693" height="11.676" transform="translate(1974.65 144.065) rotate(-36.286)" fill="url(#linear-gradient-15)"/>
          </g>
        </g>
        <g id="Group_346" data-name="Group 346">
          <g id="Group_345" data-name="Group 345" clip-path="url(#clip-path-34)">
            <rect id="Rectangle_177" data-name="Rectangle 177" width="10.868" height="10.868" transform="translate(1975.934 146.349) rotate(-45.004)" fill="url(#linear-gradient-16)"/>
          </g>
        </g>
        <g id="Group_348" data-name="Group 348">
          <g id="Group_347" data-name="Group 347" clip-path="url(#clip-path-35)">
            <rect id="Rectangle_179" data-name="Rectangle 179" width="10.734" height="10.734" transform="translate(1976.076 146.396) rotate(-44.999)" fill="url(#linear-gradient-17)"/>
          </g>
        </g>
        <g id="Group_350" data-name="Group 350">
          <g id="Group_349" data-name="Group 349" clip-path="url(#clip-path-36)">
            <rect id="Rectangle_181" data-name="Rectangle 181" width="11.676" height="11.693" transform="matrix(0.592, -0.806, 0.806, 0.592, 1963.294, 146.556)" fill="url(#linear-gradient-18)"/>
          </g>
        </g>
        <g id="Group_352" data-name="Group 352">
          <g id="Group_351" data-name="Group 351" clip-path="url(#clip-path-37)">
            <rect id="Rectangle_182" data-name="Rectangle 182" width="10.868" height="10.868" transform="matrix(0.707, -0.707, 0.707, 0.707, 1962.977, 146.348)" fill="url(#linear-gradient-19)"/>
          </g>
        </g>
        <g id="Group_354" data-name="Group 354">
          <g id="Group_353" data-name="Group 353" clip-path="url(#clip-path-38)">
            <rect id="Rectangle_184" data-name="Rectangle 184" width="10.733" height="10.733" transform="translate(1963.025 146.396) rotate(-44.999)" fill="url(#linear-gradient-20)"/>
          </g>
        </g>
      </g>
      <g id="Group_356" data-name="Group 356">
        <path id="Path_412" data-name="Path 412" d="M1996.423,130.032v-3.038a1.088,1.088,0,0,0-.054-.352,1.03,1.03,0,0,0-.132-.263.831.831,0,0,0-.174-.18,1.115,1.115,0,0,0-.188-.112l-.01-.171a1.3,1.3,0,0,1,.487-.448,1.541,1.541,0,0,1,.783-.186,2.372,2.372,0,0,1,.535.051,3.114,3.114,0,0,1,.4.122l-.106.531a1.761,1.761,0,0,0-.4-.142,2.028,2.028,0,0,0-.4-.04.946.946,0,0,0-.4.071.878.878,0,0,0-.246.157,1.178,1.178,0,0,1,.411.4,1.132,1.132,0,0,1,.151.607v3Z" fill="#2f5696"/>
        <path id="Path_413" data-name="Path 413" d="M1998.716,129.566a.884.884,0,0,0,.407-.076.248.248,0,0,0,.145-.232.241.241,0,0,0-.054-.157.47.47,0,0,0-.141-.115,1.452,1.452,0,0,0-.2-.086l-.215-.073c-.125-.041-.244-.085-.357-.134a1.21,1.21,0,0,1-.3-.18.863.863,0,0,1-.2-.251.74.74,0,0,1-.076-.346.635.635,0,0,1,.079-.31.794.794,0,0,1,.221-.247,1.03,1.03,0,0,1,.337-.165,1.477,1.477,0,0,1,.428-.058,2.067,2.067,0,0,1,.569.071,2.518,2.518,0,0,1,.459.181l-.172.467a1.5,1.5,0,0,0-.4-.15,2,2,0,0,0-.427-.042.8.8,0,0,0-.324.058.2.2,0,0,0-.132.19.256.256,0,0,0,.168.23,3.279,3.279,0,0,0,.434.174,3.521,3.521,0,0,1,.385.152,1.256,1.256,0,0,1,.3.19.741.741,0,0,1,.191.258.871.871,0,0,1,.065.353.767.767,0,0,1-.07.331.707.707,0,0,1-.214.261,1.02,1.02,0,0,1-.353.172,1.817,1.817,0,0,1-.5.061,2.337,2.337,0,0,1-.565-.064,1.718,1.718,0,0,1-.463-.179l.157-.5a1.848,1.848,0,0,0,.4.16A1.55,1.55,0,0,0,1998.716,129.566Z" fill="#2f5696"/>
        <path id="Path_414" data-name="Path 414" d="M2001.07,130.032l-.856-2.836h.648l.694,2.309h.056a.434.434,0,0,0,.234-.07.693.693,0,0,0,.2-.2,1.013,1.013,0,0,0,.139-.313,1.526,1.526,0,0,0,.052-.408,1.1,1.1,0,0,0-.151-.656.458.458,0,0,0-.382-.194,1,1,0,0,0-.339.065l-.1-.481a.836.836,0,0,1,.246-.083,1.56,1.56,0,0,1,.3-.028,1,1,0,0,1,.426.091.952.952,0,0,1,.343.268,1.363,1.363,0,0,1,.226.433,1.875,1.875,0,0,1,.085.585,1.923,1.923,0,0,1-.1.635,1.389,1.389,0,0,1-.271.479,1.183,1.183,0,0,1-.412.3,1.282,1.282,0,0,1-.523.1Z" fill="#2f5696"/>
        <path id="Path_415" data-name="Path 415" d="M2005.384,127.338l.35,1.251c.013.061.028.122.042.185a2,2,0,0,1,.041.205c.013.074.023.156.033.246s.021.19.03.3h.016c0-.227.013-.414.027-.565s.032-.274.049-.372l.222-1.393h.643l-.48,2.836h-.724l-.375-1.3a4.466,4.466,0,0,1-.1-.443c-.029-.154-.051-.307-.069-.459h-.014c-.018.152-.04.305-.069.459s-.063.3-.1.443l-.375,1.3h-.724l-.48-2.836h.643l.222,1.393c.017.1.033.222.049.372s.024.338.027.565h.015c.011-.111.021-.212.03-.3s.021-.172.034-.246.024-.143.038-.205.028-.124.045-.185l.35-1.251Z" fill="#2f5696"/>
        <path id="Path_416" data-name="Path 416" d="M2009.137,127.2h.657v1.742a1.376,1.376,0,0,1-.076.471.9.9,0,0,1-.237.365,1.115,1.115,0,0,1-.421.236,2.057,2.057,0,0,1-.623.083,1.773,1.773,0,0,1-.47-.059,1.043,1.043,0,0,1-.367-.176.817.817,0,0,1-.241-.3.966.966,0,0,1-.086-.418.639.639,0,0,1,.145-.418.6.6,0,0,1,.367-.215.526.526,0,0,1-.187-.083.8.8,0,0,1-.165-.153.694.694,0,0,1-.117-.2.672.672,0,0,1,.011-.5.59.59,0,0,1,.151-.215.724.724,0,0,1,.244-.145.948.948,0,0,1,.326-.053,1.752,1.752,0,0,1,.336.028,1.033,1.033,0,0,1,.251.078l-.065.491a.926.926,0,0,0-.168-.05.845.845,0,0,0-.152-.016.417.417,0,0,0-.256.069.22.22,0,0,0-.088.185.257.257,0,0,0,.112.225.408.408,0,0,0,.243.079h.385l.054.506h-.343a.466.466,0,0,0-.322.1.355.355,0,0,0-.114.278.379.379,0,0,0,.152.321.615.615,0,0,0,.38.114.693.693,0,0,0,.511-.172.624.624,0,0,0,.173-.461Z" fill="#2f5696"/>
        <path id="Path_417" data-name="Path 417" d="M2011.714,130.032v-1.823c0-.365-.153-.546-.456-.546a1.311,1.311,0,0,0-.448.08,1.916,1.916,0,0,0-.393.193l-.166-.471a2.171,2.171,0,0,1,.483-.233,1.751,1.751,0,0,1,.58-.1,1.019,1.019,0,0,1,.79.293,1.142,1.142,0,0,1,.268.8v1.8Z" fill="#2f5696"/>
        <path id="Path_418" data-name="Path 418" d="M2014.387,130.093a1.361,1.361,0,0,1-.92-.284,1.062,1.062,0,0,1-.33-.855V127.2h.658v1.758a.619.619,0,0,0,.157.453.676.676,0,0,0,.871,0,.619.619,0,0,0,.157-.453V127.2h.658v1.758a1.062,1.062,0,0,1-.33.855A1.366,1.366,0,0,1,2014.387,130.093Z" fill="#2f5696"/>
        <path id="Path_419" data-name="Path 419" d="M2017.557,130.032v-1.823c0-.365-.152-.546-.456-.546a1.316,1.316,0,0,0-.448.08,1.934,1.934,0,0,0-.392.193l-.167-.471a2.156,2.156,0,0,1,.484-.233,1.751,1.751,0,0,1,.58-.1,1.018,1.018,0,0,1,.789.293,1.142,1.142,0,0,1,.269.8v1.8Z" fill="#2f5696"/>
        <path id="Path_420" data-name="Path 420" d="M2020.7,130.032v-1.241h-.619a1.036,1.036,0,0,0-.452.084.31.31,0,0,0-.17.307.365.365,0,0,0,.116.285.415.415,0,0,0,.289.1,1.033,1.033,0,0,0,.189-.018.7.7,0,0,0,.2-.068l.107.481a1.124,1.124,0,0,1-.271.086,1.637,1.637,0,0,1-.3.025,1.273,1.273,0,0,1-.384-.055.869.869,0,0,1-.31-.168.786.786,0,0,1-.208-.277.966.966,0,0,1-.075-.39.764.764,0,0,1,.326-.686,1.82,1.82,0,0,1,.99-.216h.568v-.1a.561.561,0,0,0-.14-.395.567.567,0,0,0-.437-.152,1.535,1.535,0,0,0-.55.091,1.974,1.974,0,0,0-.438.238l-.208-.456a2.057,2.057,0,0,1,.515-.263,2.034,2.034,0,0,1,.71-.116,1.525,1.525,0,0,1,.494.075,1.1,1.1,0,0,1,.375.213.924.924,0,0,1,.238.332,1.085,1.085,0,0,1,.083.433v1.843Z" fill="#2f5696"/>
      </g>
      <g id="Group_365" data-name="Group 365">
        <g id="Group_364" data-name="Group 364">
          <g id="Group_357" data-name="Group 357">
            <path id="Path_421" data-name="Path 421" d="M2037.088,137.642a2.5,2.5,0,0,1-.627,1.813,2.631,2.631,0,0,1-1.964.648,2.721,2.721,0,0,1-1.969-.612,2.354,2.354,0,0,1-.622-1.753v-.619a1.367,1.367,0,0,1,.16-.671,3.644,3.644,0,0,1,.354-.535c.129-.163.247-.321.353-.476a.825.825,0,0,0,.16-.481v-.166c0-.183-.088-.274-.262-.274h-.7V133.3h.879a2.473,2.473,0,0,1,.731.09,1.115,1.115,0,0,1,.456.255.9.9,0,0,1,.24.422,2.272,2.272,0,0,1,.069.589v.3a1.2,1.2,0,0,1-.149.606,4.423,4.423,0,0,1-.331.505,5.757,5.757,0,0,0-.331.494,1.068,1.068,0,0,0-.148.558v.63a1.167,1.167,0,0,0,.28.868,1.136,1.136,0,0,0,.827.273,1.078,1.078,0,0,0,.827-.3,1.332,1.332,0,0,0,.28-.938v-1.237a.966.966,0,0,0-.119-.547.44.44,0,0,0-.383-.166h-.171l-.228-.571,1.21-1.831h1.551l-1.29,1.724a1.213,1.213,0,0,1,.686.547,1.721,1.721,0,0,1,.228.88Z" fill="#2b5597"/>
          </g>
          <g id="Group_358" data-name="Group 358">
            <path id="Path_422" data-name="Path 422" d="M2025.925,138.3a4.6,4.6,0,0,0,.85.4,2.787,2.787,0,0,0,.942.166,1.473,1.473,0,0,0,1.25-.565,2.741,2.741,0,0,0,.427-1.67,2.619,2.619,0,0,0-.45-1.694,1.524,1.524,0,0,0-1.238-.541,2.593,2.593,0,0,0-.919.166,3.683,3.683,0,0,0-.862.476l-.342-1.165a4.187,4.187,0,0,1,1.061-.517,3.827,3.827,0,0,1,1.21-.2,2.852,2.852,0,0,1,2.231.879,3.621,3.621,0,0,1,.794,2.509,3.857,3.857,0,0,1-.805,2.668,2.859,2.859,0,0,1-2.231.886,4.991,4.991,0,0,1-1.273-.154,2.84,2.84,0,0,1-.987-.452Z" fill="#2b5597"/>
          </g>
          <g id="Group_359" data-name="Group 359">
            <path id="Path_423" data-name="Path 423" d="M2024.521,133.3v6.657h-1.484V133.3Z" fill="#2b5597"/>
          </g>
          <g id="Group_360" data-name="Group 360">
            <path id="Path_424" data-name="Path 424" d="M2017.672,137.714a1.413,1.413,0,0,0,.217.9.777.777,0,0,0,.628.256,1.389,1.389,0,0,0,.9-.315,2.077,2.077,0,0,0,.593-.767V133.3h1.484v6.657h-1.324l-.16-.82a2.665,2.665,0,0,1-.308.339,2.374,2.374,0,0,1-.411.309,2.547,2.547,0,0,1-.5.226,1.76,1.76,0,0,1-.554.089,2.015,2.015,0,0,1-1.5-.559,2.416,2.416,0,0,1-.553-1.759v-1.961a1.487,1.487,0,0,0-.343-1.07,1.206,1.206,0,0,0-.913-.357,1.369,1.369,0,0,0-.422.066,1.7,1.7,0,0,0-.388.178,1.674,1.674,0,0,0-.325.261,1.338,1.338,0,0,0-.223.3l.959.844a1.075,1.075,0,0,0-.537.4,1.254,1.254,0,0,0-.182.719v1.391c0,.127.057.19.171.19h.662v1.212h-1.005a1.283,1.283,0,0,1-.987-.35,1.356,1.356,0,0,1-.325-.957v-1.474a1.334,1.334,0,0,1,.171-.678,1.309,1.309,0,0,1,.434-.463l-.925-.785a2.508,2.508,0,0,1,.383-.779,3.1,3.1,0,0,1,.65-.665,3.3,3.3,0,0,1,.868-.47,3.032,3.032,0,0,1,1.056-.178,3.2,3.2,0,0,1,1.159.2,2.375,2.375,0,0,1,.85.547,2.32,2.32,0,0,1,.519.844,3.186,3.186,0,0,1,.176,1.076Z" fill="#2b5597"/>
          </g>
          <g id="Group_361" data-name="Group 361">
            <path id="Path_425" data-name="Path 425" d="M2007.88,140.1a3.005,3.005,0,0,1-2.079-.666,2.562,2.562,0,0,1-.741-2.008V133.3h1.484v4.126a1.487,1.487,0,0,0,.354,1.063,1.472,1.472,0,0,0,1.963,0,1.486,1.486,0,0,0,.354-1.063V136.7h-1.358v-1.2h1.358v-2.2h1.483v2.2h1.016l-.263,1.2h-.753v.726a2.562,2.562,0,0,1-.741,2.008A3,3,0,0,1,2007.88,140.1Z" fill="#2b5597"/>
          </g>
          <g id="Group_362" data-name="Group 362">
            <path id="Path_426" data-name="Path 426" d="M1998.382,132.471v-1.165h5.194v1.165Z" fill="#2b5597"/>
          </g>
          <g id="Group_363" data-name="Group 363">
            <path id="Path_427" data-name="Path 427" d="M2000.757,133.636l.787,2.937c.031.142.063.287.1.433s.064.308.091.482.051.366.075.576.045.446.067.708h.034q.012-.8.064-1.326c.034-.352.07-.644.108-.873l.5-3.27h1.45l-1.085,6.657h-1.632l-.844-3.043c-.092-.333-.169-.679-.235-1.04s-.116-.719-.153-1.076h-.035q-.057.536-.153,1.076c-.066.361-.143.707-.235,1.04l-.844,3.043h-1.632L1996.1,133.3h1.45l.5,3.27c.038.229.075.521.108.873s.056.795.063,1.326h.035q.033-.393.068-.708c.022-.21.047-.4.074-.576s.055-.335.086-.482.064-.291.1-.433l.788-2.937Z" fill="#2b5597"/>
          </g>
        </g>
        <path id="Path_428" data-name="Path 428" d="M2021.033,141.81c0-.156-.075-.234-.224-.234h-.355v-.933h.785a.965.965,0,0,1,.677.205.892.892,0,0,1,.219.68v1.215h-1.1Z" fill="#2b5597"/>
      </g>
      <g id="Group_368" data-name="Group 368">
        <g id="Group_366" data-name="Group 366">
          <path id="Path_429" data-name="Path 429" d="M1996.992,149.565v.858a.679.679,0,0,1,1.091.575v.174a.656.656,0,0,1-.741.743,1.865,1.865,0,0,1-.7-.159v-2.191Zm0,1.982a1.06,1.06,0,0,0,.347.067c.276,0,.4-.118.4-.448V151c0-.273-.149-.416-.36-.416a.578.578,0,0,0-.385.162Z" fill="#2d5e9b"/>
        </g>
        <g id="Group_367" data-name="Group 367">
          <path id="Path_430" data-name="Path 430" d="M1998.843,151.9l-.676-1.6h.378l.464,1.2.5-1.2h.374l-.818,1.906a.5.5,0,0,1-.519.339.9.9,0,0,1-.333-.07l.035-.323a.591.591,0,0,0,.284.091.225.225,0,0,0,.225-.145Z" fill="#2d5e9b"/>
        </g>
        <path id="Path_431" data-name="Path 431" d="M2022.728,152.053v-2.447h.365v1.075h1.125v-1.075h.365v2.447h-.365v-1.044h-1.125v1.044Z" fill="#2d5e9b"/>
        <path id="Path_432" data-name="Path 432" d="M2026.664,152.053h-1.619v-2.447h1.568v.328h-1.2v.73h1.034v.327h-1.034v.734h1.253Z" fill="#2d5e9b"/>
        <path id="Path_433" data-name="Path 433" d="M2026.918,152.053l.942-2.447h.367l.942,2.447h-.4l-.27-.707h-.914l-.271.707Zm1.125-1.9-.331.862h.661Z" fill="#2d5e9b"/>
        <path id="Path_434" data-name="Path 434" d="M2030.948,152.053h-1.476v-2.447h.365v2.119h1.111Z" fill="#2d5e9b"/>
        <path id="Path_435" data-name="Path 435" d="M2030.756,149.933v-.327h1.973v.327h-.8v2.12h-.365v-2.12Z" fill="#2d5e9b"/>
        <path id="Path_436" data-name="Path 436" d="M2033.083,152.053v-2.447h.365v1.075h1.125v-1.075h.366v2.447h-.366v-1.044h-1.125v1.044Z" fill="#2d5e9b"/>
        <path id="Path_437" data-name="Path 437" d="M2037.112,151.873a1.378,1.378,0,0,1-.724.2.925.925,0,0,1-1.041-1.027v-.4a.974.974,0,0,1,1.056-1.071,1.779,1.779,0,0,1,.647.133l-.077.318a1.655,1.655,0,0,0-.578-.121c-.383,0-.683.2-.683.758v.365a.637.637,0,0,0,.673.713,1.186,1.186,0,0,0,.638-.209Z" fill="#2d5e9b"/>
        <path id="Path_438" data-name="Path 438" d="M2037.344,152.053l.943-2.447h.365l.943,2.447h-.4l-.27-.707h-.913l-.271.707Zm1.125-1.9-.332.862h.661Z" fill="#2d5e9b"/>
        <path id="Path_439" data-name="Path 439" d="M2039.9,149.671a2.756,2.756,0,0,1,.669-.089c.567,0,1.012.2,1.012.772a.644.644,0,0,1-.369.6.775.775,0,0,1,.121.194l.4.906h-.394l-.337-.765c-.073-.169-.171-.218-.412-.218h-.322v.983h-.366Zm.366,1.072h.413c.357,0,.537-.155.537-.4,0-.361-.321-.437-.65-.437a2.252,2.252,0,0,0-.3.023Z" fill="#2d5e9b"/>
        <path id="Path_440" data-name="Path 440" d="M2043.688,152.053h-1.619v-2.447h1.568v.328h-1.2v.73h1.034v.327h-1.034v.734h1.253Z" fill="#2d5e9b"/>
        <path id="Path_441" data-name="Path 441" d="M2047.018,151.873a1.368,1.368,0,0,1-.723.2.926.926,0,0,1-1.041-1.027v-.4a.974.974,0,0,1,1.056-1.071,1.763,1.763,0,0,1,.645.133l-.076.318a1.649,1.649,0,0,0-.576-.121c-.384,0-.683.2-.683.758v.365a.637.637,0,0,0,.672.713,1.193,1.193,0,0,0,.639-.209Z" fill="#2d5e9b"/>
        <path id="Path_442" data-name="Path 442" d="M2049.41,150.971a1.071,1.071,0,1,1-2.141,0v-.283a1.071,1.071,0,1,1,2.141,0Zm-1.768.01a.7.7,0,1,0,1.4,0v-.3a.7.7,0,1,0-1.4,0Z" fill="#2d5e9b"/>
        <path id="Path_443" data-name="Path 443" d="M2050.713,152.053l-.354-.962-.19-.709v1.671h-.366v-2.447h.406l.728,2.017.727-2.017h.405v2.447h-.366v-1.671l-.189.709-.354.962Z" fill="#2d5e9b"/>
        <path id="Path_444" data-name="Path 444" d="M2052.513,149.671a3.215,3.215,0,0,1,.7-.09c.643,0,1.053.259,1.053.8,0,.407-.3.769-.9.769h-.487v.906h-.365Zm.365,1.148h.487c.357,0,.535-.207.535-.448,0-.369-.339-.462-.682-.462a2.821,2.821,0,0,0-.34.024Z" fill="#2d5e9b"/>
        <path id="Path_445" data-name="Path 445" d="M2054.164,152.053l.943-2.447h.364l.942,2.447h-.4l-.271-.707h-.912l-.272.707Zm1.125-1.9-.333.862h.662Z" fill="#2d5e9b"/>
        <path id="Path_446" data-name="Path 446" d="M2057.3,150.684l-.224-.465v1.833h-.365v-2.447h.409l.836,1.413.22.472v-1.885h.366v2.447h-.432Z" fill="#2d5e9b"/>
        <path id="Path_447" data-name="Path 447" d="M2059.761,152.053v-.975l-.909-1.472h.416l.676,1.092.676-1.092h.416l-.909,1.472v.975Z" fill="#2d5e9b"/>
        <path id="Path_448" data-name="Path 448" d="M2008.107,152.035v-2.407h.472l1.418,1.72v-1.72h.455v2.407h-.473l-1.418-1.757v1.757Z" fill="#2b5597"/>
        <path id="Path_449" data-name="Path 449" d="M2012.855,151.933a2.205,2.205,0,0,1-.749.118q-1.372,0-1.373-1.253,0-1.188,1.373-1.187a2.2,2.2,0,0,1,.749.118v.4a1.867,1.867,0,0,0-.714-.135q-.918,0-.917.8,0,.865.917.866a1.886,1.886,0,0,0,.714-.134Z" fill="#2b5597"/>
        <rect id="Rectangle_186" data-name="Rectangle 186" width="0.524" height="2.442" transform="translate(2013.528 149.629)" fill="#2b5597"/>
        <path id="Path_450" data-name="Path 450" d="M2019.287,152.071h-.568l-.227-.555h-1.035l-.213.555h-.555l1.009-2.442h.553Zm-.962-.966-.358-.906-.348.906Z" fill="#2b5597"/>
        <path id="Path_451" data-name="Path 451" d="M2019.752,152.051v-2.423h.522v2.011h1.3v.412Z" fill="#2b5597"/>
        <path id="Path_452" data-name="Path 452" d="M2001.431,149.587h.884a2.174,2.174,0,0,1,.423.038.924.924,0,0,1,.32.127.59.59,0,0,1,.208.225.693.693,0,0,1,.073.329.667.667,0,0,1-.085.348.647.647,0,0,1-.227.226,1.071,1.071,0,0,1-.336.125,2.1,2.1,0,0,1-.406.039h-.371v1.027h-.483Zm.82,1.085a1.649,1.649,0,0,0,.226-.016.668.668,0,0,0,.191-.056.347.347,0,0,0,.134-.11.315.315,0,0,0,.05-.184.3.3,0,0,0-.05-.177.335.335,0,0,0-.132-.107.626.626,0,0,0-.188-.051,1.892,1.892,0,0,0-.216-.012h-.352v.713Z" fill="#2b5597"/>
        <path id="Path_453" data-name="Path 453" d="M2003.844,149.587h.942a1.82,1.82,0,0,1,.372.037,1.036,1.036,0,0,1,.32.12.67.67,0,0,1,.224.222.633.633,0,0,1,.083.333.607.607,0,0,1-.165.441.865.865,0,0,1-.455.23l.725,1.1h-.582l-.629-1.052h-.353v1.052h-.482Zm.877,1.07a1.6,1.6,0,0,0,.207-.013.637.637,0,0,0,.185-.053.359.359,0,0,0,.136-.11.3.3,0,0,0,.054-.185.268.268,0,0,0-.05-.167.365.365,0,0,0-.126-.1.571.571,0,0,0-.174-.053,1.407,1.407,0,0,0-.19-.014h-.437v.7Z" fill="#2b5597"/>
        <path id="Path_454" data-name="Path 454" d="M2014.77,149.587h.885a2.169,2.169,0,0,1,.422.038.937.937,0,0,1,.321.127.6.6,0,0,1,.207.225.68.68,0,0,1,.073.329.667.667,0,0,1-.085.348.655.655,0,0,1-.227.226,1.08,1.08,0,0,1-.336.125,2.112,2.112,0,0,1-.406.039h-.371v1.027h-.483Zm.819,1.085a1.5,1.5,0,0,0,.227-.017.645.645,0,0,0,.192-.055.345.345,0,0,0,.133-.11.308.308,0,0,0,.051-.184.29.29,0,0,0-.051-.177.326.326,0,0,0-.132-.107.619.619,0,0,0-.187-.051,1.935,1.935,0,0,0-.217-.012h-.352v.713Z" fill="#2b5597"/>
        <path id="Path_455" data-name="Path 455" d="M2006.795,150.1l0,2.152-.191-.069v-2.117Z" fill="#85742d"/>
        <path id="Path_456" data-name="Path 456" d="M2007.163,149.876v2.157l-.2.184v-2.151Z" fill="#85742d"/>
        <path id="Path_457" data-name="Path 457" d="M2007.525,149.533v2.149l-.2.2v-2.157Z" fill="#85742d"/>
        <path id="Path_458" data-name="Path 458" d="M2007.429,149.181a.584.584,0,0,1-.4.523.314.314,0,0,1-.412-.314.581.581,0,0,1,.4-.522.313.313,0,0,1,.412.313" fill="#85742d"/>
      </g>
      <g id="Group_369" data-name="Group 369">
        <path id="Path_459" data-name="Path 459" d="M1999.02,144.34a1.189,1.189,0,0,1-.1.482,1.137,1.137,0,0,1-.272.388,1.219,1.219,0,0,1-.431.259,1.624,1.624,0,0,1-.566.094h-.608v1.295h-.738v-3.714h1.379a1.607,1.607,0,0,1,.562.094,1.227,1.227,0,0,1,.419.253,1.092,1.092,0,0,1,.261.38,1.209,1.209,0,0,1,.091.469m-.737,0a.58.58,0,0,0-.154-.422.592.592,0,0,0-.442-.157h-.641v1.185h.608a.637.637,0,0,0,.461-.162.591.591,0,0,0,.168-.444" fill="#f07a21"/>
        <rect id="Rectangle_187" data-name="Rectangle 187" width="0.739" height="3.714" transform="translate(1999.723 143.143)" fill="#f07a21"/>
        <path id="Path_460" data-name="Path 460" d="M2002.816,146.858h-.738V143.75l-1.1.011v-.618h2.927v.618l-1.094-.011Z" fill="#f07a21"/>
        <path id="Path_461" data-name="Path 461" d="M2005.447,146.924a2.868,2.868,0,0,1-.68-.074,2.229,2.229,0,0,1-.54-.207l.187-.584a2.467,2.467,0,0,0,.464.186,1.76,1.76,0,0,0,.513.078,1.1,1.1,0,0,0,.543-.123.411.411,0,0,0,.222-.384.351.351,0,0,0-.064-.214.615.615,0,0,0-.177-.155,1.341,1.341,0,0,0-.25-.113l-.286-.1c-.117-.037-.242-.082-.374-.135a1.523,1.523,0,0,1-.366-.209,1.073,1.073,0,0,1-.278-.323.935.935,0,0,1-.111-.473,1.018,1.018,0,0,1,.078-.4.8.8,0,0,1,.241-.325,1.193,1.193,0,0,1,.419-.218,2.071,2.071,0,0,1,.613-.08,2.737,2.737,0,0,1,.593.06,2.4,2.4,0,0,1,.514.182l-.188.551a2.422,2.422,0,0,0-.449-.143,2.086,2.086,0,0,0-.431-.05.891.891,0,0,0-.5.116.345.345,0,0,0-.164.292.379.379,0,0,0,.06.218.608.608,0,0,0,.165.158,1.328,1.328,0,0,0,.233.115c.087.033.176.064.268.093.136.044.273.1.413.152a1.58,1.58,0,0,1,.38.218,1.081,1.081,0,0,1,.279.322.943.943,0,0,1,.107.466,1.009,1.009,0,0,1-.11.484,1.03,1.03,0,0,1-.3.342,1.28,1.28,0,0,1-.451.2,2.3,2.3,0,0,1-.567.066" fill="#f07a21"/>
        <path id="Path_462" data-name="Path 462" d="M2009.684,146.026H2008.3l-.29.832h-.772l1.379-3.714h.75l1.377,3.714h-.771Zm-1.168-.6h.953l-.186-.557-.284-.947h-.012l-.283.947Z" fill="#f07a21"/>
        <path id="Path_463" data-name="Path 463" d="M2013.628,143.144h.737v3.714h-.737l-1.306-2.1c-.079-.129-.149-.255-.212-.38a3,3,0,0,1-.161-.391h-.018c.031.154.054.3.071.449a3.379,3.379,0,0,1,.025.394v2.033h-.737v-3.714h.795l1.248,2.1c.079.129.15.256.213.38a3.419,3.419,0,0,1,.162.392h.016c-.03-.155-.055-.3-.071-.449a3.421,3.421,0,0,1-.025-.4Z" fill="#f07a21"/>
        <path id="Path_464" data-name="Path 464" d="M2016.792,146.34a.736.736,0,0,0,.587-.245,1.1,1.1,0,0,0,.214-.741v-2.21h.737v2.2a1.544,1.544,0,1,1-3.075,0v-2.2h.738v2.21a1.106,1.106,0,0,0,.213.741.735.735,0,0,0,.586.245" fill="#f07a21"/>
        <path id="Path_465" data-name="Path 465" d="M2021.535,143.144h.783l-1.338,3.714h-.771l-1.339-3.714h.783l.652,1.984.284,1h.011l.284-1Z" fill="#f07a21"/>
        <path id="Path_466" data-name="Path 466" d="M2022.874,143.144h2.485v.606h-1.771v.909h1.662v.606h-1.662v.987h1.8v.606h-2.518Z" fill="#f07a21"/>
        <path id="Path_467" data-name="Path 467" d="M2027.639,145.761a1.2,1.2,0,0,1-.28.884,1.039,1.039,0,0,1-.764.279,1.788,1.788,0,0,1-.47-.063,1.354,1.354,0,0,1-.358-.146l.176-.579a1.177,1.177,0,0,0,.269.124,1.04,1.04,0,0,0,.327.047.316.316,0,0,0,.272-.125.735.735,0,0,0,.09-.421v-2.617h.738Z" fill="#f07a21"/>
        <path id="Path_468" data-name="Path 468" d="M2054.776,145.3h-1.52v1.552h-.721v-3.633h.721V144.7h1.52v-1.476h.722v3.633h-.722Z" fill="#f07a21"/>
        <path id="Path_469" data-name="Path 469" d="M2056.19,145.041a2.392,2.392,0,0,1,.113-.744,1.7,1.7,0,0,1,.329-.6,1.514,1.514,0,0,1,.547-.4,2.091,2.091,0,0,1,1.52,0,1.5,1.5,0,0,1,.547.4,1.7,1.7,0,0,1,.33.6,2.544,2.544,0,0,1,0,1.487,1.693,1.693,0,0,1-.33.6,1.5,1.5,0,0,1-.547.4,2.091,2.091,0,0,1-1.52,0,1.514,1.514,0,0,1-.547-.4,1.691,1.691,0,0,1-.329-.6,2.377,2.377,0,0,1-.113-.743m.723,0a1.576,1.576,0,0,0,.26.965,1.025,1.025,0,0,0,1.532,0,1.915,1.915,0,0,0,0-1.93,1.023,1.023,0,0,0-1.532,0,1.576,1.576,0,0,0-.26.965" fill="#f07a21"/>
        <path id="Path_470" data-name="Path 470" d="M2061.379,146.922a2.739,2.739,0,0,1-.665-.073,2.155,2.155,0,0,1-.529-.2l.184-.571a2.307,2.307,0,0,0,.452.182,1.734,1.734,0,0,0,.5.076,1.077,1.077,0,0,0,.533-.121.4.4,0,0,0,.217-.374.344.344,0,0,0-.065-.211.593.593,0,0,0-.172-.151,1.37,1.37,0,0,0-.244-.111l-.28-.093c-.115-.036-.236-.08-.366-.133a1.423,1.423,0,0,1-.358-.205,1.027,1.027,0,0,1-.272-.315.909.909,0,0,1-.11-.463,1.012,1.012,0,0,1,.077-.388.807.807,0,0,1,.235-.318,1.171,1.171,0,0,1,.411-.213,2.023,2.023,0,0,1,.6-.078,2.694,2.694,0,0,1,.58.059,2.2,2.2,0,0,1,.5.178l-.183.539a2.206,2.206,0,0,0-.438-.139,2,2,0,0,0-.422-.05.867.867,0,0,0-.493.113.34.34,0,0,0-.163.287.363.363,0,0,0,.062.212.543.543,0,0,0,.162.154,1.288,1.288,0,0,0,.226.113c.086.032.173.062.262.091.133.044.268.093.405.149a1.6,1.6,0,0,1,.372.213,1.072,1.072,0,0,1,.272.315.926.926,0,0,1,.1.455.976.976,0,0,1-.108.474.987.987,0,0,1-.295.335,1.269,1.269,0,0,1-.44.2,2.274,2.274,0,0,1-.556.065" fill="#f07a21"/>
        <path id="Path_471" data-name="Path 471" d="M2066.14,144.394a1.176,1.176,0,0,1-.093.472,1.145,1.145,0,0,1-.268.38,1.217,1.217,0,0,1-.421.253,1.579,1.579,0,0,1-.555.092h-.593v1.266h-.722v-3.632h1.348a1.532,1.532,0,0,1,.55.092,1.219,1.219,0,0,1,.411.247,1.063,1.063,0,0,1,.255.372,1.192,1.192,0,0,1,.088.458m-.721,0a.565.565,0,0,0-.15-.412.576.576,0,0,0-.433-.154h-.626v1.158h.593a.624.624,0,0,0,.452-.157.58.58,0,0,0,.164-.435" fill="#f07a21"/>
        <rect id="Rectangle_188" data-name="Rectangle 188" width="0.721" height="3.633" transform="translate(2066.828 143.225)" fill="#f07a21"/>
        <path id="Path_472" data-name="Path 472" d="M2069.852,146.857h-.721v-3.04l-1.071.01v-.6h2.863v.6l-1.07-.01Z" fill="#f07a21"/>
        <path id="Path_473" data-name="Path 473" d="M2073.06,146.043h-1.354l-.283.814h-.755l1.348-3.632h.732l1.349,3.632h-.754Zm-1.143-.582h.932l-.183-.544-.277-.927h-.011l-.279.927Z" fill="#f07a21"/>
        <path id="Path_474" data-name="Path 474" d="M2074.625,143.225l.721-.006v3.034H2077v.6h-2.375Z" fill="#f07a21"/>
      </g>
    </g>
    <g id="Group_371" data-name="Group 371">
      <path id="Path_475" data-name="Path 475" d="M2047.892,133.724l.8,2.861c.031.139.064.28.1.422s.066.3.094.47.051.357.075.561.046.435.069.69h.035c.007-.518.029-.948.063-1.292s.072-.628.11-.851l.511-3.186h1.471l-1.1,6.487h-1.656l-.857-2.965q-.141-.488-.238-1.014c-.066-.351-.118-.7-.157-1.048h-.034c-.038.347-.091.7-.157,1.048s-.145.689-.237,1.014l-.857,2.965h-1.657l-1.1-6.487h1.472l.509,3.186c.038.223.075.508.11.851s.056.774.063,1.292h.036c.022-.255.046-.485.069-.69s.047-.392.075-.561.056-.327.087-.47.065-.283.1-.422l.8-2.861Z" fill="#2b5597"/>
      <path id="Path_476" data-name="Path 476" d="M2045.483,132.588v-1.135h5.27v1.135Z" fill="#2b5597"/>
      <path id="Path_477" data-name="Path 477" d="M2053.348,139.886l-.58-2.293a.308.308,0,0,0-.335-.267H2052v-1.205h.845a1.5,1.5,0,0,1,.748.168,1.016,1.016,0,0,1,.423.678l.428,1.714h.128a1.148,1.148,0,0,0,.492-.2,1.541,1.541,0,0,0,.423-.452,2.569,2.569,0,0,0,.3-.683,3.433,3.433,0,0,0,.109-.9,2.143,2.143,0,0,0-.446-1.511,1.588,1.588,0,0,0-1.211-.469,3.419,3.419,0,0,0-1.134.2,3.356,3.356,0,0,0-1.089.642l-.465-1.077a3.752,3.752,0,0,1,1.188-.706,4.418,4.418,0,0,1,1.582-.267,2.983,2.983,0,0,1,2.287.846,3.3,3.3,0,0,1,.794,2.351,3.87,3.87,0,0,1-.226,1.338,3.687,3.687,0,0,1-.614,1.089,2.884,2.884,0,0,1-.9.735,2.329,2.329,0,0,1-1.083.267Z" fill="#2b5597"/>
      <path id="Path_478" data-name="Path 478" d="M2051.818,132.588v-1.135h5.271v1.135Z" fill="#2b5597"/>
      <path id="Path_479" data-name="Path 479" d="M2061.688,133.99l1.228-.73a2.33,2.33,0,0,1,1.332.753,2.126,2.126,0,0,1,.44,1.379v4.494h-1.506V135.38c0-.463-.173-.73-.521-.8l-.973.556-.928-.533a1.528,1.528,0,0,0-.706.776,3.876,3.876,0,0,0-.122,2.311,1.916,1.916,0,0,0,.32.631,1.143,1.143,0,0,0,.9.452,2.588,2.588,0,0,0,.434-.035,1.8,1.8,0,0,0,.435-.139l.266,1.089a1.789,1.789,0,0,1-.538.22,3.313,3.313,0,0,1-.736.069,2.843,2.843,0,0,1-1.036-.19,2.3,2.3,0,0,1-.863-.592,2.923,2.923,0,0,1-.593-1.013,4.782,4.782,0,0,1-.062-2.647,3.806,3.806,0,0,1,.451-1.025,3.043,3.043,0,0,1,.719-.787,2.662,2.662,0,0,1,.955-.464Z" fill="#2b5597"/>
      <path id="Path_480" data-name="Path 480" d="M2068.14,138.82a2.032,2.032,0,0,0,.932-.174.567.567,0,0,0,.33-.533.547.547,0,0,0-.122-.358,1.045,1.045,0,0,0-.324-.261,3.058,3.058,0,0,0-.452-.2q-.249-.087-.492-.168c-.286-.092-.559-.195-.817-.307a2.725,2.725,0,0,1-.677-.411,1.9,1.9,0,0,1-.463-.574,1.68,1.68,0,0,1-.174-.793,1.43,1.43,0,0,1,.179-.707,1.825,1.825,0,0,1,.5-.567,2.417,2.417,0,0,1,.77-.376,3.41,3.41,0,0,1,.98-.134,4.68,4.68,0,0,1,1.3.163,5.463,5.463,0,0,1,1.049.417l-.394,1.065a3.439,3.439,0,0,0-.909-.342,4.7,4.7,0,0,0-.979-.1,1.83,1.83,0,0,0-.742.133.45.45,0,0,0-.3.435.582.582,0,0,0,.382.526,8.036,8.036,0,0,0,1,.4,8.223,8.223,0,0,1,.88.347,2.908,2.908,0,0,1,.678.435,1.671,1.671,0,0,1,.434.591,1.972,1.972,0,0,1,.151.8,1.714,1.714,0,0,1-.164.758,1.648,1.648,0,0,1-.485.6,2.332,2.332,0,0,1-.811.394,4.224,4.224,0,0,1-1.147.139,5.5,5.5,0,0,1-1.292-.145,4.019,4.019,0,0,1-1.059-.411l.359-1.147a4.37,4.37,0,0,0,.9.365A3.58,3.58,0,0,0,2068.14,138.82Z" fill="#2b5597"/>
    </g>
    <g id="Group_372" data-name="Group 372">
      <path id="Path_481" data-name="Path 481" d="M2029.956,143.111h1.3a2.009,2.009,0,0,1,1.166.284,1.131,1.131,0,0,1,.468,1,.948.948,0,0,1-.429.832,1.6,1.6,0,0,1-.92.25h-.793v1.442h-.789Zm1.928,1.616a.483.483,0,0,0,.179-.425.446.446,0,0,0-.2-.39.738.738,0,0,0-.43-.118h-.692v1.029h.727A.718.718,0,0,0,2031.884,144.727Z" fill="#f07a21"/>
      <path id="Path_482" data-name="Path 482" d="M2034.345,146.918h-.789v-3.807h.789v1.594h1.266v-1.594h.793v3.807h-.793v-1.6h-1.266Z" fill="#f07a21"/>
      <path id="Path_483" data-name="Path 483" d="M2037.976,143.111v3.807h-.789v-3.807Z" fill="#f07a21"/>
      <path id="Path_484" data-name="Path 484" d="M2041.076,144.521a1.155,1.155,0,0,0-.258-.635.747.747,0,0,0-.543-.206.631.631,0,0,0-.609.412,2.079,2.079,0,0,0-.158.894,1.993,1.993,0,0,0,.171.9.707.707,0,0,0,.67.416.654.654,0,0,0,.53-.223,1,1,0,0,0,.215-.552l.753.079a1.667,1.667,0,0,1-.5.99,1.522,1.522,0,0,1-1.06.372,1.45,1.45,0,0,1-1.249-.622,2.309,2.309,0,0,1-.4-1.371,2.168,2.168,0,0,1,.407-1.341,1.451,1.451,0,0,1,1.24-.6,1.5,1.5,0,0,1,1.078.4,1.67,1.67,0,0,1,.469,1.008Z" fill="#f07a21"/>
      <path id="Path_485" data-name="Path 485" d="M2043.31,146.918h-.789v-3.807h.789v1.594h1.265v-1.594h.793v3.807h-.793v-1.6h-1.265Z" fill="#f07a21"/>
      <path id="Path_486" data-name="Path 486" d="M2046.94,143.111v3.807h-.789v-3.807Z" fill="#f07a21"/>
      <path id="Path_487" data-name="Path 487" d="M2049.336,146.918h-.789v-3.15h-.973v-.657h2.734v.657h-.972Z" fill="#f07a21"/>
    </g>
  </g>
</svg>
