<svg xmlns="http://www.w3.org/2000/svg" width="146.573" height="26.587" viewBox="0 0 146.573 26.587">
  <g id="Group_62" data-name="Group 62" transform="translate(-1822.85 -283.886)">
    <g id="Group_61" data-name="Group 61">
      <path id="Path_212" data-name="Path 212" d="M1839.23,286.151a1.091,1.091,0,0,0,.1-.071c-4.384,0-6.213,0-7.953.006-4.344.021-7.765,2.527-7.746,6.6.019,4.211,2.414,5.445,7.4,6.9,3.943,1.159,5.328,2.062,5.335,3.878.012,2.29-1.565,3.443-4.864,3.457a8.6,8.6,0,0,1-6.139-2.765l-2.515,2.467a10.914,10.914,0,0,0,8.4,3.766c6.027-.028,8.7-2.935,8.685-7.176-.019-4.208-2.919-5.674-7.569-7.068-4.081-1.193-5.162-2-5.168-3.646-.009-1.583,1.207-3.089,3.967-3.1,1.083-.007.518-.014,4.535-.021a8.1,8.1,0,0,1,3.53-3.229" fill="#487088"/>
      <path id="Path_213" data-name="Path 213" d="M1835.745,296.736c-.505-3.241-.226-6.83,2.121-8.911,2.005-1.778,4.924-1.969,6.036-2.951.453-.4.985-.988.985-.988a12.234,12.234,0,0,1-2.383,9.292,9.717,9.717,0,0,1-6.73,3.585Z" fill="#bcd662"/>
      <path id="Path_214" data-name="Path 214" d="M1849.507,306.718l-5.689.016,0-.08,0-7.848,5.758-.013c2.7-.013,4.243,1.482,4.252,3.943.013,2.355-1.142,3.967-4.315,3.982m3.843-9.65a5.05,5.05,0,0,0,3.023-4.8c-.018-3.648-2.236-5.773-5.744-6.132-.013,0-5,0-5.012,0a9.049,9.049,0,0,1-.517,3.238c.013,0,4.646,0,4.66,0a2.858,2.858,0,0,1,3.026,3.116c.008,1.573-.941,3.046-3.3,3.054l-8.777.033v14.433l8.536-.015c5.224-.021,8.184-2.53,8.164-7.378a5.506,5.506,0,0,0-4.061-5.551" fill="#487088"/>
      <path id="Path_215" data-name="Path 215" d="M1856.954,308.771h-.177v.333h.177a.167.167,0,1,0,0-.333m.185.834-.218-.388h-.144v.388h-.132v-.952h.324a.29.29,0,0,1,.3.286.264.264,0,0,1-.2.261l.228.4Zm-.211-1.216a.742.742,0,1,0,.732.741.736.736,0,0,0-.732-.741m0,1.61a.868.868,0,1,1,.869-.869.868.868,0,0,1-.869.869" fill="#487088"/>
    </g>
    <path id="Path_216" data-name="Path 216" d="M1876.7,293.566h-4.985v16.907h-2.382V293.566h-4.972v-2.044H1876.7Z" fill="#487088"/>
    <path id="Path_217" data-name="Path 217" d="M1891.24,310.473h-2.4v-8.759h-7.627v8.759h-2.382V291.522h2.382v8.148h7.627v-8.148h2.4Z" fill="#487088"/>
    <path id="Path_218" data-name="Path 218" d="M1903.537,305.514h-6.4l-1.471,4.959h-2.447l6.1-18.951h2.044l6.117,18.951h-2.447Zm-5.778-2.043h5.167l-2.59-8.617Z" fill="#487088"/>
    <path id="Path_219" data-name="Path 219" d="M1911.878,310.473H1909.5V291.522h2.382Z" fill="#487088"/>
    <path id="Path_220" data-name="Path 220" d="M1917.784,308.43h7.432v2.043h-9.826V291.522h2.394Z" fill="#487088"/>
    <path id="Path_221" data-name="Path 221" d="M1936.225,305.514h-6.4l-1.47,4.959H1925.9l6.1-18.951h2.043l6.118,18.951h-2.447Zm-5.779-2.043h5.167l-2.59-8.617Z" fill="#487088"/>
    <path id="Path_222" data-name="Path 222" d="M1954.457,310.473h-2.4l-7.588-14.6v14.6h-2.4V291.522h2.4l7.615,14.669V291.522h2.368Z" fill="#487088"/>
    <path id="Path_223" data-name="Path 223" d="M1957.917,310.473V291.522h4.516a6.52,6.52,0,0,1,5.155,2.076,8.525,8.525,0,0,1,1.835,5.838v3.176a8.346,8.346,0,0,1-1.861,5.811,6.925,6.925,0,0,1-5.4,2.05Zm2.382-16.907V308.43h1.913a4.434,4.434,0,0,0,3.671-1.44,6.8,6.8,0,0,0,1.184-4.266v-3.361a6.87,6.87,0,0,0-1.152-4.4,4.249,4.249,0,0,0-3.482-1.4Z" fill="#487088"/>
  </g>
</svg>
