<?xml version="1.0" encoding="UTF-8"?>
<svg width="162px" height="94px" viewBox="0 0 162 94" version="1.1" xmlns="http://www.w3.org/2000/svg" xmlns:xlink="http://www.w3.org/1999/xlink">
    <!-- Generator: Sketch 55.2 (78181) - https://sketchapp.com -->
    <title>Fill 5</title>
    <desc>Created with Sketch.</desc>
    <g id="Page-1" stroke="none" stroke-width="1" fill="none" fill-rule="evenodd">
        <g id="02_Detail" transform="translate(-398.000000, -1525.000000)" fill="#2E8DC5">
            <g id="3M" transform="translate(0.000000, 1270.000000)">
                <g id="info" transform="translate(390.000000, 161.000000)">
                    <g id="Rectangle-2">
                        <g id="Group-16" transform="translate(-104.000000, -29.000000)">
                            <g id="Group-14">
                                <g id="Group-14-Copy-3" transform="translate(184.176252, 185.161695) rotate(-214.000000) translate(-184.176252, -185.161695) translate(52.676252, 51.661695)">
                                    <g id="Group-19-Copy" transform="translate(131.874444, 133.701106) rotate(-241.000000) translate(-131.874444, -133.701106) translate(32.374444, 39.201106)">
                                        <path d="M49.6668498,57.6152685 C49.5782451,56.7219005 50.2415829,55.9364387 51.1443929,55.8612601 C52.0352293,55.7751724 52.8278821,56.431384 52.9140921,57.324752 C52.9907232,58.2072107 52.3273853,58.9929097 51.4365489,59.0789975 C51.3838651,59.0789975 51.3407601,59.0789975 51.2856815,59.0789975 C50.447529,59.0789975 49.7410861,58.4441299 49.6668498,57.6152685 M41.4776512,57.8257226 C41.3890465,56.9323547 42.0523844,56.1468929 42.9551944,56.0717143 C43.8460308,55.9856265 44.6386836,56.6418382 44.7248936,57.5352061 C44.8015247,58.4176649 44.1381868,59.2033639 43.2473504,59.2894516 C43.1946665,59.2894516 43.1515616,59.2894516 43.096483,59.2894516 C42.2583304,59.2894516 41.5518876,58.6545841 41.4776512,57.8257226 M35.0100788,57.3238038 C34.9214741,56.4304359 35.5848119,55.6449741 36.4876219,55.5697955 C37.3784583,55.4837077 38.1711111,56.1399194 38.2573211,57.0332873 C38.3339522,57.9157461 37.6706143,58.7014451 36.7797779,58.7875328 C36.7270941,58.7875328 36.6839891,58.7875328 36.6289105,58.7875328 C35.790758,58.7875328 35.0843151,58.1526653 35.0100788,57.3238038 M50.7731169,65.2832559 C50.6102555,64.4025687 51.1970355,63.5642586 52.0879829,63.4032728 C52.9789304,63.2524669 53.8291625,63.8327262 53.9800488,64.7029966 C54.1429101,65.5843941 53.5561302,66.4222306 52.6651827,66.5832165 C52.5669869,66.5943434 52.4687911,66.6047602 52.3825704,66.6047602 C51.5993988,66.6047602 50.9144231,66.0571716 50.7731169,65.2832559 M52.9792621,71.8703073 C52.7395313,71.008239 53.250158,70.1252836 54.1203809,69.888642 C54.9906039,69.651051 55.8847999,70.1580383 56.1221335,71.0191572 C56.3618643,71.8807509 55.8512376,72.764181 54.9906039,73.0010599 C54.8395735,73.0442583 54.6981323,73.0554139 54.5566911,73.0554139 C53.8374985,73.0554139 53.1758414,72.5918623 52.9792621,71.8703073 M55.1975949,79.5297872 C54.8838857,78.7037124 55.3077524,77.7698271 56.153091,77.4584532 C56.9912455,77.1475521 57.9371626,77.5662637 58.2508719,78.4027413 C58.5669758,79.2290525 58.1431092,80.1624649 57.2953758,80.4736024 C57.1109818,80.5487861 56.9146142,80.5811766 56.7182466,80.5811766 C56.0668809,80.5811766 55.4370676,80.1839798 55.1975949,79.5297872 M57.4321573,86.1182228 C57.0392569,85.3117083 57.3770555,84.3542685 58.1916051,83.9675965 C59.0085504,83.5804506 59.976427,83.9142869 60.3669317,84.7205645 C60.7574364,85.527079 60.4220336,86.483571 59.6050882,86.8711908 C59.3774935,86.9782838 59.1379201,87.0318303 58.8983467,87.0318303 C58.2898302,87.0318303 57.714854,86.6989417 57.4321573,86.1182228 M61.8489027,92.6972963 C61.3822931,91.9336693 61.6431159,90.9444845 62.4136199,90.482707 C63.184124,90.0311174 64.1819506,90.277999 64.6509531,91.0413891 C65.1055983,91.8045422 64.8567399,92.8053366 64.0862358,93.2569262 C63.825413,93.4071401 63.5310901,93.482484 63.2487315,93.482484 C62.6959786,93.482484 62.1527971,93.2033799 61.8489027,92.6972963 M204.798241,94.3206604 C204.039212,93.8486908 203.787799,92.8587867 204.266682,92.0951531 C204.733592,91.3433662 205.744034,91.1059598 206.505457,91.5691629 C207.276458,92.0416064 207.515899,93.0307997 207.037017,93.7939594 C206.732926,94.2889115 206.201367,94.5575929 205.657835,94.5575929 C205.363322,94.5575929 205.071204,94.4817745 204.798241,94.3206604 M65.1909139,99.2670521 C64.6590406,98.546447 64.8219567,97.5342813 65.5502878,97.0175316 C66.2786189,96.4913002 67.3016365,96.6524882 67.8335099,97.3730933 C68.3557999,98.0936984 68.1928837,99.1058641 67.4645527,99.6320955 C67.1794494,99.8359508 66.8440338,99.9331377 66.5062223,99.9331377 C66.0078905,99.9331377 65.5071629,99.7079486 65.1909139,99.2670521 M200.33402,100.68681 C199.603946,100.150295 199.462719,99.1505341 199.99651,98.4320295 C200.539877,97.7135249 201.559587,97.5740783 202.277692,98.1011392 C203.005372,98.6376542 203.1466,99.644506 202.615202,100.353557 C202.287267,100.78135 201.798955,101.008247 201.301069,101.008247 C200.963559,101.008247 200.626049,100.899526 200.33402,100.68681 M70.7182117,104.760901 C70.1195345,104.082694 70.1961652,103.060643 70.871473,102.479662 C71.553965,101.89631 72.5884791,101.962707 73.1751827,102.640914 C73.7618863,103.307263 73.6972291,104.329315 73.0123425,104.910296 C72.7058198,105.18063 72.3274558,105.308682 71.9466972,105.308682 C71.4893078,105.308682 71.0343132,105.126089 70.7182117,104.760901 M195.870472,105.974315 C195.197125,105.373119 195.142011,104.362446 195.741074,103.697343 C196.337741,103.029873 197.370525,102.977801 198.046268,103.567163 C198.710029,104.158891 198.774728,105.179032 198.175665,105.846502 C197.849775,106.199172 197.404072,106.383791 196.95837,106.383791 C196.567781,106.383791 196.174795,106.244143 195.870472,105.974315 M75.1608507,110.232576 C74.5072796,109.61067 74.4977034,108.591499 75.1177581,107.94831 C75.7354187,107.312216 76.7672471,107.290934 77.4184242,107.915205 C78.0719954,108.525289 78.0935417,109.544459 77.4639109,110.190012 C77.1478985,110.511607 76.7145784,110.684227 76.2884405,110.684227 C75.8886369,110.684227 75.4744691,110.532889 75.1608507,110.232576 M190.32685,111.243681 C189.718204,110.600294 189.749355,109.58081 190.40353,108.968174 C191.055309,108.357903 192.100072,108.398114 192.708718,109.043866 C193.32695,109.687253 193.295798,110.706737 192.632038,111.319373 C192.315734,111.607951 191.915561,111.759336 191.522577,111.759336 C191.088856,111.759336 190.65274,111.586663 190.32685,111.243681 M81.7928134,115.704726 C81.0962482,115.146121 80.9765635,114.125957 81.5414754,113.439535 C82.1063874,112.741278 83.128495,112.632398 83.8346349,113.191003 C84.5407749,113.749608 84.6484911,114.760305 84.0835792,115.458561 C83.7580367,115.856212 83.2912662,116.059772 82.8125273,116.059772 C82.4534731,116.059772 82.0968126,115.941423 81.7928134,115.704726 M184.799826,115.436556 C184.244664,114.737511 184.376276,113.725673 185.082192,113.178286 C185.788108,112.630898 186.807499,112.74938 187.372232,113.446056 C187.927393,114.156949 187.795782,115.168786 187.089866,115.716174 C186.785963,115.94129 186.438987,116.059772 186.092011,116.059772 C185.603852,116.059772 185.125265,115.846504 184.799826,115.436556 M87.3489686,120.090302 C86.6000297,119.595474 86.3918582,118.596347 86.8919484,117.855289 C87.3920386,117.114231 88.413754,116.910617 89.1507291,117.405445 C89.899668,117.897906 90.1078396,118.897032 89.6077493,119.63809 C89.2919029,120.10214 88.7702777,120.360208 88.2486525,120.360208 C87.9351988,120.360208 87.6313162,120.272607 87.3489686,120.090302 M178.194671,119.628362 C177.706237,118.877568 177.921723,117.878089 178.673527,117.39256 C179.432515,116.909399 180.442901,117.124927 180.933729,117.878089 C181.422163,118.619409 181.204283,119.618888 180.442901,120.102048 C180.172348,120.272576 179.868274,120.360208 179.5642,120.360208 C179.030275,120.360208 178.510716,120.102048 178.194671,119.628362 M93.9931604,123.382064 C93.2009835,122.963292 92.9090029,121.986158 93.3421873,121.203031 C93.7777649,120.419905 94.766191,120.128894 95.5583678,120.559495 L95.5464014,120.559495 C96.3385783,120.987731 96.6329521,121.964865 96.209341,122.738528 C95.9053939,123.275596 95.3525454,123.585535 94.7757641,123.585535 C94.5053231,123.585535 94.2444552,123.521654 93.9931604,123.382064 M171.595834,123.80057 C171.181275,123.016316 171.485605,122.037775 172.278777,121.6184 C173.074347,121.208503 174.064015,121.50941 174.488159,122.296034 C174.900322,123.080288 174.595992,124.058829 173.80282,124.478204 C173.56319,124.606149 173.301994,124.660644 173.040799,124.660644 C172.453707,124.660644 171.888182,124.350259 171.595834,123.80057 M100.646054,126.6713 L100.646054,126.680761 C99.8207804,126.325943 99.440437,125.372664 99.7992516,124.556582 C100.158066,123.7405 101.112513,123.364392 101.947355,123.719211 C102.772629,124.074029 103.143404,125.027308 102.794157,125.833928 C102.52385,126.446581 101.925826,126.810862 101.296704,126.810862 C101.079024,126.810862 100.863735,126.768283 100.646054,126.6713 M165.019193,126.897812 C164.662064,126.070792 165.062336,125.122918 165.889245,124.791162 C166.716154,124.435709 167.674889,124.833816 168.02243,125.651357 C168.369972,126.468899 167.979287,127.414403 167.152378,127.758008 C166.943853,127.845686 166.728138,127.885971 166.52201,127.885971 C165.879658,127.885971 165.270861,127.51156 165.019193,126.897812 M107.301093,129.95109 C106.453416,129.672155 105.986475,128.759708 106.269034,127.922903 C106.551593,127.07428 107.475896,126.613329 108.323573,126.892263 C109.180828,127.183017 109.647769,128.083645 109.36521,128.929905 C109.137726,129.605967 108.495982,130.036188 107.811136,130.036188 C107.648305,130.036188 107.475896,130.003094 107.301093,129.95109 M158.442526,128.908184 C158.169486,128.057442 158.648504,127.154564 159.505948,126.886782 C160.365778,126.61663 161.278317,127.090581 161.551358,127.941324 C161.822003,128.789696 161.342984,129.692574 160.485541,129.962726 C160.322675,130.014861 160.159808,130.036188 159.996942,130.036188 C159.29997,130.036188 158.658085,129.597783 158.442526,128.908184 M115.056108,131.068678 C114.186447,130.862685 113.633027,130.003197 113.839062,129.131869 C114.045098,128.26291 114.926737,127.725434 115.796398,127.929059 C116.678037,128.135052 117.219479,128.992173 117.013444,129.8635 C116.840949,130.604602 116.177323,131.111297 115.427451,131.111297 C115.307663,131.111297 115.187875,131.099459 115.056108,131.068678 M150.795885,130.926671 C150.599517,130.053635 151.1527,129.19246 152.033961,129.000297 C152.915223,128.805762 153.784511,129.353782 153.978484,130.226819 C154.174852,131.097483 153.609695,131.958658 152.740408,132.153193 C152.620671,132.174544 152.500934,132.186406 152.381198,132.186406 C151.631646,132.186406 150.958726,131.681089 150.795885,130.926671 M122.813675,133.240221 C121.923137,133.121919 121.291142,132.305636 121.422807,131.425469 C121.542503,130.545303 122.368406,129.932499 123.258944,130.050801 C124.149483,130.180933 124.779084,130.997216 124.649812,131.877383 C124.539692,132.681836 123.833485,133.261515 123.041098,133.261515 C122.964492,133.261515 122.890281,133.252051 122.813675,133.240221 M143.161185,131.853564 C143.041553,130.961467 143.68278,130.156923 144.570449,130.05044 C145.462903,129.932125 146.2764,130.563928 146.396032,131.44656 C146.503701,132.326825 145.874437,133.131369 144.984375,133.249684 C144.907811,133.249684 144.84321,133.261515 144.778608,133.261515 C143.962719,133.261515 143.268853,132.660474 143.161185,131.853564 M130.560465,133.261515 C129.667787,133.218883 128.973747,132.456246 129.016826,131.575187 C129.059904,130.682286 129.830527,129.995438 130.732778,130.03807 C131.623063,130.090176 132.319495,130.843339 132.274024,131.736241 C132.230945,132.595984 131.503401,133.261515 130.646621,133.261515 C130.625082,133.261515 130.591577,133.261515 130.560465,133.261515 M135.538326,131.714566 C135.507217,130.823826 136.21314,130.070488 137.112893,130.037322 C138.015038,130.004156 138.764034,130.703008 138.797536,131.58664 C138.828644,132.47738 138.134686,133.230718 137.232541,133.261515 C137.211004,133.261515 137.189467,133.261515 137.167931,133.261515 C136.299287,133.261515 135.571827,132.586354 135.538326,131.714566" id="Fill-5" transform="translate(121.143004, 94.411861) rotate(-121.000000) translate(-121.143004, -94.411861) "></path>
                                    </g>
                                </g>
                            </g>
                        </g>
                    </g>
                </g>
            </g>
        </g>
    </g>
</svg>