<svg xmlns="http://www.w3.org/2000/svg" width="276.515" height="50.157" viewBox="0 0 276.515 50.157">
  <g id="Group_2" data-name="Group 2" transform="translate(-557.572 -1629.152)">
    <g id="Group_1" data-name="Group 1">
      <path id="Path_1" data-name="Path 1" d="M588.474,1633.424c.065-.038.123-.088.185-.133-8.27,0-11.722-.006-15.005.011-8.194.04-14.648,4.767-14.613,12.449.037,7.943,4.554,10.273,13.969,13.024,7.438,2.188,10.051,3.891,10.065,7.316.022,4.32-2.953,6.5-9.177,6.521a16.228,16.228,0,0,1-11.582-5.216l-4.744,4.655a20.6,20.6,0,0,0,15.846,7.106c11.372-.054,16.423-5.539,16.385-13.538-.035-7.94-5.507-10.706-14.278-13.336-7.7-2.25-9.739-3.768-9.751-6.878-.016-2.986,2.279-5.827,7.485-5.85,2.043-.012.977-.026,8.555-.04,2-3.6,4.685-4.937,6.66-6.091" fill="#28677e"/>
      <path id="Path_2" data-name="Path 2" d="M581.9,1653.394c-.952-6.116-.426-12.886,4-16.812,3.783-3.355,9.289-3.715,11.388-5.567.853-.757,1.858-1.863,1.858-1.863a23.077,23.077,0,0,1-4.5,17.529,18.331,18.331,0,0,1-12.7,6.763Z" fill="#bebf56"/>
      <path id="Path_3" data-name="Path 3" d="M607.861,1672.224l-10.732.03-.007-.15,0-14.805,10.863-.026c5.094-.024,8,2.8,8.022,7.44.023,4.441-2.155,7.483-8.142,7.511m7.251-18.2a9.532,9.532,0,0,0,5.7-9.049c-.035-6.882-4.219-10.89-10.837-11.568-.024,0-9.432-.005-9.455-.007a17.094,17.094,0,0,1-.976,6.109c.026,0,8.766,0,8.792,0,4.086.193,5.69,2.672,5.709,5.878.016,2.967-1.776,5.746-6.221,5.762l-16.56.061v27.229l16.1-.028c9.855-.041,15.441-4.774,15.4-13.92a10.387,10.387,0,0,0-7.66-10.471" fill="#28677e"/>
      <path id="Path_4" data-name="Path 4" d="M621.911,1676.1h-.335v.628h.335a.314.314,0,0,0,.34-.311.318.318,0,0,0-.34-.317m.349,1.574-.412-.732h-.272v.732h-.248v-1.8h.61a.549.549,0,0,1,.566.539.5.5,0,0,1-.385.493l.43.764Zm-.4-2.294a1.4,1.4,0,1,0,1.381,1.4,1.388,1.388,0,0,0-1.381-1.4m0,3.037a1.638,1.638,0,1,1,1.639-1.639,1.637,1.637,0,0,1-1.639,1.639" fill="#28677e"/>
    </g>
    <path id="Path_5" data-name="Path 5" d="M659.171,1647.413h-9.405v31.9h-4.493v-31.9h-9.38v-3.855h23.278Z" fill="#28677e"/>
    <path id="Path_6" data-name="Path 6" d="M686.593,1679.309h-4.519v-16.525H667.686v16.525h-4.493v-35.751h4.493v15.37h14.388v-15.37h4.519Z" fill="#28677e"/>
    <path id="Path_7" data-name="Path 7" d="M709.792,1669.954H697.711l-2.775,9.355H690.32l11.516-35.751h3.855l11.541,35.751h-4.617Zm-10.9-3.856h9.748l-4.887-16.255Z" fill="#28677e"/>
    <path id="Path_8" data-name="Path 8" d="M725.527,1679.309h-4.493v-35.751h4.493Z" fill="#28677e"/>
    <path id="Path_9" data-name="Path 9" d="M736.669,1675.454H750.69v3.855H732.151v-35.751h4.518Z" fill="#28677e"/>
    <path id="Path_10" data-name="Path 10" d="M771.459,1669.954H759.378l-2.775,9.355h-4.616l11.516-35.751h3.855l11.54,35.751h-4.616Zm-10.9-3.856H770.3l-4.887-16.255Z" fill="#28677e"/>
    <path id="Path_11" data-name="Path 11" d="M805.855,1679.309h-4.519l-14.315-27.55v27.55H782.5v-35.751h4.518l14.365,27.672v-27.672h4.469Z" fill="#28677e"/>
    <path id="Path_12" data-name="Path 12" d="M812.381,1679.309v-35.751H820.9q6.261,0,9.723,3.916t3.462,11.012v5.992q0,7.1-3.511,10.964t-10.19,3.867Zm4.493-31.9v28.041h3.61q4.74,0,6.925-2.716t2.234-8.049v-6.34q0-5.654-2.173-8.3t-6.568-2.641Z" fill="#28677e"/>
  </g>
</svg>
