<?xml version="1.0" encoding="UTF-8"?>
<svg width="100px" height="100px" viewBox="0 0 100 100" version="1.1" xmlns="http://www.w3.org/2000/svg" xmlns:xlink="http://www.w3.org/1999/xlink">
    <!-- Generator: Sketch 55.2 (78181) - https://sketchapp.com -->
    <title>Oval 2 Copy</title>
    <desc>Created with Sketch.</desc>
    <g id="Page-1" stroke="none" stroke-width="1" fill="none" fill-rule="evenodd">
        <g id="02_detail" transform="translate(-301.000000, -1264.000000)">
            <g id="6-care" transform="translate(0.000000, 830.000000)">
                <g id="info" transform="translate(60.000000, 63.000000)">
                    <g id="05">
                        <g transform="translate(152.000000, 371.000000)">
                            <g id="Oval-2-Copy" transform="translate(89.000000, 0.000000)">
                                <g id="Group">
                                    <circle id="Oval" fill="#36B7DE" fill-rule="nonzero" cx="49.7274194" cy="49.7274194" r="49.7274194"></circle>
                                    <path d="M99.2290323,44.5193548 C89.433871,34.7459677 74.0645161,19.4104839 73.9120968,19.2596774 C73.6895161,19.0370968 73.3814516,18.8991935 73.0419355,18.8991935 L46.341129,18.8991935 C45.6629032,18.8991935 45.1104839,19.4508065 45.1104839,20.1298387 L45.1104839,34.9387097 C44.1129032,35.0201613 43.1919355,35.1572581 42.3403226,35.341129 C40.341129,33.3403226 36.2620968,29.2580645 36.2129032,29.2072581 C36.1435484,29.133871 36.0459677,29.0895161 35.9379032,29.0895161 L35.6935484,29.0895161 L35.1209677,28.5193548 C35.0403226,28.4120968 34.8693548,28.3241935 34.7346774,28.3241935 L34.0774194,28.3241935 C33.5387097,27.7854839 32.9758065,27.2233871 32.9201613,27.1677419 C32.8120968,27.058871 32.6629032,26.9919355 32.4975806,26.9919355 L29.1548387,26.9919355 C28.8258065,26.9919355 28.5572581,27.2604839 28.5572581,27.591129 L28.5572581,28.3233871 L26.9177419,28.3233871 C26.7854839,28.3233871 26.6112903,28.4112903 26.5322581,28.5185484 L26.2524194,28.8943548 C26.2137097,28.9467742 26.1927419,29.0177419 26.1927419,29.0887097 L25.716129,29.0887097 C25.5056452,29.0887097 25.3354839,29.2596774 25.3354839,29.4693548 L25.3354839,69.6209677 C25.3354839,69.725 25.3782258,69.8201613 25.4475806,69.8887097 C25.5024194,69.9435484 46.5620968,91.0032258 54.9943548,99.433871 C60.025,98.9129032 64.8314516,97.6395161 69.3032258,95.7314516 L69.3032258,93.1669355 C69.8040323,93.9782258 70.2379032,94.6572581 70.5403226,95.1717742 C87.6475806,87.3096774 99.5322625,70.0362903 99.5322625,49.9758065 C99.5330645,48.1306452 99.4241935,46.3120968 99.2290323,44.5193548 Z" id="Path" fill="#000000" fill-rule="nonzero" opacity="0.2"></path>
                                    <g transform="translate(24.193548, 18.548387)">
                                        <g transform="translate(20.161290, 0.000000)" fill-rule="nonzero" id="Path">
                                            <path d="M21.7096774,58.8814516 C21.7096774,58.4145161 22.0887097,58.033871 22.558871,58.033871 L25.3645161,58.033871 C25.8314516,58.033871 26.2112903,58.4145161 26.2112903,58.8814516 L26.2112903,59.5145161 L28.6879032,59.5145161 C29.3693548,59.5145161 29.9193548,58.9629032 29.9193548,58.283871 L29.9185484,1.58064516 C29.9185484,0.900806452 29.3669355,0.35 28.6879032,0.35 L1.98709677,0.35 C1.30887097,0.35 0.756451613,0.901612903 0.756451613,1.58064516 L0.758064516,58.283871 C0.758064516,58.9637097 1.30967742,59.5145161 1.98709677,59.5145161 L21.7104839,59.5145161 L21.7104839,58.8814516 L21.7096774,58.8814516 Z" fill="#B0BEC5"></path>
                                            <path d="M0.756451613,56.1532258 C1.96129032,56.1532258 2.93790323,55.175 2.93790323,53.9701613 L2.93790323,41.2217742 C2.93790323,40.016129 1.96129032,39.0387097 0.75483871,39.0387097 L0.756451613,56.1532258 Z" fill="#D0D2D3"></path>
                                            <path d="M27.7790323,0.35 L27.7790323,6.68870968 C27.7790323,7.15806452 27.3951613,7.54032258 26.9266129,7.54032258 L17.3,7.54032258 C16.8290323,7.54032258 16.4467742,7.15806452 16.4467742,6.68870968 L16.4467742,0.35 L27.7790323,0.35 Z" fill="#D0D2D3"></path>
                                            <g transform="translate(16.935484, 0.000000)" fill="#ECDBA4">
                                                <path d="M9.75725806,4.95645161 L9.75725806,0.35 L7.30322581,0.35 L7.30322581,4.95645161 C7.30322581,5.73306452 7.85322581,6.36290323 8.52983871,6.36290323 C9.20645161,6.36290323 9.75725806,5.73306452 9.75725806,4.95645161 Z"></path>
                                                <path d="M6.40483871,4.95645161 L6.40483871,0.35 L3.94919355,0.35 L3.94919355,4.95645161 C3.94919355,5.73306452 4.49919355,6.36290323 5.17580645,6.36290323 C5.85564516,6.36290323 6.40483871,5.73306452 6.40483871,4.95645161 Z"></path>
                                                <path d="M3.05403226,4.95645161 L3.05403226,0.35 L0.600806452,0.35 L0.600806452,4.95645161 C0.600806452,5.73306452 1.15,6.36290323 1.82741935,6.36290323 C2.50483871,6.36290323 3.05403226,5.73306452 3.05403226,4.95645161 Z"></path>
                                            </g>
                                            <path d="M29.9185484,1.58064516 C29.9185484,0.900806452 29.3669355,0.35 28.6879032,0.35 L15.3379032,0.35 L15.3379032,59.5145161 L21.7096774,59.5145161 L21.7096774,58.8814516 C21.7096774,58.4145161 22.0887097,58.033871 22.558871,58.033871 L25.3645161,58.033871 C25.8314516,58.033871 26.2112903,58.4145161 26.2112903,58.8814516 L26.2112903,59.5145161 L28.6879032,59.5145161 C29.3693548,59.5145161 29.9193548,58.9629032 29.9193548,58.283871 L29.9185484,1.58064516 Z" fill="#000000" opacity="0.2"></path>
                                        </g>
                                        <g transform="translate(0.000000, 8.064516)">
                                            <path d="M11.2370968,43.9983871 L11.5370968,43.5951613 C11.5798387,43.5379032 11.6,43.4637097 11.6,43.3870968 L11.7451613,43.3870968 C11.9548387,43.3870968 12.125,43.216129 12.125,43.0072581 L12.125,2.85645161 C12.125,2.64677419 11.9548387,2.47580645 11.7451613,2.47580645 L11.2685484,2.47580645 C11.2685484,2.40483871 11.2483871,2.33387097 11.2080645,2.28145161 L10.9282258,1.90564516 C10.8475806,1.7983871 10.6766129,1.71048387 10.5419355,1.71048387 L8.90241935,1.71048387 L8.90241935,0.978225806 C8.90241935,0.647580645 8.63548387,0.379032258 8.30483871,0.379032258 L4.96209677,0.379032258 C4.63306452,0.379032258 4.36451613,0.647580645 4.36451613,0.978225806 L4.36451613,1.71048387 L2.725,1.71048387 C2.59274194,1.71048387 2.41854839,1.7983871 2.33951613,1.90564516 L2.05967742,2.28145161 C2.02096774,2.33387097 2,2.40483871 2,2.47580645 L1.5233871,2.47580645 C1.31290323,2.47580645 1.14274194,2.64677419 1.14274194,2.85645161 L1.14274194,43.0080645 C1.14274194,43.2169355 1.31290323,43.3879032 1.5233871,43.3879032 L1.66612903,43.3879032 C1.66612903,43.4645161 1.68790323,43.5387097 1.73145161,43.5959677 L2.02983871,43.9991935 C2.11532258,44.1137097 2.30080645,44.2072581 2.44435484,44.2072581 L10.8241935,44.2072581 C10.9669355,44.2064516 11.1516129,44.1129032 11.2370968,43.9983871 Z" id="Path" fill="#ECDBA4" fill-rule="nonzero"></path>
                                            <rect id="Rectangle" fill="#E57373" fill-rule="nonzero" x="1.14274194" y="3.53709677" width="10.9814516" height="39.05"></rect>
                                            <path d="M1.14274194,42.5870968 L1.14274194,43.0072581 C1.14274194,43.216129 1.31290323,43.3870968 1.5233871,43.3870968 L1.66612903,43.3870968 C1.66612903,43.4637097 1.68790323,43.5379032 1.73145161,43.5951613 L2.02983871,43.9983871 C2.11532258,44.1129032 2.30080645,44.2064516 2.44435484,44.2064516 L10.8241935,44.2064516 C10.9677419,44.2064516 11.1524194,44.1129032 11.2379032,43.9983871 L11.5379032,43.5951613 C11.5806452,43.5379032 11.6008065,43.4637097 11.6008065,43.3870968 L11.7459677,43.3870968 C11.9556452,43.3870968 12.1258065,43.216129 12.1258065,43.0072581 L12.1258065,42.5870968 L1.14274194,42.5870968 Z" id="Path" fill="#F1F1F2" fill-rule="nonzero"></path>
                                            <path d="M12.1241935,42.5870968 L1.14274194,42.5870968 L12.1241935,42.5870968 Z" id="Path" stroke="#E57373" stroke-width="0.806451613" stroke-linecap="round" stroke-linejoin="round"></path>
                                            <path d="M12.1241935,3.53709677 L1.14274194,3.53709677 L12.1241935,3.53709677 Z" id="Path" stroke="#E57373" stroke-width="0.806451613" stroke-linecap="round" stroke-linejoin="round"></path>
                                            <path d="M1.14274194,3.53709677 L1.14274194,42.5870968 L1.14274194,3.53709677 Z" id="Path" stroke="#E57373" stroke-width="0.806451613" stroke-linecap="round" stroke-linejoin="round"></path>
                                            <path d="M12.1241935,3.53709677 L12.1241935,42.5870968 L12.1241935,3.53709677 Z" id="Path" stroke="#E57373" stroke-width="0.806451613" stroke-linecap="round" stroke-linejoin="round"></path>
                                            <g transform="translate(4.032258, 7.258065)" fill="#F1F1F2" fill-rule="nonzero" id="Path">
                                                <g transform="translate(0.000000, 28.225806)">
                                                    <path d="M2.60241935,4.77903226 C2.2016129,4.77903226 1.8766129,4.45403226 1.8766129,4.05322581 L1.8766129,0.756451613 C1.8766129,0.355645161 2.2016129,0.0306451613 2.60241935,0.0306451613 C3.00322581,0.0306451613 3.32822581,0.355645161 3.32822581,0.756451613 L3.32822581,4.05322581 C3.32822581,4.45403226 3.00322581,4.77903226 2.60241935,4.77903226 Z"></path>
                                                    <path d="M4.25,3.12983871 L0.954032258,3.12983871 C0.553225806,3.12983871 0.228225806,2.80483871 0.228225806,2.40403226 C0.228225806,2.00322581 0.553225806,1.67822581 0.954032258,1.67822581 L4.25,1.67822581 C4.65080645,1.67822581 4.97580645,2.00322581 4.97580645,2.40403226 C4.97580645,2.80483871 4.65080645,3.12983871 4.25,3.12983871 Z"></path>
                                                </g>
                                                <path d="M4.24919355,1.70241935 L0.954032258,1.70241935 C0.553225806,1.70241935 0.228225806,1.37741935 0.228225806,0.976612903 C0.228225806,0.575806452 0.553225806,0.250806452 0.954032258,0.250806452 L4.24919355,0.250806452 C4.65,0.250806452 4.975,0.575806452 4.975,0.976612903 C4.975,1.37741935 4.65,1.70241935 4.24919355,1.70241935 Z"></path>
                                            </g>
                                            <path d="M8.9016129,1.69193548 L8.9016129,0.977419355 C8.9016129,0.646774194 8.63467742,0.378225806 8.30403226,0.378225806 L4.96129032,0.378225806 C4.63225806,0.378225806 4.36370968,0.646774194 4.36370968,0.977419355 L4.36370968,1.69193548 L8.9016129,1.69193548 Z" id="Path" fill="#F1F1F2" fill-rule="nonzero"></path>
                                            <path d="M11.7443548,2.47580645 L11.2677419,2.47580645 C11.2677419,2.40483871 11.2475806,2.33387097 11.2072581,2.28145161 L10.9274194,1.90564516 C10.8467742,1.7983871 10.6758065,1.71048387 10.541129,1.71048387 L8.9016129,1.71048387 L8.9016129,0.978225806 C8.9016129,0.647580645 8.63467742,0.379032258 8.30403226,0.379032258 L6.63306452,0.379032258 L6.63306452,44.2072581 L10.8233871,44.2072581 C10.9669355,44.2072581 11.1516129,44.1137097 11.2370968,43.9991935 L11.5370968,43.5959677 C11.5798387,43.5387097 11.6,43.4645161 11.6,43.3879032 L11.7451613,43.3879032 C11.9548387,43.3879032 12.125,43.2169355 12.125,43.0080645 L12.125,2.85645161 C12.1241935,2.64677419 11.9540323,2.47580645 11.7443548,2.47580645 Z" id="Path" fill="#F1F1F2" fill-rule="nonzero"></path>
                                        </g>
                                        <g transform="translate(7.258065, 16.129032)" fill-rule="nonzero">
                                            <g opacity="0.9" fill="#F1F1F2" id="Path">
                                                <g>
                                                    <path d="M31.0895161,13.0419355 C31.0846774,12.9806452 31.0814516,12.9225806 31.0782258,12.8604839 C30.8322581,8.77903226 28.991129,0.173387097 15.8403226,0.173387097 C2.68064516,0.173387097 0.846774194,8.7983871 0.604032258,12.8701613 C0.602419355,12.9266129 0.596774194,12.9806452 0.595967742,13.0354839 C0.574193548,13.4451613 0.569354839,13.783871 0.569354839,14.025 C0.569354839,19.7016129 5.23225806,25.8524194 6.31290323,27.8782258 C7.39435484,29.9072581 7.19112903,30.8508065 7.25887097,32.0016129 C7.3266129,33.1483871 7.73306452,34.3 8.40887097,35.1782258 C9.08306452,36.0556452 9.28790323,36.9330645 9.28790323,36.9330645 L9.28790323,37.7443548 L22.3959677,37.7443548 L22.3959677,36.9330645 C22.3959677,36.9330645 22.6008065,36.0556452 23.275,35.1782258 C23.9508065,34.2991935 24.3556452,33.1475806 24.4241935,32.0016129 C24.491129,30.85 24.2895161,29.9064516 25.3717742,27.8782258 C26.4508065,25.8524194 31.1129032,19.7016129 31.1129032,14.025 C31.1129032,13.7854839 31.108871,13.45 31.0895161,13.0419355 Z"></path>
                                                </g>
                                            </g>
                                            <path d="M22.3096774,40.6330645 C22.3096774,40.333871 22.1556452,40.0709677 21.9225806,39.9193548 C21.9387097,39.8072581 21.9758065,39.6846774 22.0685484,39.5919355 C22.4298387,39.2282258 22.3862903,38.9112903 22.3862903,38.9112903 L22.3862903,37.7790323 L9.2983871,37.7790323 L9.2983871,38.9112903 C9.2983871,38.9112903 9.25241935,39.2282258 9.61532258,39.5919355 C9.70806452,39.6846774 9.74677419,39.8080645 9.76209677,39.9193548 C9.53064516,40.0709677 9.37580645,40.333871 9.37580645,40.6330645 C9.37580645,40.9290323 9.52580645,41.1879032 9.75241935,41.3403226 L9.75241935,41.8241935 C9.52580645,41.9766129 9.37580645,42.2370968 9.37580645,42.5298387 C9.37580645,42.8241935 9.52580645,43.0830645 9.75241935,43.2370968 L9.75241935,44.0548387 C9.52580645,44.2064516 9.37580645,44.466129 9.37580645,44.7604839 C9.37580645,45.0548387 9.52580645,45.3153226 9.75241935,45.4693548 L9.75241935,45.5435484 C9.75241935,45.5435484 9.75241935,45.5435484 9.75241935,45.9766129 C9.75241935,46.4064516 11.3854839,47.7064516 11.7580645,48.0072581 C12.1354839,48.3080645 13.2233871,49.2717742 13.4596774,49.6370968 C13.6983871,50.0040323 14.0725806,50.0370968 14.0725806,50.0370968 L17.6137097,50.0370968 C17.6137097,50.0370968 17.9854839,50.0040323 18.2241935,49.6370968 C18.4637097,49.2717742 19.5516129,48.3080645 19.9258065,48.0072581 C20.3008065,47.7064516 21.9346774,46.4072581 21.9346774,45.9766129 C21.9346774,45.5435484 21.9346774,45.5435484 21.9346774,45.5435484 L21.9346774,45.4693548 C22.1612903,45.3153226 22.3104839,45.0548387 22.3104839,44.7604839 C22.3104839,44.466129 22.1612903,44.2056452 21.9346774,44.0548387 L21.9346774,43.2370968 C22.1612903,43.0830645 22.3104839,42.8241935 22.3104839,42.5298387 C22.3104839,42.2370968 22.1612903,41.9766129 21.9346774,41.8241935 L21.9346774,41.3403226 C22.1604839,41.1862903 22.3096774,40.9290323 22.3096774,40.6330645 Z" id="Path" fill="#ECDBA4"></path>
                                            <path d="M17.5153226,21.8104839 L14.1677419,21.8104839 C13.7669355,21.8104839 13.4427419,21.4846774 13.4427419,21.0846774 C13.4427419,20.6830645 13.7669355,20.358871 14.1677419,20.358871 L17.5153226,20.358871 C17.9169355,20.358871 18.241129,20.6830645 18.241129,21.0846774 C18.241129,21.4846774 17.9169355,21.8104839 17.5153226,21.8104839 Z" id="Path" fill="#E0F2F1"></path>
                                            <path d="M18.8967742,15.7185484 C18.1233871,15.7185484 17.7306452,15.6870968 17.35,15.6556452 C16.9782258,15.6258065 16.5935484,15.5959677 15.8362903,15.5959677 C15.0798387,15.5959677 14.6959677,15.6258065 14.3241935,15.6556452 C13.9443548,15.6870968 13.5524194,15.7185484 12.7806452,15.7185484 C12.008871,15.7185484 11.6169355,15.6870968 11.2370968,15.6556452 C10.8653226,15.6258065 10.4806452,15.5959677 9.72580645,15.5959677 C9.61451613,15.5959677 9.52419355,15.5048387 9.52419355,15.3943548 C9.52419355,15.2822581 9.61451613,15.1927419 9.72580645,15.1927419 C10.4975806,15.1927419 10.8895161,15.2241935 11.2693548,15.2540323 C11.641129,15.283871 12.025,15.3153226 12.7806452,15.3153226 C13.5362903,15.3153226 13.9209677,15.283871 14.2927419,15.2540323 C14.6725806,15.2241935 15.0645161,15.1927419 15.8362903,15.1927419 C16.6096774,15.1927419 17.0024194,15.2241935 17.3830645,15.2540323 C17.7548387,15.283871 18.1395161,15.3153226 18.8967742,15.3153226 C19.6540323,15.3153226 20.0387097,15.283871 20.4104839,15.2540323 C20.791129,15.2241935 21.183871,15.1927419 21.9572581,15.1927419 C22.0693548,15.1927419 22.158871,15.2822581 22.158871,15.3943548 C22.158871,15.5048387 22.0693548,15.5959677 21.9572581,15.5959677 C21.2008065,15.5959677 20.8153226,15.6258065 20.4435484,15.6556452 C20.0629032,15.6870968 19.6701613,15.7185484 18.8967742,15.7185484 Z" id="Path" fill="#D0D8DC"></path>
                                            <g transform="translate(10.483871, 13.709677)" fill="#B0BEC5" id="Shape">
                                                <path d="M7.69274194,7.5766129 C7.66612903,7.5766129 7.63951613,7.57016129 7.61209677,7.55967742 C7.50967742,7.51532258 7.46209677,7.39758065 7.50645161,7.29516129 C8.16612903,5.75967742 8.80887097,4.12096774 9.22983871,2.88467742 C9.09112903,2.88306452 8.9766129,2.84354839 8.88467742,2.76532258 C8.66290323,2.5766129 8.64032258,2.21048387 8.81854839,1.70725806 C8.97580645,1.26129032 9.36854839,0.550806452 9.75080645,0.540322581 C9.81935484,0.543548387 9.98225806,0.556451613 10.0701613,0.763709677 C10.1620968,0.983870968 10.0548387,1.5483871 9.84677419,2.26290323 C9.93709677,2.23145161 10.0395161,2.27096774 10.0870968,2.35887097 C10.1403226,2.45645161 10.1040323,2.57903226 10.0056452,2.63145161 C9.89112903,2.69274194 9.78548387,2.74354839 9.68629032,2.78306452 C9.12096774,4.52983871 8.15080645,6.82016129 7.8766129,7.45483871 C7.84516129,7.53064516 7.77016129,7.5766129 7.69274194,7.5766129 Z M9.71209677,0.978225806 C9.53064516,1.12983871 9.19435484,1.67580645 9.11774194,2.14354839 C9.08548387,2.33709677 9.11532258,2.43629032 9.1516129,2.46209677 C9.15967742,2.46693548 9.21370968,2.5 9.37016129,2.46209677 C9.60322581,1.73306452 9.73548387,1.19435484 9.71209677,0.978225806 Z"></path>
                                                <path d="M3.02419355,7.5766129 C2.94596774,7.5766129 2.87177419,7.53064516 2.83951613,7.45403226 C2.56612903,6.81935484 1.59516129,4.52903226 1.02983871,2.78225806 C0.930645161,2.74435484 0.824193548,2.69435484 0.709677419,2.63064516 C0.612096774,2.57903226 0.575806452,2.45564516 0.628225806,2.35806452 C0.675806452,2.27016129 0.77983871,2.23225806 0.87016129,2.26209677 C0.660483871,1.54677419 0.554032258,0.983064516 0.646774194,0.762903226 C0.733870968,0.55483871 0.897580645,0.541129032 0.965322581,0.539516129 C1.3483871,0.550806452 1.74032258,1.25967742 1.89758065,1.70483871 C2.07580645,2.20887097 2.05322581,2.57580645 1.83145161,2.76451613 C1.74032258,2.84354839 1.62580645,2.88225806 1.48790323,2.88387097 C1.90725806,4.12177419 2.54919355,5.75806452 3.21048387,7.29435484 C3.25483871,7.39677419 3.20725806,7.51451613 3.10483871,7.55887097 C3.07741935,7.57016129 3.05080645,7.5766129 3.02419355,7.5766129 Z M1.34758065,2.46370968 C1.5016129,2.4983871 1.55564516,2.46854839 1.56451613,2.46209677 C1.60080645,2.43709677 1.63064516,2.33790323 1.5983871,2.14354839 C1.52177419,1.67903226 1.18790323,1.13387097 1.00725806,0.97983871 C0.985483871,1.20403226 1.11693548,1.74112903 1.34758065,2.46370968 Z"></path>
                                            </g>
                                            <path d="M15.8,27.5266129 L15.883871,27.5266129 C16.1185484,27.5266129 16.3387097,27.5516129 16.5508065,27.5879032 L16.5508065,22.3935484 C16.5508065,21.9008065 16.2330645,21.4991935 15.841129,21.4991935 C15.45,21.4991935 15.1322581,21.9008065 15.1322581,22.3935484 L15.1322581,27.5879032 C15.3435484,27.5524194 15.5653226,27.5266129 15.8,27.5266129 Z" id="Path" fill="#E0F2F1"></path>
                                            <path d="M13.6387097,37.7443548 L13.6387097,28.6798387 C13.6387097,28.0419355 14.6056452,27.5266129 15.8,27.5266129 L15.883871,27.5266129 C17.0774194,27.5266129 18.0459677,28.0419355 18.0459677,28.6798387 L18.0459677,37.7443548 L13.6387097,37.7443548 Z" id="Path" fill="#E0F2F1"></path>
                                            <path d="M10.1112903,14.5524194 C9.96290323,14.6 9.87741935,14.7709677 9.91935484,14.9395161 L13.4153226,28.7629032 C13.4459677,28.883871 13.5370968,28.9548387 13.6387097,28.9758065 L13.6387097,28.6798387 C13.6387097,28.5032258 13.7193548,28.3379032 13.8516129,28.1887097 L10.4572581,14.7685484 C10.4145161,14.6016129 10.2620968,14.5056452 10.1112903,14.5524194 Z M21.5717742,14.5524194 C21.4225806,14.5032258 21.2685484,14.6 21.2258065,14.7669355 L17.7951613,28.1524194 C17.9491935,28.3096774 18.0451613,28.4879032 18.0451613,28.6798387 L18.0451613,28.9572581 C18.125,28.9241935 18.1943548,28.8645161 18.2201613,28.7653226 L21.7637097,14.9403226 C21.8056452,14.7733871 21.7201613,14.6016129 21.5717742,14.5524194 Z" id="Shape" fill="#B0BEC5"></path>
                                            <g transform="translate(10.483871, 37.903226)" fill="#E6E7E8" id="Path">
                                                <path d="M0.514516129,8.46693548 C0.322580645,8.46693548 0.152419355,8.32903226 0.118548387,8.13306452 C0.0798387097,7.91370968 0.226612903,7.70483871 0.445967742,7.66612903 L10.058871,5.98709677 C10.275,5.9516129 10.4862903,6.09516129 10.525,6.31532258 C10.5637097,6.53467742 10.4169355,6.74354839 10.1975806,6.78225806 L0.584677419,8.46129032 C0.560483871,8.46451613 0.537903226,8.46693548 0.514516129,8.46693548 Z"></path>
                                                <path d="M0.514516129,6.5483871 C0.322580645,6.5483871 0.152419355,6.41048387 0.118548387,6.21451613 C0.0798387097,5.99516129 0.226612903,5.78629032 0.445967742,5.74758065 L10.058871,4.06854839 C10.275,4.03064516 10.4862903,4.17580645 10.525,4.39677419 C10.5637097,4.61612903 10.4169355,4.825 10.1975806,4.86370968 L0.584677419,6.54274194 C0.560483871,6.54596774 0.537903226,6.5483871 0.514516129,6.5483871 Z"></path>
                                                <path d="M0.514516129,4.62983871 C0.322580645,4.62983871 0.152419355,4.49193548 0.118548387,4.29596774 C0.0798387097,4.0766129 0.226612903,3.86774194 0.445967742,3.82903226 L10.058871,2.15 C10.275,2.11370968 10.4862903,2.25806452 10.525,2.47822581 C10.5637097,2.69758065 10.4169355,2.90645161 10.1975806,2.94516129 L0.584677419,4.62419355 C0.560483871,4.62741935 0.537903226,4.62983871 0.514516129,4.62983871 Z"></path>
                                                <path d="M0.514516129,2.29193548 C0.322580645,2.29193548 0.152419355,2.15403226 0.118548387,1.95806452 C0.0798387097,1.73870968 0.226612903,1.52983871 0.445967742,1.49112903 L5.25322581,0.651612903 C5.46612903,0.613709677 5.68145161,0.758870968 5.71935484,0.97983871 C5.75806452,1.19919355 5.61129032,1.40806452 5.39193548,1.44677419 L0.584677419,2.28629032 C0.560483871,2.29032258 0.537903226,2.29193548 0.514516129,2.29193548 Z"></path>
                                                <path d="M5.32177419,9.96451613 C5.12983871,9.96451613 4.95967742,9.8266129 4.92580645,9.63064516 C4.88709677,9.41129032 5.03387097,9.20241935 5.25322581,9.16370968 L10.058871,8.32419355 C10.275,8.28870968 10.4862903,8.43145161 10.525,8.65241935 C10.5637097,8.87177419 10.4169355,9.08064516 10.1975806,9.11935484 L5.39193548,9.95887097 C5.36774194,9.96290323 5.34516129,9.96451613 5.32177419,9.96451613 Z"></path>
                                            </g>
                                            <path d="M31.0895161,13.0419355 C31.0846774,12.9806452 31.0814516,12.9225806 31.0782258,12.8604839 C30.8322581,8.77903226 28.991129,0.175 15.8419355,0.173387097 L15.8419355,50.0362903 L17.6120968,50.0362903 C17.6120968,50.0362903 17.983871,50.0032258 18.2225806,49.6362903 C18.4620968,49.2709677 19.55,48.3072581 19.9241935,48.0064516 C20.2991935,47.7056452 21.9330645,46.4064516 21.9330645,45.9758065 C21.9330645,45.5427419 21.9330645,45.5427419 21.9330645,45.5427419 L21.9330645,45.4685484 C22.1596774,45.3145161 22.308871,45.0540323 22.308871,44.7596774 C22.308871,44.4653226 22.1596774,44.2048387 21.9330645,44.0540323 L21.9330645,43.2362903 C22.1596774,43.0822581 22.308871,42.8233871 22.308871,42.5290323 C22.308871,42.2362903 22.1596774,41.9758065 21.9330645,41.8233871 L21.9330645,41.3395161 C22.1596774,41.1854839 22.308871,40.9282258 22.308871,40.6322581 C22.308871,40.3330645 22.1548387,40.0701613 21.9217742,39.9185484 C21.9379032,39.8064516 21.975,39.683871 22.0677419,39.591129 C22.4290323,39.2274194 22.3854839,38.9104839 22.3854839,38.9104839 L22.3854839,37.7782258 L22.3967742,37.7435484 L22.3967742,36.9322581 C22.3967742,36.9322581 22.6016129,36.0548387 23.2758065,35.1774194 C23.9516129,34.2983871 24.3564516,33.1467742 24.425,32.0008065 C24.4919355,30.8491935 24.2903226,29.9056452 25.3725806,27.8774194 C26.4516129,25.8516129 31.1137097,19.7008065 31.1137097,14.0241935 C31.1129032,13.7854839 31.108871,13.45 31.0895161,13.0419355 Z" id="Path" fill="#000000" opacity="0.2"></path>
                                        </g>
                                        <path d="M40.1064516,29.6903226 C40.1016129,29.6217742 40.0975806,29.5572581 40.0943548,29.4887097 C40.0685484,29.0620968 40.0274194,28.591129 39.9612903,28.0879032 C39.3290323,23.2580645 36.4282258,15.4596774 23.3887097,15.3427419 C23.291129,15.3419355 23.1991935,15.3370968 23.1,15.3370968 C23.0991935,15.3370968 23.0991935,15.3370968 23.0983871,15.3370968 C22.3346774,15.3370968 21.6129032,15.3685484 20.916129,15.4193548 L20.916129,16.3967742 C21.6080645,16.3395161 22.3290323,16.3032258 23.0983871,16.3032258 C23.0991935,16.3032258 23.0991935,16.3032258 23.1,16.3032258 C23.1887097,16.3032258 23.2717742,16.3080645 23.358871,16.308871 C35.0491935,16.4129032 37.65,23.4040323 38.2169355,27.7346774 C38.2758065,28.1862903 38.3129032,28.6080645 38.3354839,28.991129 C38.3387097,29.0524194 38.3419355,29.1104839 38.3467742,29.1725806 C38.366129,29.5806452 38.3701613,29.916129 38.3701613,30.1556452 C38.3701613,35.8322581 33.7080645,41.9830645 32.6290323,44.008871 C31.5467742,46.0379032 31.7483871,46.9814516 31.6814516,48.1322581 C31.6129032,49.2790323 31.2080645,50.4306452 30.5322581,51.308871 C29.8580645,52.1862903 29.6532258,53.0637097 29.6532258,53.0637097 L29.6532258,53.875 L29.6419355,53.9096774 L29.6419355,55.0419355 C29.6419355,55.0419355 29.6862903,55.358871 29.3241935,55.7225806 C29.2322581,55.8153226 29.1943548,55.9387097 29.1782258,56.05 C29.4112903,56.2016129 29.5653226,56.4645161 29.5653226,56.7637097 C29.5653226,57.0596774 29.416129,57.3169355 29.1895161,57.4709677 L29.1895161,57.9548387 C29.416129,58.1072581 29.5653226,58.3677419 29.5653226,58.6604839 C29.5653226,58.9548387 29.416129,59.2137097 29.1895161,59.3677419 L29.1895161,59.5169355 L29.9193548,59.5169355 C29.9443548,59.441129 29.9806452,59.3669355 30.041129,59.3056452 C30.4443548,58.9 30.3951613,58.5467742 30.3951613,58.5467742 L30.3951613,57.2846774 L30.4072581,57.2459677 L30.4072581,56.341129 C30.4072581,56.341129 30.6354839,55.3620968 31.3879032,54.383871 C32.1419355,53.4032258 32.5927419,52.1193548 32.6701613,50.8403226 C32.7451613,49.5556452 32.5193548,48.5032258 33.7266129,46.2403226 C34.9306452,43.9806452 40.1298387,37.1201613 40.1298387,30.7887097 C40.1330645,30.5193548 40.1290323,30.1451613 40.1064516,29.6903226 Z" id="Path" fill="#000000" fill-rule="nonzero" opacity="0.2"></path>
                                        <path d="M7.86290323,28.9991935 C8.00887097,26.5572581 8.73306452,22.4806452 12.1241935,19.6064516 L12.1241935,18.0879032 C7.25483871,21.2822581 6.28387097,26.4959677 6.10403226,29.4983871 C6.10241935,29.5612903 6.09596774,29.6209677 6.09516129,29.6830645 C6.07096774,30.1395161 6.06612903,30.5169355 6.06612903,30.7854839 C6.06612903,36.6346774 10.4967742,42.9258065 12.1241935,45.633871 L12.1241935,41.6314516 C10.3596774,38.7741935 7.82822581,34.3370968 7.82822581,30.1532258 C7.82822581,29.9120968 7.83306452,29.5733871 7.85483871,29.1637097 C7.85564516,29.1096774 7.86129032,29.0564516 7.86290323,28.9991935 Z" id="Path" fill="#E0E0E0" fill-rule="nonzero"></path>
                                    </g>
                                </g>
                            </g>
                        </g>
                    </g>
                </g>
            </g>
        </g>
    </g>
</svg>