<?xml version="1.0" encoding="UTF-8"?>
<svg width="282px" height="283px" viewBox="0 0 282 283" version="1.1" xmlns="http://www.w3.org/2000/svg" xmlns:xlink="http://www.w3.org/1999/xlink">
    <!-- Generator: Sketch 55.2 (78181) - https://sketchapp.com -->
    <title>Group 12</title>
    <desc>Created with Sketch.</desc>
    <defs>
        <filter x="-34.1%" y="-33.6%" width="168.1%" height="167.2%" filterUnits="objectBoundingBox" id="filter-1">
            <feOffset dx="0" dy="10" in="SourceAlpha" result="shadowOffsetOuter1"></feOffset>
            <feGaussianBlur stdDeviation="15" in="shadowOffsetOuter1" result="shadowBlurOuter1"></feGaussianBlur>
            <feColorMatrix values="0 0 0 0 0   0 0 0 0 0   0 0 0 0 0  0 0 0 0.2 0" type="matrix" in="shadowBlurOuter1" result="shadowMatrixOuter1"></feColorMatrix>
            <feMerge>
                <feMergeNode in="shadowMatrixOuter1"></feMergeNode>
                <feMergeNode in="SourceGraphic"></feMergeNode>
            </feMerge>
        </filter>
        <linearGradient x1="108.601255%" y1="100.64141%" x2="21.4640079%" y2="35.7685594%" id="linearGradient-2">
            <stop stop-color="#1D9956" offset="0%"></stop>
            <stop stop-color="#9FD292" offset="100%"></stop>
        </linearGradient>
        <linearGradient x1="18.8120851%" y1="10.3683229%" x2="67.5297949%" y2="60.4608598%" id="linearGradient-3">
            <stop stop-color="#1D9956" offset="0%"></stop>
            <stop stop-color="#9FD292" offset="100%"></stop>
        </linearGradient>
    </defs>
    <g id="Page-1" stroke="none" stroke-width="1" fill="none" fill-rule="evenodd">
        <g id="Artboard" transform="translate(0.000000, -24.000000)">
            <g id="Group-12" transform="translate(27.000000, 40.000000)">
                <g id="world" filter="url(#filter-1)" opacity="0.5">
                    <g id="_x38__2_" transform="translate(0.000000, 69.130580)">
                        <g id="Group">
                            <path d="M216.325223,0.0738103094 C222.502565,14.000872 225.940193,29.4067519 225.940193,45.6155296 C225.940193,107.847647 175.362574,158.296657 112.971997,158.296657 C50.5814203,158.296657 0.00388575812,107.847731 0.00388575812,45.6156138 C0.00388575812,29.4067519 3.44143012,14.000872 9.61885633,0.0738103094 L216.325223,0.0738103094 L216.325223,0.0738103094 Z" id="Path" fill="url(#linearGradient-2)"></path>
                            <path d="M112.923003,34.2668574 C113.024793,34.4152364 113.086543,34.5889771 113.216969,34.5889771 C113.765452,33.2666266 112.116539,33.9500461 112.065433,33.2576953 C111.742831,28.8915121 104.740103,31.8154452 102.804404,30.2297874 C99.4339316,27.4687257 95.9261901,27.9325679 96.1696413,27.6634468 C97.4375811,26.2612194 91.6102955,28.4569076 91.5054645,28.5333299 C83.4671825,34.3874311 81.2495128,30.1205886 80.2063557,30.6766937 C77.2746357,32.2399387 77.1785054,30.654618 75.6530919,31.2823426 C66.7962665,34.9266845 72.9306115,32.8049752 67.2209123,30.6911861 C63.9050935,29.4636263 62.6587789,29.3402721 61.9929627,25.6880941 C61.7085421,24.7438951 61.2360845,22.9040299 60.5184864,22.4341212 C56.5583076,19.8407336 59.7736879,22.4416201 57.1697232,19.4640988 C55.307009,17.3341321 51.7206232,11.1818406 55.2906212,9.41443756 C56.2364654,8.9462982 56.8653669,3.26492658 56.7612962,0.0738945678 L174.010162,0.0738945678 C175.738141,1.00376965 172.192303,2.33884312 179.031068,5.55995535 C182.304059,7.10171453 179.549056,13.5708174 191.510603,14.0811702 C192.520308,14.1243105 195.761537,11.2747775 197.369734,15.5952084 C197.603471,16.2235229 196.00237,18.1900284 196.415527,20.9637288 C197.256118,26.605499 191.847819,32.9559661 191.847819,33.5941388 C190.268849,37.8317437 189.326891,35.46855 186.92828,41.4857753 C185.426181,45.2538927 183.448668,43.4403161 181.729305,49.4063125 C181.222551,51.1646998 179.673485,49.3127014 181.70033,53.2751186 C182.164932,54.183255 178.046028,60.3585491 181.237672,60.8303958 C181.595161,60.8832258 181.72922,62.528707 181.72922,62.8632969 C181.097953,65.2296924 181.147032,70.9548784 182.360402,72.9994914 C182.784541,73.7145077 175.527635,79.408181 173.860898,81.2563036 C172.004097,83.3151562 167.010137,84.9051954 170.319283,88.206016 C170.468631,88.3549848 169.948024,94.86529 168.237699,95.4537503 C166.965705,95.8910511 163.335224,97.4018875 163.347219,97.3472881 C159.707953,103.129601 165.519104,103.326176 152.385242,109.516468 C148.003881,111.581387 151.005122,111.809053 143.124382,113.664169 C140.809906,114.209068 140.207529,115.320098 136.012516,116.004866 C132.869867,116.517409 136.900242,111.32086 135.183667,110.761216 C133.052582,110.066591 133.548945,106.373126 131.810828,105.085153 C123.437696,96.4659458 128.431993,103.310672 127.609141,92.8919596 C127.249371,88.3361109 123.19492,87.9448152 123.210125,87.5909301 C123.431276,82.4339824 120.570428,88.7466176 120.174503,79.5167058 C120.132182,78.5302091 124.934219,78.7904831 122.323581,74.6815407 C121.692399,73.6883876 124.739847,70.89733 124.559244,71.1058694 C127.135417,59.9830096 119.869134,65.9898712 122.072865,60.0038214 C122.807949,58.0074042 119.837203,57.1542042 119.837203,51.4249739 C119.599918,51.3429062 118.388068,50.8338173 118.150699,50.7520867 C117.597654,50.4580251 111.581825,46.0005902 111.867597,45.2008942 C113.418775,40.8593988 107.909699,42.8719094 112.908305,39.2702022 C115.355234,37.5070963 112.92275,35.3005388 112.92275,34.4352056 L112.92275,34.2668574 L112.923003,34.2668574 Z M223.225822,20.9719861 C223.088216,21.2032753 222.931772,21.443243 222.752605,21.6939959 C222.675819,21.8015938 223.144982,25.2764921 220.825438,22.1553103 C218.086654,18.4701874 222.125562,12.1392682 215.949318,5.16579482 C213.311057,2.18692532 215.276575,1.80388689 214.581024,0.0738103094 L216.325138,0.0738103094 C219.276203,6.72684916 221.601322,13.7176797 223.225822,20.9719861 L223.225822,20.9719861 Z M200.740461,0.0738103094 L179.644089,0.0738103094 C180.792837,4.71012569 181.511787,3.80502256 183.430169,8.4050226 C185.54495,13.4760268 191.751604,5.13335536 195.769985,3.35870611 C198.693173,2.06778402 200.119162,0.987507793 200.740461,0.0738103094 L200.740461,0.0738103094 Z M28.1943006,120.079599 C10.6516233,100.223868 0.00388575812,74.1618352 0.00388575812,45.6156138 C0.00388575812,40.3173649 0.371343319,35.1049752 1.08150785,30.0019528 C1.70990252,32.1780088 -0.350562961,34.4533212 3.1220377,33.7479103 C7.1039261,32.9390302 3.43940277,36.9373414 6.63476304,41.5000993 C9.1899869,45.1489068 1.30797997,46.750995 6.5094051,46.5465 C9.63634224,46.4235671 5.65149729,53.9678064 8.08508002,50.2616189 C9.32548159,48.3724626 8.38250946,46.6494637 11.6794063,50.3049277 C12.5882513,51.3124047 13.1407892,49.5563766 15.2208524,51.9870613 C16.3437521,53.2991322 17.2344354,49.6114815 19.0852389,53.7654179 C20.5923217,57.1476321 22.348431,53.7269961 24.260224,57.437228 C24.4716599,57.8473976 24.385413,57.3640075 24.385413,57.1440932 C25.0301109,62.4211933 24.7848013,64.2206988 22.9111056,69.2554719 C22.1456113,71.3126393 24.2125812,69.1649784 22.0678117,72.4946154 C20.5892807,74.790234 25.9759551,71.79881 23.41693,78.6753862 C22.9416849,79.9523214 26.1826606,87.0783866 22.867771,91.2913881 C21.6609052,92.8251427 23.8561896,93.0674697 21.7304265,96.0446541 C20.2809542,98.0749431 25.2336064,100.162022 23.7542307,103.739295 C22.7897179,106.07165 26.9013569,110.459656 25.2575122,112.69781 C23.768929,114.724897 28.2642445,111.401496 28.2642445,118.542053 C28.2642445,119.082318 28.2404229,119.594187 28.1943006,120.079599 L28.1943006,120.079599 Z M203.032298,69.6575527 C202.298058,67.8817238 200.586635,59.1999126 198.591974,58.5977182 C196.26525,57.8955091 193.650304,65.4892081 193.252098,66.4667735 C192.742303,67.7184312 193.092951,71.5113205 191.467268,72.7302017 C188.416863,75.0174787 189.120523,71.5017151 186.325988,79.0119141 C186.226309,79.2799398 186.282653,79.6715726 186.282653,79.8529808 L186.393481,80.2278462 C186.070795,80.3404996 186.090561,79.933279 186.11396,80.5257837 C186.322693,85.8044847 183.232924,84.1531054 182.92426,87.6339861 C181.254059,106.471287 198.453354,87.763744 198.453354,83.5737451 C198.453354,77.1294141 204.743045,73.7948059 203.032298,69.6575527 Z" id="Shape" fill="#247957"></path>
                            <path d="M14.831094,0.0738103094 L189.848596,0.0738103094 C196.282567,13.0568415 199.904178,27.6741476 199.904178,43.1371546 C199.904178,96.8834459 156.223019,140.45352 102.339803,140.45352 C48.4565864,140.45352 4.77551225,96.8835301 4.77551225,43.1371546 C4.77551225,27.6741476 8.39703882,13.0569258 14.831094,0.0738103094 Z" id="Path" fill="#98C373" fill-rule="nonzero"></path>
                            <path d="M112.923003,34.2668574 C113.024793,34.4152364 113.086543,34.5889771 113.216969,34.5889771 C113.765452,33.2666266 112.116539,33.9500461 112.065433,33.2576953 C111.742831,28.8915121 104.740103,31.8154452 102.804404,30.2297874 C99.4339316,27.4687257 95.9261901,27.9325679 96.1696413,27.6634468 C97.4375811,26.2612194 91.6102955,28.4569076 91.5054645,28.5333299 C83.4671825,34.3874311 81.2495128,30.1205886 80.2063557,30.6766937 C77.2746357,32.2399387 77.1785054,30.654618 75.6530919,31.2823426 C66.7962665,34.9266845 72.9306115,32.8049752 67.2209123,30.6911861 C63.9050935,29.4636263 62.6587789,29.3402721 61.9929627,25.6880941 C61.7085421,24.7438951 61.2360845,22.9040299 60.5184864,22.4341212 C56.5583076,19.8407336 59.7736879,22.4416201 57.1697232,19.4640988 C55.307009,17.3341321 51.7206232,11.1818406 55.2906212,9.41443756 C56.2364654,8.9462982 56.8653669,3.26492658 56.7612962,0.0738945678 L174.010162,0.0738945678 C175.738141,1.00376965 172.192303,2.33884312 179.031068,5.55995535 C182.304059,7.10171453 179.549056,13.5708174 191.510603,14.0811702 C192.161551,14.1089755 193.740183,12.9348354 195.210689,13.2546801 C195.72513,14.8464045 196.199783,16.4555703 196.633383,18.0818406 C196.404293,18.8940068 196.251988,19.8654213 196.415612,20.9637288 C197.256203,26.605499 191.847903,32.9559661 191.847903,33.5941388 C190.268934,37.8317437 189.326975,35.46855 186.928365,41.4857753 C185.426266,45.2538927 183.448753,43.4403161 181.729389,49.4063125 C181.222636,51.1646998 179.67357,49.3127014 181.700415,53.2751186 C182.165016,54.183255 178.046113,60.3585491 181.237756,60.8303958 C181.595246,60.8832258 181.729305,62.528707 181.729305,62.8632969 C181.098038,65.2296924 181.147117,70.9548784 182.360487,72.9994914 C182.784626,73.7145077 175.527719,79.408181 173.860982,81.2563036 C172.004181,83.3151562 167.010222,84.9051954 170.319367,88.206016 C170.468715,88.3549848 169.948108,94.86529 168.237783,95.4537503 C166.965789,95.8910511 163.335308,97.4018875 163.347303,97.3472881 C159.708038,103.129601 165.519189,103.326176 152.385326,109.516468 C148.003965,111.581387 151.005206,111.809053 143.124467,113.664169 C140.809991,114.209068 140.207614,115.320098 136.0126,116.004866 C132.869951,116.517409 136.900327,111.32086 135.183751,110.761216 C133.052666,110.066591 133.549029,106.373126 131.810913,105.085153 C123.43778,96.4659458 128.432077,103.310672 127.609226,92.8919596 C127.249455,88.3361109 123.195005,87.9448152 123.21021,87.5909301 C123.43136,82.4339824 120.570513,88.7466176 120.174588,79.5167058 C120.132267,78.5302091 124.934304,78.7904831 122.323666,74.6815407 C121.692483,73.6883876 124.739931,70.89733 124.559328,71.1058694 C127.135501,59.9830096 119.869218,65.9898712 122.07295,60.0038214 C122.808034,58.0074042 119.837287,57.1542042 119.837287,51.4249739 C119.600003,51.3429062 118.388153,50.8338173 118.150784,50.7520867 C117.597739,50.4580251 111.58191,46.0005902 111.867682,45.2008942 C113.41886,40.8593988 107.909784,42.8719094 112.908389,39.2702022 C115.355319,37.5070963 112.922834,35.3005388 112.922834,34.4352056 L112.922834,34.2668574 L112.923003,34.2668574 Z M189.848596,0.0738103094 L179.644004,0.0738103094 C180.792752,4.71012569 181.511702,3.80502256 183.430084,8.4050226 C185.009053,12.1914241 188.86947,8.49964472 192.39664,5.647247 C191.605381,3.75809066 190.75364,1.90044695 189.848596,0.0738103094 L189.848596,0.0738103094 Z M198.668929,58.6259447 C198.643249,58.6154967 198.617654,58.6055542 198.59189,58.5977182 C196.265165,57.8955091 193.650219,65.4892081 193.252013,66.4667735 C192.742219,67.7184312 193.092866,71.5113205 191.467183,72.7302017 C188.416779,75.0174787 189.120439,71.5017151 186.325903,79.0119141 C186.226225,79.2799398 186.282568,79.6715726 186.282568,79.8529808 L186.393397,80.2278462 C186.07071,80.3404996 186.090477,79.933279 186.113876,80.5257837 C186.322609,85.8044847 183.23284,84.1531054 182.924175,87.6339861 C182.512285,92.2790644 183.249143,94.6382138 184.591165,95.4979017 C191.633257,84.5149108 196.519852,72.026139 198.668929,58.6259447 L198.668929,58.6259447 Z M23.4634746,100.413112 C12.3297639,85.1825739 5.52073308,66.6078219 4.83912043,46.4803572 C5.06567702,46.5614137 5.57631632,46.5832366 6.5094051,46.5464157 C9.63634224,46.4234828 5.65149729,53.9677222 8.08508002,50.2615346 C9.32548159,48.3723783 8.38250946,46.6493794 11.6794063,50.3048434 C12.5882513,51.3123205 13.1407892,49.5562923 15.2208524,51.986977 C16.3437521,53.299048 17.2344354,49.6113973 19.0852389,53.7653336 C20.5923217,57.1475478 22.348431,53.7269118 24.260224,57.4371438 C24.4716599,57.8473134 24.385413,57.3639232 24.385413,57.144009 C25.0301109,62.4211091 24.7848013,64.2206145 22.9111056,69.2553876 C22.1456113,71.3125551 24.2125812,69.1648941 22.0678117,72.4945311 C20.5892807,74.7901497 25.9759551,71.7987257 23.41693,78.675302 C22.9416849,79.9522372 26.1826606,87.0783024 22.867771,91.2913038 C21.6609052,92.8250585 23.8561896,93.0673855 21.7304265,96.0445698 C20.7984359,97.3503214 22.5134912,98.6794125 23.4634746,100.413112 L23.4634746,100.413112 Z M4.82501343,46.1107158 C4.79527894,45.1227868 4.77551225,44.1323299 4.77551225,43.1371546 C4.77551225,40.2891383 4.90551621,37.4716236 5.14575742,34.6857057 C5.30608718,36.0720082 4.65826373,38.6777818 6.63476304,41.5000993 C8.31459317,43.8986815 5.48424075,45.4128882 4.82501343,46.1107158 Z" id="Shape" fill="#247957"></path>
                            <path d="M36.4663194,0.0738103094 L135.167363,0.0738103094 C139.812872,8.27307403 142.467267,17.7434591 142.467267,27.8333958 C142.467267,59.0410013 117.103994,84.3398219 85.8167991,84.3398219 C54.5296039,84.3398219 29.1663315,59.0410013 29.1663315,27.8333958 C29.1663315,17.7434591 31.8207266,8.27307403 36.4663194,0.0738103094 Z" id="Path" fill="url(#linearGradient-3)"></path>
                            <path d="M112.923003,34.2668574 C113.024793,34.4152364 113.086543,34.5889771 113.216969,34.5889771 C113.765452,33.2666266 112.116539,33.9500461 112.065433,33.2576953 C111.742831,28.8915121 104.740103,31.8154452 102.804404,30.2297874 C99.4339316,27.4687257 95.9261901,27.9325679 96.1696413,27.6634468 C97.4375811,26.2612194 91.6102955,28.4569076 91.5054645,28.5333299 C83.4671825,34.3874311 81.2495128,30.1205886 80.2063557,30.6766937 C77.2746357,32.2399387 77.1785054,30.654618 75.6530919,31.2823426 C66.7962665,34.9266845 72.9306115,32.8049752 67.2209123,30.6911861 C63.9050935,29.4636263 62.6587789,29.3402721 61.9929627,25.6880941 C61.7085421,24.7438951 61.2360845,22.9040299 60.5184864,22.4341212 C56.5583076,19.8407336 59.7736879,22.4416201 57.1697232,19.4640988 C55.307009,17.3341321 51.7206232,11.1818406 55.2906212,9.41443756 C56.2364654,8.9462982 56.8653669,3.26492658 56.7612962,0.0738945678 L135.167448,0.0738945678 C139.812956,8.27315829 142.467351,17.7435434 142.467351,27.8334801 C142.467351,43.8694439 135.769487,58.3441006 125.013033,68.6290111 C125.969098,60.918867 120.056241,65.4817934 122.073119,60.0038214 C122.808203,58.0074042 119.837456,57.1542042 119.837456,51.4249739 C119.600171,51.3429062 118.388322,50.8338173 118.150953,50.7520867 C117.597908,50.4580251 111.582079,46.0005902 111.867851,45.2008942 C113.419028,40.8593988 107.909953,42.8719094 112.908558,39.2702022 C115.355488,37.5070963 112.923003,35.3005388 112.923003,34.4352056 L112.923003,34.2668574 Z" id="Path" fill="#DA8B69"></path>
                        </g>
                        <g id="Group" transform="translate(0.052775, 0.000000)">
                            <path d="M216.272448,0.0738103094 C219.449816,7.23737047 221.902236,14.7920579 223.53493,22.6461151 C225.976876,50.1766865 215.825079,69.754534 204.457209,69.6700229 C187.166684,69.541866 189.222672,42.5624285 182.1005,34.9852441 C180.056422,32.8107047 177.560752,31.9187459 175.246783,32.2467636 C171.143253,32.8282305 167.611099,37.2465695 168.181883,45.150929 C169.554147,64.1581791 160.584213,86.3214939 147.810628,92.2002828 C138.703931,96.3912086 126.275925,92.1463575 120.586837,73.306276 C118.261802,65.6061587 115.638155,57.1686124 112.426576,49.8758842 C103.643918,29.933198 91.2627102,21.9011871 81.5472167,44.0203506 C75.8114154,57.0788773 70.2239486,75.7906333 64.9938027,76.438917 C58.3771169,77.2590877 56.3670818,71.5678579 52.2556118,65.5312531 C41.7847607,50.15697 33.8587434,52.0294432 26.8680956,55.3801448 C13.6342171,61.72345 3.00675313,47.5912192 3.17800109,18.7777303 C4.76708603,12.3061839 6.91371397,6.05354073 9.56608178,0.0738103094 L216.272448,0.0738103094 Z" id="Path" fill="#77B4F7"></path>
                            <path d="M10.1747828,0.0738103094 L189.545698,0.0738103094 C196.139708,13.0568415 199.851403,27.6741476 199.851403,43.1371546 C199.851403,51.461205 198.775026,59.5401478 196.754904,67.2521455 C187.307668,60.4449139 187.642883,41.197022 181.658875,34.9852441 C179.563952,32.8107047 177.006204,31.9187459 174.634677,32.2467636 C170.429076,32.8282305 166.809062,37.2465695 167.394044,45.150929 C168.800442,64.1581791 159.607388,86.3214939 146.516071,92.2002828 C137.182853,96.3912086 124.445711,92.1463575 118.615112,73.306276 C116.232243,65.6061587 113.543335,57.1686124 110.251871,49.8758842 C101.250752,29.933198 88.5615716,21.9011871 78.6044135,44.0203506 C72.7259389,57.0788773 66.9994886,75.7906333 61.6392472,76.438917 C54.8579769,77.2590877 52.7979439,71.5678579 48.5842046,65.5312531 C37.8529,50.15697 29.7297296,52.0294432 22.5651954,55.3801448 C12.342947,60.1610475 3.63860411,53.309159 0.0457749253,37.3097633 C0.854724223,24.0012421 4.41508808,11.4141408 10.1747828,0.0738103094 Z" id="Path" fill="#7DC3F9"></path>
                            <path d="M36.4135449,0.0738103094 L135.114589,0.0738103094 C139.760097,8.27307403 142.414492,17.7434591 142.414492,27.8333958 C142.414492,46.0440675 133.775607,62.2398694 120.365265,72.573734 C118.095222,65.0737303 115.536534,56.9380816 112.426576,49.8758 C103.643918,29.9331138 91.2627102,21.9011029 81.5472167,44.0202663 C75.8114154,57.078793 70.2239486,75.790549 64.9938027,76.4388327 C58.3771169,77.2590035 56.3670818,71.5677736 52.2556118,65.5311688 C45.6472888,55.8282307 40.0528952,52.9959707 35.0672142,53.0682644 C31.2594246,45.4724589 29.1136414,36.9033853 29.1136414,27.8333116 C29.1136414,17.7434591 31.7679521,8.27307403 36.4135449,0.0738103094 Z" id="Path" fill="#83CEFB"></path>
                            <path d="M112.870228,34.2668574 C112.972018,34.4152364 113.033768,34.5889771 113.164194,34.5889771 C113.712678,33.2666266 112.063765,33.9500461 112.012659,33.2576953 C111.690056,28.8915121 104.687329,31.8154452 102.75163,30.2297874 C99.381157,27.4687257 95.8734156,27.9325679 96.1168668,27.6634468 C97.3848066,26.2612194 91.5575209,28.4569076 91.45269,28.5333299 C83.414408,34.3874311 81.1967382,30.1205886 80.1535811,30.6766937 C77.2218611,32.2399387 77.1257308,30.654618 75.6003173,31.2823426 C66.743492,34.9266845 72.8778369,32.8049752 67.1681378,30.6911861 C63.852319,29.4636263 62.6060043,29.3402721 61.9401881,25.6880941 C61.6557675,24.7438951 61.18331,22.9040299 60.4657118,22.4341212 C56.505533,19.8407336 59.7209134,22.4416201 57.1169486,19.4640988 C55.2542344,17.3341321 51.6678486,11.1818406 55.2378467,9.41443756 C56.1836909,8.9462982 56.8125924,3.26492658 56.7085216,0.0738945678 L135.114673,0.0738945678 C139.760181,8.27315829 142.414577,17.7435434 142.414577,27.8334801 C142.414577,43.8694439 135.716712,58.3441006 124.960258,68.6290111 C125.916323,60.918867 120.003467,65.4817934 122.020344,60.0038214 C122.755428,58.0074042 119.784682,57.1542042 119.784682,51.4249739 C119.547397,51.3429062 118.335547,50.8338173 118.098178,50.7520867 C117.545133,50.4580251 111.529304,46.0005902 111.815076,45.2008942 C113.366254,40.8593988 107.857178,42.8719094 112.855784,39.2702022 C115.302713,37.5070963 112.870228,35.3005388 112.870228,34.4352056 L112.870228,34.2668574 Z" id="Path" fill="#F2F5F7" opacity="0.36"></path>
                        </g>
                    </g>
                    <g id="Group" transform="translate(8.118513, 0.000000)" fill-rule="nonzero">
                        <polygon id="Path" fill="#1A77C6" opacity="0.25" points="66.2951987 64.32148 60.6667579 64.32148 43.3124693 64.32148 28.4468924 64.32148 0.0343620788 65.6514422 3.27277642 69.427669 21.4992355 70.8336796 43.4001519 70.8631557 59.0062909 70.8841259 80.3782343 70.912844 103.650502 67.7920817 105.535339 66.5584642"></polygon>
                        <g transform="translate(0.338543, 61.076244)" id="Path">
                            <polygon fill="#B5CEE1" points="42.9739267 2.18182184 43.0616092 8.76973296 58.6677482 8.79087154 60.3282153 2.18182184"></polygon>
                            <polygon fill="#DCE3E8" points="65.9566561 2.18182184 60.3282153 2.18182184 58.6677482 8.79087154 80.0396917 8.81975813 103.31196 5.67693081 103.344291 3.60063346"></polygon>
                            <polygon fill="#DCE3E8" points="28.1083497 2.18182184 0.0249675203 2.96100182 2.93423377 7.32405597 21.1606929 8.7400042 43.0616092 8.76973296 42.9739267 2.18182184"></polygon>
                            <polygon fill="#FFFFFF" points="0.0249675203 2.96100182 28.1083497 0.0797539384 65.9566561 0.0797539384 103.544285 3.57486291 80.0396917 6.71777445 21.1606929 6.63802051 2.93423377 5.22198807"></polygon>
                            <polygon fill="#B5CEE1" points="2.93423377 5.22198807 2.93423377 7.32405597 21.1606929 8.7400042 21.1606929 6.63802051"></polygon>
                            <polygon fill="#B5CEE1" points="80.0396917 6.71777445 80.0396917 8.81984235 103.31196 5.67693081 103.544285 3.57486291"></polygon>
                        </g>
                        <g transform="translate(5.755225, 0.233259)" id="Path">
                            <polygon fill="#F4F4F4" points="102.274139 63.3711803 0.0479747491 63.3711803 16.1412993 37.027564 26.6987637 12.1758482 32.7595568 0.37118029 45.6291807 6.5561826 63.5470219 21.8058762 79.8153241 24.6017061 88.2120214 36.716969 98.0079027 51.0067135"></polygon>
                            <polygon fill="#FFFFFF" points="45.7742422 6.37118029 45.147753 12.4050427 55.6280626 23.3711803 63.688773 21.5884626"></polygon>
                            <polygon fill="#FFFFFF" points="79.7242497 24.600361 49.1566222 30.3711803 55.5822249 23.6151067 63.5819706 21.8711803"></polygon>
                            <polygon fill="#DCE3E8" points="48.035455 44.7913037 45.8865911 55.723947 47.8825325 63.3711803 0.0479747491 63.3711803 16.101982 37.024926 26.6329733 12.1737516 32.6791371 0.37118029 29.3092771 13.0938373 32.6791371 25.1187165 42.9712067 26.1576301 30.383868 31.7159603 22.8628441 33.5904668 19.1788729 39.6010077 24.2450288 48.6168981 29.6173477 56.8161829 21.6354896 49.1649939 13.806713 50.5298536 11.5049265 55.4516396 29.4642662 60.6458912 44.1984023 50.5298536 46.5024143 41.2416558 56.1721433 42.3342081"></polygon>
                            <polygon fill="#B8C5D0" points="22.6258762 27.8672648 17.7528005 39.1883536 24.0636326 49.8083419 18.3487848 43.8881482 13.1217047 46.7128033 6.1261889 60.6458912 29.2069322 63.3711803 0.0479747491 63.3711803 16.0729057 37.024926 26.5848237 12.1737516 32.6200368 0.37118029 26.4258311 16.3214947 26.4258311 24.8927694 28.5579504 26.8745533 31.3390515 27.3728078 28.0592341 28.8601346"></polygon>
                            <polygon fill="#FFFFFF" points="25.7433862 36.2775346 23.6000812 41.6212995 25.7433862 46.9649055 30.4792969 52.8711803 40.7981995 47.5272564 43.1433184 39.6524353 31.1351527 34.8711803"></polygon>
                            <polygon fill="#DCE3E8" points="64.6909903 41.7728029 77.2989582 38.8711803 87.7419881 51.3711803 76.2164892 41.3265206"></polygon>
                            <polygon fill="#FFFFFF" points="53.6666 46.0470698 75.5213968 43.3711803 87.4886952 52.8528904 88.2430967 60.3711803 58.1930089 60.2549262 53.6666 54.074581"></polygon>
                            <polygon fill="#DCE3E8" points="78.7220324 27.8711803 74.479312 33.0740165 57.5286359 36.1569139 50.1588395 33.2688158 57.6562847 39.3711803 75.406049 35.0335142"></polygon>
                            <polygon fill="#FFFFFF" points="79.223141 36.8229243 80.9523726 28.3711803 96.7619437 49.8711803 88.5751854 49.8711803"></polygon>
                        </g>
                    </g>
                    <g id="Group" transform="translate(73.968675, 7.401786)" fill-rule="nonzero">
                        <path d="M144.777532,62.4934087 C144.777532,63.4811056 112.557867,65.7125097 72.3880481,65.7125097 C32.2181449,65.7125097 0.0768669411,63.3030846 0.0768669411,62.3154718 C0.0768669411,61.327775 32.2181449,62.1357682 72.3880481,62.1357682 C112.557867,62.1356841 144.777532,61.5056277 144.777532,62.4934087 Z" id="Path" fill="#1A77C6" opacity="0.25"></path>
                        <g transform="translate(3.294297, 0.000000)" id="Path">
                            <g transform="translate(0.000000, 59.466967)">
                                <polygon fill="#F4F4F4" points="0.246565496 0.00942266187 0.0777116328 2.59358768 6.15670411 3.94473009 69.9151288 5.21636879 125.332646 3.52752491 139.153575 2.60923603 139.153575 1.13063529"></polygon>
                                <polygon fill="#FFFFFF" points="0.246565496 0.00942266187 5.33000438 2.04783047 69.1956204 3.52752491 94.3245216 2.6924415 124.617445 1.91734343 139.153575 1.13063529 139.153575 0.199306125"></polygon>
                                <polygon fill="#B8C5D0" points="125.332646 3.52752491 125.332646 1.87864321 139.153575 1.13063529 139.153575 2.60923603"></polygon>
                                <polygon fill="#DCE3E8" points="69.1956204 3.52752491 69.9151288 5.21636879 125.332646 3.52752491 125.332646 1.87864321"></polygon>
                                <polygon fill="#CEDDE8" points="5.33000438 2.04783047 6.15678858 3.94473009 42.5858903 4.67128462 41.9543143 2.89629069"></polygon>
                                <polygon fill="#F4F4F4" points="69.1956204 3.52752491 41.9543143 2.89629069 42.5858903 4.67128462 69.9151288 5.21636879"></polygon>
                            </g>
                            <g transform="translate(7.433287, 45.417106)">
                                <polygon fill="#F4F4F4" points="0.0606488612 14.9283569 45.6990014 14.9283569 38.5141386 8.73691083 33.8008436 2.8960383 31.0950428 0.121653295 23.3721959 0.0486276657 17.3501357 5.15941216 10.0872233 5.81647456 6.33865069 8.6638852 1.96534409 12.0223911"></polygon>
                                <polygon fill="#FFFFFF" points="23.3721959 0.0486276657 25.629212 2.99649061 20.9494513 5.57930953 17.3501357 5.15941216"></polygon>
                                <polygon fill="#FFFFFF" points="10.0872233 5.81647456 23.8405774 7.20589653 20.9494513 5.57930953 17.3501357 5.15941216"></polygon>
                                <polygon fill="#DCE3E8" points="24.2217868 10.5617944 25.1835527 13.1312365 24.2902068 14.9285251 45.6990859 14.9285251 38.5139697 8.73649017 33.8006747 2.89587004 31.0947049 0.121989819 32.6029019 3.11208648 31.0947049 5.93821199 26.4883479 6.18244402 32.1219345 7.48874465 35.4880307 7.92933823 37.1368689 9.34198033 34.8693786 11.4609014 32.4650482 13.3879199 36.0373337 11.5897058 39.5411992 11.9104129 40.5713852 13.0672129 32.5334683 14.2879524 25.9390449 11.9104129 24.9079298 9.72755229 20.5801521 9.98431982"></polygon>
                                <polygon fill="#B8C5D0" points="35.5757942 6.58425324 37.7607581 9.24489326 34.9311255 11.7408891 37.4934977 10.3495321 39.8372636 11.0134091 42.9737727 14.2879524 32.6249484 14.9285251 45.6990859 14.9285251 38.5139697 8.73649017 33.8006747 2.89587004 31.0947049 0.121989819 33.8719667 3.87069489 33.8719667 5.88512539 32.9160291 6.3508741 31.6690108 6.46798433 33.1395345 6.81763239"></polygon>
                                <polygon fill="#FFFFFF" points="34.2540207 8.65564037 35.218743 9.90582568 34.2540207 11.1560951 32.12185 12.5378612 27.4765527 11.2875917 26.4207726 9.44520895 31.8266303 8.32660438"></polygon>
                                <polygon fill="#DCE3E8" points="16.6958375 9.87478138 11.1139461 9.18945099 6.49061072 12.1412681 11.5932241 9.76928122"></polygon>
                                <polygon fill="#FFFFFF" points="21.7590882 10.9290258 11.9587222 10.2965296 6.59214266 12.5378612 6.25392812 14.3151267 19.7292942 14.2876158 21.7590882 12.8265985"></polygon>
                                <polygon fill="#DCE3E8" points="10.6277415 6.55699483 12.5101369 7.80137511 20.0303423 8.53886667 23.2999748 7.84798364 19.9736635 9.30765492 12.098941 8.27015254"></polygon>
                                <polygon fill="#FFFFFF" points="10.4352363 8.78570675 9.66209003 6.82394221 2.59362574 11.8145036 6.25392812 11.8145036"></polygon>
                            </g>
                            <g transform="translate(21.674080, 0.279018)">
                                <polygon fill="#F4F4F4" points="116.931446 60.4236356 0.173130737 60.4236356 15.1432413 37.2668665 28.448477 24.2842407 29.1141855 16.5647961 27.4511216 8.14308031 35.4332248 0.423635647 56.0567868 0.423635647 70.027731 11.6517875 75.3508636 22.5298872 86.9929146 25.3364436 95.3087171 30.4244783 100.963738 39.7214448 109.279541 47.0908373 113.937085 51.3015748"></polygon>
                                <g transform="translate(0.173131, 0.423636)">
                                    <polygon fill="#DCE3E8" points="67.3016533 60.0930303 80.5791811 56.6051261 73.7158048 50.8850933 75.5221152 42.1123618 70.2826085 34.7156742 76.6063841 38.8722177 88.6577444 42.0493984 93.0048349 39.0208979 91.7005992 32.596711 86.1362703 27.1889667 73.7158048 24.5705104 56.9428192 28.429814 65.406415 23.4260945 65.406415 19.2324712 59.2636324 12.9395081 48.9668185 12.9395081 42.1018737 7.98189752 49.8700944 10.0795519 59.9857946 9.12619302 55.9609923 0.0864391551 69.924001 11.3158244 75.24411 22.1951191 86.8795483 25.0019839 95.1906274 30.0905775 100.842436 39.3885653 109.153515 46.7587673 113.808415 50.9699674 116.801074 60.0930303"></polygon>
                                    <polygon fill="#B8C5D0" points="69.924001 11.3158244 71.1487204 22.2545912 67.9435753 24.5464326 75.24411 22.1951191"></polygon>
                                    <polygon fill="#B8C5D0" points="94.9693332 56.0621727 108.04065 52.3522715 100.353393 45.0917437 90.5272817 48.5133136 80.2105586 45.4905918 89.8738969 45.4905918 98.5058163 40.6886439 95.1906274 30.0905775 100.842436 39.3885653 109.153515 46.7587673 113.808415 50.9699674 116.801074 60.0930303"></polygon>
                                    <polygon fill="#FFFFFF" points="27.3715753 7.80673182 41.132475 7.80673182 35.3491446 0.0864391551"></polygon>
                                    <polygon fill="#FFFFFF" points="29.0336946 16.2293727 40.5420758 17.7790173 48.0065902 15.1526153 39.5468555 23.8722554 28.3683642 23.9496654"></polygon>
                                    <polygon fill="#FFFFFF" points="15.0706859 36.9337174 29.6141995 43.0749906 48.0065902 36.9337174 28.9732429 51.3281241 0.109078464 60.0930303"></polygon>
                                    <polygon fill="#DCE3E8" points="39.680187 27.1889667 37.1852585 36.0863006 54.1374273 29.3237008 57.3542766 34.7162761 53.2526127 30.9664059 30.9068517 40.3619087"></polygon>
                                    <polygon fill="#DCE3E8" points="53.1887825 50.3898138 58.4550762 38.757728 68.9685991 50.5434299 66.2952115 54.8593682 69.7549535 56.3532728 44.1305642 56.3532728 60.4766477 53.8633917"></polygon>
                                </g>
                            </g>
                        </g>
                    </g>
                </g>
                <g id="text" transform="translate(39.000000, 88.000000)" fill="#000000" fill-rule="nonzero">
                    <path d="M11.0539551,81.0449219 C11.8189329,81.0449219 12.4577611,80.9228528 12.970459,80.6787109 C13.4831569,80.4345691 13.8941228,80.1171895 14.2033691,79.7265625 C14.5126155,79.3359355 14.7323398,78.8985213 14.8625488,78.4143066 C14.9927578,77.930092 15.0578613,77.4438501 15.0578613,76.9555664 L15.0578613,55.5444336 L20.1604004,55.5444336 L20.1604004,76.6015625 C20.1604004,77.3502642 20.1054693,78.0887822 19.9956055,78.8171387 C19.8857416,79.5454952 19.6945001,80.2392545 19.421875,80.8984375 C19.1492499,81.5576205 18.7891461,82.163897 18.3415527,82.7172852 C17.8939594,83.2706733 17.3324415,83.7508118 16.6569824,84.1577148 C15.9815233,84.5646179 15.1819708,84.8819976 14.2583008,85.1098633 C13.3346308,85.337729 12.2665262,85.4516602 11.0539551,85.4516602 C9.83324585,85.4516602 8.75903784,85.337729 7.83129883,85.1098633 C6.90355981,84.8819976 6.10400726,84.5646179 5.43261719,84.1577148 C4.76122711,83.7508118 4.20174377,83.2706733 3.75415039,82.7172852 C3.30655701,82.163897 2.95052216,81.5576205 2.68603516,80.8984375 C2.42154816,80.2392545 2.23437555,79.5454952 2.12451172,78.8171387 C2.01464789,78.0887822 1.9597168,77.3502642 1.9597168,76.6015625 L1.9597168,64.5043945 L7.0012207,64.5043945 L7.0012207,76.9555664 C7.0012207,77.4438501 7.06632422,77.930092 7.1965332,78.4143066 C7.32674219,78.8985213 7.54850104,79.3359355 7.86181641,79.7265625 C8.17513177,80.1171895 8.59220117,80.4345691 9.11303711,80.6787109 C9.63387305,80.9228528 10.2808392,81.0449219 11.0539551,81.0449219 Z M42.9997559,92.2998047 L38.0070801,92.2998047 C37.9663898,92.0393867 37.9012863,91.7728692 37.8117676,91.5002441 C37.7222489,91.2276191 37.6083177,90.9814464 37.4699707,90.7617188 C37.3316237,90.5419911 37.1688649,90.3609219 36.9816895,90.2185059 C36.794514,90.0760898 36.5829276,90.0048828 36.3469238,90.0048828 C36.1271962,90.0048828 35.9318856,90.0760898 35.7609863,90.2185059 C35.590087,90.3609219 35.4497076,90.5419911 35.3398438,90.7617188 C35.2299799,90.9814464 35.146566,91.2276191 35.0895996,91.5002441 C35.0326332,91.7728692 35.0041504,92.0393867 35.0041504,92.2998047 L31.1467285,92.2998047 C31.1467285,92.0475248 31.1101078,91.7850762 31.0368652,91.5124512 C30.9636227,91.2398261 30.859864,90.98755 30.7255859,90.7556152 C30.5913079,90.5236805 30.4285491,90.3324389 30.2373047,90.1818848 C30.0460602,90.0313306 29.8324393,89.9560547 29.5964355,89.9560547 C29.3360176,89.9560547 29.1081553,90.0313306 28.9128418,90.1818848 C28.7175283,90.3324389 28.556804,90.5236805 28.4306641,90.7556152 C28.3045241,90.98755 28.2109378,91.2398261 28.1499023,91.5124512 C28.0888669,91.7850762 28.0583496,92.0475248 28.0583496,92.2998047 L23.505127,92.2998047 C23.505127,91.2255806 23.6536443,90.3019244 23.9506836,89.5288086 C24.2477228,88.7556927 24.6485164,88.118899 25.1530762,87.6184082 C25.657636,87.1179174 26.2456021,86.7476412 26.9169922,86.5075684 C27.5883823,86.2674955 28.2984175,86.1474609 29.0471191,86.1474609 C29.4377461,86.1474609 29.8059879,86.1922196 30.1518555,86.2817383 C30.4977231,86.371257 30.8232407,86.4912916 31.128418,86.6418457 C31.4335953,86.7923998 31.7143542,86.9714345 31.9707031,87.1789551 C32.2270521,87.3864756 32.4528799,87.6082345 32.6481934,87.8442383 C32.8272307,87.6245106 33.0327137,87.4169932 33.2646484,87.2216797 C33.4965832,87.0263662 33.7488593,86.8554695 34.0214844,86.7089844 C34.2941094,86.5624993 34.5809718,86.4485681 34.8820801,86.3671875 C35.1831884,86.2858069 35.4883611,86.2451172 35.7976074,86.2451172 C36.2533389,86.2451172 36.6520979,86.3203931 36.9938965,86.4709473 C37.3356951,86.6215014 37.6205229,86.7985016 37.8483887,87.0019531 L37.8483887,72.4023438 C37.8483887,71.9303362 37.7731127,71.4603702 37.6225586,70.9924316 C37.4720045,70.5244931 37.2197283,70.1033547 36.8657227,69.7290039 C36.511717,69.3546531 36.0458199,69.0515148 35.4680176,68.8195801 C34.8902152,68.5876453 34.1700076,68.4635417 33.307373,68.4472656 C32.6481901,68.4391276 32.0642929,68.4981276 31.5556641,68.6242676 C31.0470352,68.7504075 30.609621,68.9152008 30.2434082,69.1186523 C29.8771954,69.3221039 29.5842296,69.5458972 29.364502,69.7900391 C29.1447743,70.0341809 28.9901534,70.2701812 28.9006348,70.4980469 C29.1122244,70.6852223 29.2973625,70.8846018 29.4560547,71.0961914 C29.6147469,71.307781 29.7449539,71.5498847 29.8466797,71.8225098 C29.9484055,72.0951348 30.0257159,72.4084455 30.0786133,72.7624512 C30.1315107,73.1164568 30.157959,73.5294573 30.157959,74.0014648 L30.157959,85 L23.151123,85 L23.151123,81.0449219 L25.104248,81.0449219 L25.104248,73.9526367 C25.104248,73.724771 25.0777997,73.4908052 25.0249023,73.2507324 C24.9720049,73.0106596 24.8804531,72.7726249 24.7502441,72.5366211 C24.6200352,72.3006173 24.4410005,72.068686 24.2131348,71.8408203 C23.985269,71.6129546 23.6963722,71.4013682 23.3464355,71.2060547 C23.4929207,70.6282523 23.6943347,70.0504586 23.9506836,69.4726562 C24.2070325,68.8948539 24.5305156,68.341474 24.9211426,67.8125 C25.3117695,67.283526 25.7735976,66.7911807 26.3066406,66.3354492 C26.8396837,65.8797178 27.4500291,65.4829932 28.1376953,65.1452637 C28.8253615,64.8075341 29.5984658,64.5410166 30.4570312,64.3457031 C31.3155967,64.1503896 32.2657012,64.0527344 33.307373,64.0527344 C34.5362203,64.0527344 35.6307732,64.164631 36.5910645,64.3884277 C37.5513557,64.6122244 38.3895635,64.9214661 39.1057129,65.3161621 C39.8218623,65.7108581 40.4281388,66.1828586 40.9245605,66.7321777 C41.4209823,67.2814969 41.8238103,67.877601 42.1330566,68.5205078 C42.442303,69.1634147 42.6640618,69.8429326 42.7983398,70.559082 C42.9326179,71.2752314 42.9997559,72.003577 42.9997559,72.7441406 L42.9997559,92.2998047 Z M24.3596191,61.5991211 L26.3493652,57.7050781 L42.9509277,57.7050781 L42.9509277,61.5991211 L24.3596191,61.5991211 Z M55.9025879,81.0449219 C56.6675657,81.0449219 57.3063939,80.9228528 57.8190918,80.6787109 C58.3317897,80.4345691 58.7427556,80.1171895 59.052002,79.7265625 C59.3612483,79.3359355 59.5809727,78.8985213 59.7111816,78.4143066 C59.8413906,77.930092 59.9064941,77.4438501 59.9064941,76.9555664 L59.9064941,64.5043945 L65.0090332,64.5043945 L65.0090332,76.6015625 C65.0090332,77.3502642 64.9541021,78.0887822 64.8442383,78.8171387 C64.7343745,79.5454952 64.5431329,80.2392545 64.2705078,80.8984375 C63.9978828,81.5576205 63.6377789,82.163897 63.1901855,82.7172852 C62.7425922,83.2706733 62.1810743,83.7508118 61.5056152,84.1577148 C60.8301561,84.5646179 60.0306036,84.8819976 59.1069336,85.1098633 C58.1832636,85.337729 57.1151591,85.4516602 55.9025879,85.4516602 C54.6818787,85.4516602 53.6076707,85.337729 52.6799316,85.1098633 C51.7521926,84.8819976 50.9526401,84.5646179 50.28125,84.1577148 C49.6098599,83.7508118 49.0503766,83.2706733 48.6027832,82.7172852 C48.1551898,82.163897 47.799155,81.5576205 47.534668,80.8984375 C47.270181,80.2392545 47.0830084,79.5454952 46.9731445,78.8171387 C46.8632807,78.0887822 46.8083496,77.3502642 46.8083496,76.6015625 L46.8083496,64.5043945 L51.8498535,64.5043945 L51.8498535,76.9555664 C51.8498535,77.4438501 51.914957,77.930092 52.045166,78.4143066 C52.175375,78.8985213 52.3971339,79.3359355 52.7104492,79.7265625 C53.0237646,80.1171895 53.440834,80.4345691 53.9616699,80.6787109 C54.4825059,80.9228528 55.129472,81.0449219 55.9025879,81.0449219 Z M53.4489746,61.5991211 L53.4489746,55.9472656 L57.9533691,55.9472656 L57.9533691,57.7050781 L67.7067871,57.7050781 L67.7067871,61.5991211 L53.4489746,61.5991211 Z M73.895752,72.1459961 L73.895752,78.5546875 L76.7521973,75.7470703 L75.2995605,75.7470703 L75.2995605,72.5976562 L82.0500488,72.5976562 L82.0500488,75.6494141 L73.1022949,85 L68.8054199,85 L68.8054199,72.5488281 C68.8054199,71.612951 68.9213856,70.6933639 69.1533203,69.7900391 C69.3852551,68.8867142 69.7677382,68.0525754 70.3007812,67.2875977 C70.8338243,66.5226199 71.5296181,65.8573433 72.3881836,65.291748 C73.2467491,64.7261528 74.3026467,64.3131523 75.5559082,64.0527344 L78.7053223,66.1523438 L81.9035645,64.1015625 C83.1161356,64.3782566 84.141516,64.7973605 84.9797363,65.3588867 C85.8179567,65.920413 86.4974746,66.5775516 87.0183105,67.3303223 C87.5391465,68.083093 87.9155262,68.9070593 88.1474609,69.8022461 C88.3793957,70.6974329 88.4953613,71.612951 88.4953613,72.5488281 L88.4953613,85 L83.4050293,85 L83.4050293,72.1459961 C83.4050293,71.5926079 83.2890637,71.0555039 83.0571289,70.534668 C82.8251942,70.013832 82.4569524,69.5540385 81.9523926,69.1552734 L79.8039551,70.4492188 C79.4784326,70.6282561 79.1305357,70.7299803 78.7602539,70.7543945 C78.3899721,70.7788087 78.0054545,70.6770845 77.6066895,70.4492188 L75.3972168,69.0942383 C74.8682428,69.5011414 74.4857596,69.9731418 74.2497559,70.5102539 C74.0137521,71.047366 73.895752,71.5926079 73.895752,72.1459961 Z M69.8552246,61.5991211 L71.8449707,57.7050781 L88.4465332,57.7050781 L88.4465332,61.5991211 L69.8552246,61.5991211 Z M100.800049,68.4472656 C100.140866,68.4391276 99.5569687,68.4981276 99.0483398,68.6242676 C98.539711,68.7504075 98.1043312,68.9152008 97.7421875,69.1186523 C97.3800438,69.3221039 97.0870779,69.5458972 96.8632812,69.7900391 C96.6394846,70.0341809 96.4868982,70.2701812 96.4055176,70.4980469 C96.8286968,70.8805358 97.1420074,71.3708466 97.345459,71.9689941 C97.5489105,72.5671417 97.6506348,73.2446251 97.6506348,74.0014648 L97.6506348,85 L92.5969238,85 L92.5969238,73.9526367 C92.5969238,73.724771 92.57251,73.4908052 92.5236816,73.2507324 C92.4748533,73.0106596 92.3853359,72.7726249 92.255127,72.5366211 C92.124918,72.3006173 91.9458833,72.068686 91.7180176,71.8408203 C91.4901519,71.6129546 91.201255,71.4013682 90.8513184,71.2060547 C90.9896654,70.6282523 91.1870104,70.0504586 91.4433594,69.4726562 C91.6997083,68.8948539 92.0231914,68.341474 92.4138184,67.8125 C92.8044453,67.283526 93.2662734,66.7911807 93.7993164,66.3354492 C94.3323594,65.8797178 94.9427049,65.4829932 95.6303711,65.1452637 C96.3180373,64.8075341 97.0911415,64.5410166 97.949707,64.3457031 C98.8082725,64.1503896 99.758377,64.0527344 100.800049,64.0527344 C102.037034,64.0527344 103.133622,64.164631 104.089844,64.3884277 C105.046066,64.6122244 105.884274,64.9214661 106.604492,65.3161621 C107.324711,65.7108581 107.933022,66.1828586 108.429443,66.7321777 C108.925865,67.2814969 109.326659,67.877601 109.631836,68.5205078 C109.937013,69.1634147 110.158772,69.8429326 110.297119,70.559082 C110.435466,71.2752314 110.504639,72.003577 110.504639,72.7441406 L110.504639,85 L105.353271,85 L105.353271,72.4023438 C105.353271,71.9303362 105.277996,71.4603702 105.127441,70.9924316 C104.976887,70.5244931 104.724611,70.1033547 104.370605,69.7290039 C104.0166,69.3546531 103.548668,69.0515148 102.966797,68.8195801 C102.384925,68.5876453 101.662683,68.4635417 100.800049,68.4472656 Z M112.848389,71.6943359 C112.848389,70.4573506 113.072182,69.3648322 113.519775,68.416748 C113.967369,67.4686639 114.559404,66.6711458 115.295898,66.0241699 C116.032393,65.377194 116.87467,64.8868832 117.822754,64.5532227 C118.770838,64.2195621 119.745356,64.0527344 120.746338,64.0527344 C121.8287,64.0527344 122.839839,64.1951483 123.779785,64.4799805 C124.719731,64.7648126 125.53556,65.1981579 126.227295,65.7800293 C126.91903,66.3619007 127.462238,67.0983842 127.856934,67.989502 C128.25163,68.8806197 128.448975,69.9324484 128.448975,71.1450195 L128.448975,85 L123.346436,85 L123.346436,71.8041992 C123.346436,70.6241803 123.124677,69.7696967 122.681152,69.2407227 C122.237628,68.7117487 121.592696,68.4472656 120.746338,68.4472656 C119.989498,68.4472656 119.377118,68.7178521 118.90918,69.2590332 C118.441241,69.8002143 118.170655,70.6119738 118.097412,71.6943359 L112.848389,71.6943359 Z M136.285889,77.3950195 C136.367269,78.6564191 136.709063,79.5902476 137.311279,80.1965332 C137.913496,80.8028188 138.755773,81.105957 139.838135,81.105957 C140.139243,81.105957 140.458657,81.0734053 140.796387,81.0083008 C141.134116,80.9431963 141.443358,80.8333341 141.724121,80.6787109 C142.004884,80.5240878 142.236815,80.3145358 142.419922,80.0500488 C142.603028,79.7855618 142.69458,79.4539408 142.69458,79.0551758 C142.69458,78.7622056 142.61727,78.503826 142.462646,78.2800293 C142.308023,78.0562326 142.074058,77.8426117 141.760742,77.6391602 C141.447427,77.4357086 141.052737,77.2322601 140.57666,77.0288086 C140.100584,76.8253571 139.537031,76.5974948 138.885986,76.3452148 C137.901281,75.970864 136.979659,75.5965188 136.121094,75.222168 C135.262528,74.8478171 134.515872,74.4226098 133.881104,73.9465332 C133.246335,73.4704566 132.747886,72.9150422 132.385742,72.2802734 C132.023598,71.6455046 131.842529,70.8846073 131.842529,69.9975586 C131.842529,69.2732711 131.942219,68.6242704 132.141602,68.0505371 C132.340984,67.4768038 132.617674,66.9722515 132.97168,66.5368652 C133.325685,66.1014789 133.738686,65.7291682 134.210693,65.4199219 C134.682701,65.1106755 135.193357,64.8583994 135.742676,64.6630859 C136.291995,64.4677725 136.863685,64.3253585 137.457764,64.2358398 C138.051842,64.1463212 138.645912,64.1015625 139.23999,64.1015625 C140.387457,64.1015625 141.449458,64.2236316 142.426025,64.4677734 C143.402593,64.7119153 144.248938,65.1228812 144.965088,65.7006836 C145.681237,66.278486 146.252928,67.0515902 146.680176,68.0200195 C147.107424,68.9884489 147.345459,70.1969329 147.394287,71.6455078 L142.438232,71.6455078 C142.421956,71.0514293 142.334473,70.5448426 142.175781,70.1257324 C142.017089,69.7066223 141.805503,69.3648288 141.541016,69.1003418 C141.276529,68.8358548 140.971356,68.6446132 140.625488,68.5266113 C140.279621,68.4086094 139.919517,68.3496094 139.545166,68.3496094 C139.268472,68.3496094 138.985679,68.3801266 138.696777,68.4411621 C138.407876,68.5021976 138.143393,68.5957839 137.90332,68.7219238 C137.663247,68.8480638 137.467937,69.0128571 137.317383,69.2163086 C137.166829,69.4197601 137.091553,69.6638983 137.091553,69.9487305 C137.091553,70.1765962 137.160725,70.3841136 137.299072,70.5712891 C137.437419,70.7584645 137.655109,70.9456371 137.952148,71.1328125 C138.249188,71.3199879 138.63574,71.5112295 139.111816,71.706543 C139.587893,71.9018564 140.163652,72.1175118 140.839111,72.3535156 C142.238858,72.8580754 143.392411,73.3585587 144.299805,73.8549805 C145.207199,74.3514022 145.923337,74.8661269 146.448242,75.3991699 C146.973147,75.932213 147.33732,76.4937308 147.540771,77.0837402 C147.744223,77.6737497 147.845947,78.3105435 147.845947,78.9941406 C147.845947,80.1822976 147.634361,81.1852986 147.211182,82.0031738 C146.788002,82.821049 146.208174,83.4822566 145.47168,83.9868164 C144.735185,84.4913762 143.86646,84.8535145 142.865479,85.0732422 C141.864497,85.2929698 140.790289,85.402832 139.642822,85.402832 C138.503494,85.402832 137.437424,85.2543146 136.44458,84.9572754 C135.451737,84.6602361 134.578943,84.1923046 133.826172,83.5534668 C133.073401,82.914629 132.46509,82.0886281 132.001221,81.0754395 C131.537351,80.0622508 131.268799,78.8354564 131.195557,77.3950195 L136.285889,77.3950195 Z" id="ปฏิบัติการ"></path>
                    <path d="M75.3984375,-0.7109375 C73.4713445,-0.7109375 71.7591221,-0.346357813 70.2617188,0.3828125 C68.7643154,1.11198281 67.5078176,2.08853555 66.4921875,3.3125 C65.4765574,4.53646445 64.7018256,5.96223145 64.1679688,7.58984375 C63.6341119,9.21745605 63.3671875,10.9296785 63.3671875,12.7265625 C63.3671875,14.5234465 63.6406223,16.2161379 64.1875,17.8046875 C64.7343777,19.3932371 65.5221303,20.7864523 66.5507812,21.984375 C67.5794322,23.1822977 68.8424404,24.1262986 70.3398438,24.8164062 C71.8372471,25.5065139 73.5234281,25.8515625 75.3984375,25.8515625 C77.2213633,25.8515625 78.8489512,25.4934932 80.28125,24.7773438 C81.7135488,24.0611943 82.9179639,23.0976623 83.8945312,21.8867188 C84.8710986,20.6757752 85.6132787,19.2760496 86.1210938,17.6875 C86.6289088,16.0989504 86.8828125,14.4453211 86.8828125,12.7265625 C86.8828125,10.9817621 86.6484398,9.29558105 86.1796875,7.66796875 C85.7109352,6.04035645 85.0078172,4.6080791 84.0703125,3.37109375 C83.1328078,2.1341084 81.9414135,1.14453496 80.4960938,0.40234375 C79.050774,-0.339847461 77.3515723,-0.7109375 75.3984375,-0.7109375 Z M76.6484375,-39.6171875 C83.4193047,-39.6171875 88.8424275,-37.8073098 92.9179688,-34.1875 C96.99351,-30.5676902 99.6822852,-25.1771191 100.984375,-18.015625 L85.9453125,-18.015625 C85.2942676,-20.9843898 84.1679768,-23.2955646 82.5664062,-24.9492188 C80.9648357,-26.6028729 78.8359508,-27.4296875 76.1796875,-27.4296875 C74.4869707,-27.4296875 72.9830795,-27.143232 71.6679688,-26.5703125 C70.352858,-25.997393 69.1940154,-25.2161508 68.1914062,-24.2265625 C67.1887971,-23.2369742 66.3294307,-22.084642 65.6132812,-20.7695312 C64.8971318,-19.4544205 64.3046898,-18.0612053 63.8359375,-16.5898438 C63.3671852,-15.1184822 63.0091158,-13.6080807 62.7617188,-12.0585938 C62.5143217,-10.5091068 62.3515629,-9.01823633 62.2734375,-7.5859375 C64.4349066,-9.77344844 66.7330607,-11.3880156 69.1679688,-12.4296875 C71.6028768,-13.4713594 74.1484242,-13.9921875 76.8046875,-13.9921875 C80.971375,-13.9921875 84.6692547,-13.3216213 87.8984375,-11.9804688 C91.1276203,-10.6393162 93.8554576,-8.80339707 96.0820312,-6.47265625 C98.3086049,-4.14191543 100.001296,-1.38803672 101.160156,1.7890625 C102.319016,4.96616172 102.898438,8.39060664 102.898438,12.0625 C102.898438,14.0937602 102.696617,16.1770727 102.292969,18.3125 C101.889321,20.4479273 101.244796,22.5247295 100.359375,24.5429688 C99.4739539,26.561208 98.3151113,28.4622307 96.8828125,30.2460938 C95.4505137,32.0299568 93.6927188,33.5924412 91.609375,34.9335938 C89.5260313,36.2747463 87.1041805,37.3359336 84.34375,38.1171875 C81.5833195,38.8984414 78.4323094,39.2890625 74.890625,39.2890625 C70.7239375,39.2890625 67.1237131,38.742193 64.0898438,37.6484375 C61.0559744,36.554682 58.4713648,35.0768322 56.3359375,33.2148438 C54.2005102,31.3528553 52.4687566,29.1783979 51.140625,26.6914062 C49.8124934,24.2044146 48.7708371,21.5742326 48.015625,18.8007812 C47.2604129,16.0273299 46.7526055,13.1888166 46.4921875,10.2851562 C46.2317695,7.3814959 46.1015625,4.56251367 46.1015625,1.828125 C46.1015625,-1.71355938 46.3098938,-5.19659746 46.7265625,-8.62109375 C47.1432312,-12.04559 47.8203078,-15.2942555 48.7578125,-18.3671875 C49.6953172,-21.4401195 50.9387943,-24.2721225 52.4882812,-26.8632812 C54.0377682,-29.45444 55.9453012,-31.694001 58.2109375,-33.5820312 C60.4765738,-35.4700615 63.1262869,-36.9479113 66.1601562,-38.015625 C69.1940256,-39.0833387 72.6900844,-39.6171875 76.6484375,-39.6171875 Z" id="6"></path>
                </g>
            </g>
        </g>
    </g>
</svg>