<?xml version="1.0" encoding="UTF-8"?>
<svg width="30px" height="24px" viewBox="0 0 30 24" version="1.1" xmlns="http://www.w3.org/2000/svg" xmlns:xlink="http://www.w3.org/1999/xlink">
    <!-- Generator: Sketch 55.2 (78181) - https://sketchapp.com -->
    <title></title>
    <desc>Created with Sketch.</desc>
    <g id="Page-1" stroke="none" stroke-width="1" fill="none" fill-rule="evenodd">
        <g id="02_Detail" transform="translate(-94.000000, -5432.000000)" fill="#3AB34A" fill-rule="nonzero">
            <g id="contact" transform="translate(94.000000, 5337.000000)">
                <g id="mail" transform="translate(0.000000, 90.000000)">
                    <path d="M26.25,5.69999909 C28.3183587,5.69999909 30,7.37870967 30,9.44999909 L30,24.4499991 C30,26.5212885 28.3212894,28.1999991 26.25,28.1999991 L3.75,28.1999991 C1.67871058,28.1999991 0,26.5212885 0,24.4499991 L0,9.44999909 C0,7.37870967 1.67871058,5.69999909 3.75,5.69999909 L26.25,5.69999909 Z M29.0625,24.4499991 L29.0625,12.2097651 L16.9628906,21.8853513 C16.40625,22.3296092 15.7089847,22.5749991 15,22.5749991 C14.2910153,22.5749991 13.59375,22.3289046 13.0371094,21.8894515 L0.9375,12.2097651 L0.9375,24.4499991 C0.9375,26.0009757 2.19902337,27.2624991 3.75,27.2624991 L26.25,27.2624991 C27.8009766,27.2624991 29.0625,26.0009757 29.0625,24.4499991 Z M29.0625,11.0085932 L29.0625,9.44999909 C29.0625,7.89902246 27.8009766,6.63749909 26.25,6.63749909 L3.75,6.63749909 C2.19902337,6.63749909 0.9375,7.89902246 0.9375,9.44999909 L0.9375,11.0085932 L13.6230469,21.1570296 C14.4029295,21.7816392 15.5970705,21.7816392 16.3769531,21.1570296 L29.0625,11.0085932 Z" id=""></path>
                </g>
            </g>
        </g>
    </g>
</svg>