<?xml version="1.0" encoding="UTF-8"?>
<svg width="30px" height="31px" viewBox="0 0 30 31" version="1.1" xmlns="http://www.w3.org/2000/svg" xmlns:xlink="http://www.w3.org/1999/xlink">
    <!-- Generator: Sketch 55.2 (78181) - https://sketchapp.com -->
    <title></title>
    <desc>Created with Sketch.</desc>
    <g id="Page-1" stroke="none" stroke-width="1" fill="none" fill-rule="evenodd">
        <g id="02_Detail" transform="translate(-435.000000, -4797.000000)" fill="#264165" fill-rule="nonzero">
            <g id="contact" transform="translate(94.000000, 4710.000000)">
                <g id="tel" transform="translate(341.000000, 86.000000)">
                    <path d="M15.0000009,1.94999909 C22.7519533,1.94999909 29.0625009,8.26054668 29.0625009,16.0124991 L29.0625009,25.3874991 C29.0625009,27.7130852 27.1699235,29.6062491 24.8437509,29.6062491 L18.7500009,29.6062491 C18.7324235,29.6062491 18.720704,29.5886717 18.7048844,29.5874987 C18.4880868,30.9257797 17.3367199,31.9499991 15.9375,31.9499991 L14.0097669,31.9499991 C12.5097665,31.9499991 11.2500009,30.6902335 11.2500009,29.1374991 C11.2500009,27.5847647 12.5097665,26.3249991 14.0625009,26.3249991 L15.9375,26.3249991 C17.3378912,26.3249991 18.486329,27.3503897 18.7046841,28.6875174 C18.7218466,28.6856881 18.7322643,28.6687491 18.7500009,28.6687491 L24.8437509,28.6687491 C26.6531262,28.6687491 28.1250009,27.1968744 28.1250009,25.3874991 L28.1250009,16.0124991 C28.1250009,8.77617097 22.236329,2.88749909 15.0000009,2.88749909 C7.76367277,2.88749909 1.87500089,8.77617097 1.87500089,16.0124991 L1.87500089,20.2312491 C1.87500089,20.4890612 1.55976623,20.6999991 1.35351598,20.6999991 C1.14726573,20.6999991 0.9375,20.4890612 0.9375,20.2312491 L0.9375,16.0124991 C0.9375,8.26054668 7.2480467,1.94999909 15,1.94999909 L15.0000009,1.94999909 Z M15.9375009,31.0124991 C16.9687513,31.0124991 17.8125009,30.1710937 17.8125009,29.1374991 C17.8125009,28.1039045 16.9710955,27.2624991 15.9375009,27.2624991 L14.0625009,27.2624991 C13.0289072,27.2624991 12.1875009,28.1039045 12.1875009,29.1374991 C12.1875009,30.1710937 13.0289072,31.0124991 14.0625009,31.0124991 L15.9375009,31.0124991 Z M8.43750089,13.1999991 C9.47461009,13.1999991 10.3125009,14.0378899 10.3125009,15.0749991 L10.3125009,22.5749991 C10.3125009,23.6103514 9.47285235,24.4499991 8.43750089,24.4499991 L7.50000089,24.4499991 C5.42871147,24.4499991 3.75,22.7712885 3.75,20.6999991 L3.69726509,16.8972651 C3.69726509,14.8787097 5.37597656,13.1999991 7.44726598,13.1999991 L8.43750089,13.1999991 Z M9.37500089,22.5749991 L9.37441528,15.0749991 C9.37441528,14.5579675 8.95441532,14.1374991 8.43750089,14.1374991 L7.50000089,14.1374991 C5.94726652,14.1374991 4.68750089,15.4031245 4.68750089,16.9558588 L4.68750089,20.6999991 C4.68750089,22.2509757 5.94902426,23.5124991 7.50000089,23.5124991 L8.43750089,23.5124991 C8.95441532,23.5124991 9.37500089,23.0920306 9.37500089,22.5749991 Z M22.5000009,24.4499991 L21.5625009,24.4499991 C20.5271485,24.4499991 19.6875009,23.6103514 19.6875009,22.5749991 L19.6875009,15.0749991 C19.6875009,14.0396476 20.5271485,13.1999991 21.5625009,13.1999991 L22.4998489,13.3054671 C24.5705518,13.3054671 26.2498489,14.9314437 26.2498489,17.0027331 L26.2500009,20.6999991 C26.2500009,22.7712885 24.5712903,24.4499991 22.5000009,24.4499991 Z M20.6250009,22.5749991 C20.6250009,23.0906234 21.0468766,23.5124991 21.5625009,23.5124991 L22.5000009,23.5124991 C24.0509775,23.5124991 25.3125009,22.2509757 25.3125009,20.6999991 L25.3125009,16.9546876 C25.3125009,15.4037101 24.0509775,14.1374991 22.5000009,14.1374991 L21.5625009,14.1374991 C21.0468766,14.1374991 20.5722669,14.5593739 20.6246147,15.1277331 L20.6250009,22.5749991 Z" id=""></path>
                </g>
            </g>
        </g>
    </g>
</svg>