<?xml version="1.0" encoding="UTF-8"?>
<svg width="63px" height="45px" viewBox="0 0 63 45" version="1.1" xmlns="http://www.w3.org/2000/svg" xmlns:xlink="http://www.w3.org/1999/xlink">
    <!-- Generator: Sketch 55.2 (78181) - https://sketchapp.com -->
    <title>Group 20</title>
    <desc>Created with Sketch.</desc>
    <g id="Page-1" stroke="none" stroke-width="1" fill="none" fill-rule="evenodd">
        <g id="02_detail" transform="translate(-110.000000, -2583.000000)" fill="#36B7DE">
            <g id="performance" transform="translate(0.000000, 2230.000000)">
                <g id="Group-12" transform="translate(110.000000, 158.000000)">
                    <g id="detail" transform="translate(0.000000, 53.000000)">
                        <g id="Group-13" transform="translate(0.000000, 126.000000)">
                            <g id="Group-36" transform="translate(0.000000, 13.000000)">
                                <g id="Group-20">
                                    <text id="cloud" font-family="FontAwesome6Pro-Thin, Font Awesome 6 Pro" font-size="50" font-weight="300">
                                        <tspan x="0.25" y="44">cloud</tspan>
                                    </text>
                                    <text id="Co2" font-family="DBHelvethaicaX-85Blk, DB Helvethaica X" font-size="24" font-weight="800">
                                        <tspan x="14.4345703" y="35">Co2</tspan>
                                    </text>
                                </g>
                            </g>
                        </g>
                    </g>
                </g>
            </g>
        </g>
    </g>
</svg>