<?xml version="1.0" encoding="UTF-8"?>
<svg width="30px" height="31px" viewBox="0 0 30 31" version="1.1" xmlns="http://www.w3.org/2000/svg" xmlns:xlink="http://www.w3.org/1999/xlink">
    <!-- Generator: Sketch 55.2 (78181) - https://sketchapp.com -->
    <title></title>
    <desc>Created with Sketch.</desc>
    <g id="Page-1" stroke="none" stroke-width="1" fill="none" fill-rule="evenodd">
        <g id="02_Detail" transform="translate(-680.000000, -4799.000000)" fill="#264165" fill-rule="nonzero">
            <g id="contact" transform="translate(94.000000, 4710.000000)">
                <g id="web" transform="translate(586.000000, 90.000000)">
                    <path d="M15,-0.25 C23.2851559,-0.25 30,6.46484411 30,14.75 C30,23.0351559 23.2851559,29.75 15,29.75 C6.71484411,29.75 0,23.0351559 0,14.75 C0,6.46484411 6.71484411,-0.25 15,-0.25 Z M15.0000004,28.8125 C16.5234375,28.8125 18.1582028,27.5527344 19.4648445,24.9394528 C20.1093757,23.6503903 20.6308597,22.1035156 21.0000004,20.375 L9.00000036,20.375 C9.36914027,22.1035156 9.89062518,23.6503903 10.5351564,24.9394528 C11.8417972,27.5527344 13.4238285,28.8125 14.947266,28.8125 L15.0000004,28.8125 Z M8.82421911,19.4375 L21.1757809,19.4375 C21.4277351,17.9726562 21.5625,16.3964847 21.5625,14.75 C21.5625,13.1035153 21.4277351,11.4746097 21.1757809,10.0625 L8.82421911,10.0625 C8.5722658,11.4746097 8.4375,13.1035153 8.4375,14.75 C8.4375,16.3964847 8.5722658,17.9726562 8.82421911,19.4375 Z M21.0000004,9.125 C20.6308597,7.39062464 20.1093757,5.84960973 19.4648445,4.56289148 C18.1582028,1.94785213 16.5234375,0.6875 15.0000004,0.6875 C13.4238285,0.6875 11.8417972,1.94785213 10.5351564,4.56289148 C9.89062518,5.84960973 9.36914027,7.39062464 9.00000036,9.125 L21.0000004,9.125 Z M22.1250004,10.0625 C22.371093,11.5390623 22.5,13.1152347 22.5,14.75 C22.5,16.3847653 22.371093,17.9609368 22.1250004,19.4375 L28.2597649,19.4375 C28.7812507,17.9199222 29.0625,16.3964847 29.0625,14.75 C29.0625,13.1035153 28.7812507,11.5273438 28.2597649,10.0625 L22.1250004,10.0625 Z M18.0175781,1.01152337 C19.7988278,2.58066392 21.222657,5.5009762 21.9550788,9.125 L27.890625,9.125 C26.1093754,5.0498054 22.4531257,1.98183572 18.0175781,1.01152337 Z M11.9824219,1.01152337 C7.54687518,1.98183572 3.88828129,5.0498054 2.10761726,9.125 L8.04492205,9.125 C8.77734393,5.5009762 10.2011722,2.58066392 11.9824219,1.01152337 Z M0.9375,14.75 C0.9375,16.3964847 1.21933579,17.9199222 1.73789084,19.4375 L7.87499964,19.4375 C7.62890607,17.9609368 7.5,16.3847653 7.5,14.75 C7.5,13.1152347 7.62890607,11.5390623 7.87499964,10.0625 L1.73789084,10.0625 C1.21933579,11.5273438 0.9375,13.1035153 0.9375,14.75 Z M27.890625,20.375 L21.9550788,20.375 C21.222657,23.996093 19.7988278,26.9199226 18.0175781,28.4902344 C22.4531257,27.5175778 26.1093754,24.4472656 27.890625,20.375 Z M8.04492116,20.375 L2.10761636,20.375 C3.88828039,24.4472656 7.54687428,27.5175778 11.982421,28.4902344 C10.2011713,26.9199226 8.77734303,23.996093 8.04492116,20.375 Z" id=""></path>
                </g>
            </g>
        </g>
    </g>
</svg>