<?xml version="1.0" encoding="UTF-8"?>
<svg width="333px" height="45px" viewBox="0 0 333 45" version="1.1" xmlns="http://www.w3.org/2000/svg" xmlns:xlink="http://www.w3.org/1999/xlink">
    <!-- Generator: Sketch 55.2 (78181) - https://sketchapp.com -->
    <title>Group 36</title>
    <desc>Created with Sketch.</desc>
    <defs>
        <linearGradient x1="-0.000143100414%" y1="49.997353%" x2="100.000095%" y2="49.997353%" id="linearGradient-1">
            <stop stop-color="#B7D8F2" offset="1.25%"></stop>
            <stop stop-color="#BCD9F2" offset="39%"></stop>
            <stop stop-color="#C8DDF3" offset="75.7%"></stop>
            <stop stop-color="#D4E2F4" offset="100%"></stop>
        </linearGradient>
    </defs>
    <g id="Page-1" stroke="none" stroke-width="1" fill="none" fill-rule="evenodd" opacity="0.3">
        <g id="cloud" transform="translate(-859.000000, -258.000000)" fill-rule="nonzero">
            <g id="Layer_2">
                <g id="Group-2">
                    <g id="Group-36" transform="translate(859.322751, 258.160116)">
                        <path d="M24.1609947,39.1899482 C56.5376404,36.5666293 93.6584219,43.0970189 120.815713,25.315619 C123.245505,23.7257288 125.600121,23.0517168 127.897013,23.0517168 C132.932456,23.0517168 137.684646,26.2890039 142.294539,30.2121426 C144.767289,25.7020976 154.289121,23.0001299 160.587787,23.0001299 C164.225763,23.0001299 167.918779,23.7308029 171.827925,25.3147733 C183.223785,14.5373473 201.835188,4.80349811 224.143634,4.80349811 C235.417333,4.80349811 236.257692,13.0726186 236.264404,13.0726186 C255.243632,13.0726186 273.571783,8.17124146e-14 290.374937,8.17124146e-14 C292.302662,8.17124146e-14 292.630214,1.04526825 292.630214,2.2385316 C292.630214,2.85419122 292.544298,3.50790672 292.544298,4.07874496 C292.544298,5.06227811 292.828893,5.02422223 292.828893,6.06864479 C292.828893,13.89378 281.415582,13.0430196 296.925979,13.0430196 C310.340848,13.0430196 332.293551,14.8874614 332.293551,22.9984386 C332.293551,32.5284773 264.439254,32.6604044 293.320221,32.6604044 C323.787936,32.6604044 255.22618,44.1921826 155.330844,44.1921826 C102.898344,44.1921826 50.04835,41.6728831 1.42108547e-13,40.0060355 C8.05187499,39.1899482 16.1775834,39.8368982 24.1609947,39.1899482 Z" id="Path" fill="#FFFFFF"></path>
                        <path d="M223.587869,34.7331815 C204.932166,34.7331815 213.165269,33.5263871 213.165269,30.4167987 C213.165269,29.5271367 212.904838,29.5880261 208.682906,29.5880261 C195.074727,29.5880261 180.955084,32.0447448 168.696044,36.4211713 C170.933869,36.9852441 173.618722,36.7027848 175.855205,37.8309303 C166.274306,38.4499727 156.140327,39.4292774 146.143276,39.4292774 C131.454444,39.4292774 120.073351,36.4338566 120.073351,36.4338566 C115.809804,36.4338566 111.551627,39.5003151 106.944418,39.8039165 C88.1907182,41.0377727 69.3846634,40.6673622 50.8605181,41.8318722 C85.2333523,43.0716483 120.37137,44.1930283 155.328159,44.1930283 C255.223495,44.1930283 323.785251,32.6612501 293.317536,32.6612501 C264.436569,32.6612501 332.290866,32.529323 332.290866,22.9992843 C332.290866,22.5925091 332.22106,22.2051848 332.115009,21.8288544 C310.871107,23.7274201 263.827108,27.9321724 263.827108,27.9321724 C263.827108,32.4599767 230.297318,34.7331815 223.587869,34.7331815 Z" id="Path" fill="url(#linearGradient-1)"></path>
                    </g>
                </g>
            </g>
        </g>
    </g>
</svg>